Kernspin/Daten/dx_2.csv

X,CH1,CH2,Start,Increment,
Sequence,Volt,Volt,-1.200000e-02,2.000000e-05
0,3.80e-02,-3.60e+00,
1,8.00e-03,-3.84e+00,
2,4.00e-02,-3.68e+00,
3,1.00e-02,-3.84e+00,
4,4.20e-02,-3.84e+00,
5,6.00e-03,-3.68e+00,
6,3.80e-02,-3.68e+00,
7,1.00e-02,-3.84e+00,
8,1.00e-02,-3.68e+00,
9,4.00e-02,-3.92e+00,
10,4.00e-02,-3.92e+00,
11,8.00e-03,-3.76e+00,
12,3.40e-02,-3.76e+00,
13,4.00e-03,-3.92e+00,
14,2.00e-03,-3.76e+00,
15,3.20e-02,-4.00e+00,
16,4.00e-03,-4.00e+00,
17,3.60e-02,-3.84e+00,
18,6.00e-03,-3.84e+00,
19,3.80e-02,-4.00e+00,
20,1.60e-02,-3.84e+00,
21,4.20e-02,-4.08e+00,
22,4.60e-02,-4.08e+00,
23,1.40e-02,-3.92e+00,
24,4.20e-02,-4.08e+00,
25,1.00e-02,-3.92e+00,
26,1.20e-02,-4.08e+00,
27,4.00e-02,-3.92e+00,
28,3.80e-02,-4.00e+00,
29,1.00e-02,-4.16e+00,
30,3.80e-02,-4.16e+00,
31,6.00e-03,-4.00e+00,
32,3.20e-02,-4.16e+00,
33,6.00e-03,-4.00e+00,
34,4.00e-03,-4.00e+00,
35,3.20e-02,-4.24e+00,
36,1.00e-02,-4.24e+00,
37,3.80e-02,-4.08e+00,
38,3.60e-02,-4.24e+00,
39,8.00e-03,-4.08e+00,
40,8.00e-03,-4.24e+00,
41,4.00e-02,-4.08e+00,
42,4.00e-03,-4.08e+00,
43,3.80e-02,-4.32e+00,
44,3.60e-02,-4.32e+00,
45,6.00e-03,-4.24e+00,
46,3.80e-02,-4.32e+00,
47,1.00e-02,-4.16e+00,
48,4.00e-02,-4.16e+00,
49,8.00e-03,-4.32e+00,
50,1.20e-02,-4.16e+00,
51,4.20e-02,-4.48e+00,
52,4.40e-02,-4.24e+00,
53,1.20e-02,-4.48e+00,
54,1.20e-02,-4.48e+00,
55,3.80e-02,-4.32e+00,
56,1.20e-02,-4.24e+00,
57,3.80e-02,-4.40e+00,
58,1.20e-02,-4.24e+00,
59,3.80e-02,-4.56e+00,
60,1.20e-02,-4.40e+00,
61,4.00e-02,-4.56e+00,
62,1.20e-02,-4.40e+00,
63,3.80e-02,-4.56e+00,
64,1.40e-02,-4.56e+00,
65,4.00e-02,-4.40e+00,
66,1.00e-02,-4.40e+00,
67,4.00e-02,-4.64e+00,
68,3.20e-02,-4.40e+00,
69,6.00e-03,-4.64e+00,
70,1.00e-02,-4.48e+00,
71,4.00e-02,-4.64e+00,
72,8.00e-03,-4.48e+00,
73,4.00e-02,-4.64e+00,
74,4.00e-02,-4.48e+00,
75,1.40e-02,-4.64e+00,
76,8.00e-03,-4.48e+00,
77,3.60e-02,-4.72e+00,
78,1.20e-02,-4.48e+00,
79,3.60e-02,-4.72e+00,
80,8.00e-03,-4.56e+00,
81,3.80e-02,-4.72e+00,
82,6.00e-03,-4.72e+00,
83,3.80e-02,-4.56e+00,
84,1.20e-02,-4.64e+00,
85,4.40e-02,-4.56e+00,
86,1.60e-02,-4.56e+00,
87,4.00e-02,-4.80e+00,
88,1.40e-02,-4.64e+00,
89,4.20e-02,-4.80e+00,
90,4.20e-02,-4.80e+00,
91,1.00e-02,-4.72e+00,
92,1.20e-02,-4.80e+00,
93,4.20e-02,-4.64e+00,
94,4.00e-02,-4.80e+00,
95,6.00e-03,-4.64e+00,
96,3.00e-02,-4.64e+00,
97,0.00e+00,-4.88e+00,
98,4.00e-03,-4.88e+00,
99,3.20e-02,-4.72e+00,
100,4.00e-02,-4.88e+00,
101,8.00e-03,-4.72e+00,
102,3.80e-02,-4.72e+00,
103,8.00e-03,-4.88e+00,
104,6.00e-03,-4.96e+00,
105,4.00e-02,-4.72e+00,
106,3.80e-02,-4.96e+00,
107,1.00e-02,-4.80e+00,
108,4.00e-02,-4.96e+00,
109,8.00e-03,-4.80e+00,
110,4.00e-02,-4.80e+00,
111,6.00e-03,-4.96e+00,
112,4.00e-02,-4.96e+00,
113,6.00e-03,-4.80e+00,
114,3.20e-02,-4.80e+00,
115,6.00e-03,-5.04e+00,
116,3.40e-02,-5.04e+00,
117,6.00e-03,-4.88e+00,
118,3.20e-02,-5.04e+00,
119,6.00e-03,-4.88e+00,
120,6.00e-03,-5.04e+00,
121,3.20e-02,-4.88e+00,
122,3.40e-02,-4.88e+00,
123,4.00e-03,-5.04e+00,
124,3.20e-02,-4.88e+00,
125,0.00e+00,-5.04e+00,
126,4.00e-03,-4.88e+00,
127,3.20e-02,-5.12e+00,
128,3.60e-02,-5.12e+00,
129,6.00e-03,-5.04e+00,
130,3.60e-02,-5.12e+00,
131,4.00e-03,-5.04e+00,
132,3.40e-02,-5.12e+00,
133,4.00e-03,-4.96e+00,
134,2.00e-03,-5.12e+00,
135,3.20e-02,-4.96e+00,
136,3.40e-02,-4.96e+00,
137,2.00e-03,-5.12e+00,
138,6.00e-03,-4.96e+00,
139,3.00e-02,-5.20e+00,
140,4.00e-03,-4.96e+00,
141,3.40e-02,-5.20e+00,
142,3.20e-02,-5.20e+00,
143,4.00e-03,-4.96e+00,
144,3.60e-02,-5.20e+00,
145,2.00e-03,-4.96e+00,
146,3.60e-02,-5.20e+00,
147,8.00e-03,-5.04e+00,
148,4.00e-03,-5.20e+00,
149,3.40e-02,-5.04e+00,
150,3.40e-02,-5.20e+00,
151,4.00e-03,-5.04e+00,
152,-2.00e-03,-5.20e+00,
153,2.80e-02,-5.04e+00,
154,2.80e-02,-5.20e+00,
155,0.00e+00,-5.04e+00,
156,2.00e-03,-5.20e+00,
157,3.00e-02,-5.04e+00,
158,4.00e-03,-5.20e+00,
159,3.60e-02,-5.04e+00,
160,3.20e-02,-5.20e+00,
161,2.00e-03,-5.04e+00,
162,2.60e-02,-5.12e+00,
163,-2.00e-03,-5.04e+00,
164,0.00e+00,-5.04e+00,
165,3.00e-02,-5.20e+00,
166,4.00e-03,-5.04e+00,
167,3.20e-02,-5.28e+00,
168,2.60e-02,-5.20e+00,
169,0.00e+00,-5.04e+00,
170,-4.00e-03,-5.04e+00,
171,2.60e-02,-5.28e+00,
172,-6.00e-03,-5.28e+00,
173,3.00e-02,-5.04e+00,
174,-2.00e-03,-5.28e+00,
175,2.60e-02,-5.04e+00,
176,0.00e+00,-5.28e+00,
177,2.80e-02,-5.04e+00,
178,2.40e-02,-5.28e+00,
179,-4.00e-03,-5.04e+00,
180,2.40e-02,-5.28e+00,
181,-8.00e-03,-5.12e+00,
182,2.40e-02,-5.28e+00,
183,-4.00e-03,-5.12e+00,
184,2.40e-02,-5.28e+00,
185,-2.00e-03,-5.12e+00,
186,2.20e-02,-5.28e+00,
187,-4.00e-03,-5.12e+00,
188,1.80e-02,-5.28e+00,
189,-1.00e-02,-5.12e+00,
190,-8.00e-03,-5.28e+00,
191,2.00e-02,-5.12e+00,
192,-8.00e-03,-5.28e+00,
193,2.40e-02,-5.12e+00,
194,2.40e-02,-5.28e+00,
195,-8.00e-03,-5.12e+00,
196,1.60e-02,-5.28e+00,
197,-8.00e-03,-5.12e+00,
198,2.00e-02,-5.28e+00,
199,-8.00e-03,-5.12e+00,
200,-8.00e-03,-5.28e+00,
201,2.60e-02,-5.12e+00,
202,2.80e-02,-5.28e+00,
203,-2.00e-03,-5.12e+00,
204,2.40e-02,-5.28e+00,
205,-6.00e-03,-5.04e+00,
206,0.00e+00,-5.28e+00,
207,2.60e-02,-5.04e+00,
208,2.00e-03,-5.28e+00,
209,3.00e-02,-5.04e+00,
210,3.20e-02,-5.28e+00,
211,2.00e-03,-5.04e+00,
212,2.40e-02,-5.28e+00,
213,-6.00e-03,-5.04e+00,
214,-8.00e-03,-5.28e+00,
215,2.60e-02,-5.04e+00,
216,2.40e-02,-5.28e+00,
217,-2.00e-03,-5.04e+00,
218,-2.00e-03,-5.04e+00,
219,3.00e-02,-5.20e+00,
220,3.00e-02,-5.04e+00,
221,2.00e-03,-5.28e+00,
222,3.20e-02,-5.20e+00,
223,-2.00e-03,-5.04e+00,
224,2.60e-02,-5.20e+00,
225,-6.00e-03,-5.04e+00,
226,-4.00e-03,-5.04e+00,
227,2.40e-02,-5.20e+00,
228,-4.00e-03,-5.20e+00,
229,2.60e-02,-5.04e+00,
230,2.40e-02,-5.20e+00,
231,-4.00e-03,-5.04e+00,
232,-6.00e-03,-5.20e+00,
233,2.00e-02,-5.04e+00,
234,-8.00e-03,-5.04e+00,
235,2.40e-02,-5.20e+00,
236,-2.00e-03,-5.20e+00,
237,2.60e-02,-5.04e+00,
238,2.60e-02,-5.20e+00,
239,-4.00e-03,-5.04e+00,
240,-2.00e-03,-5.20e+00,
241,2.60e-02,-5.04e+00,
242,2.60e-02,-5.20e+00,
243,-4.00e-03,-4.96e+00,
244,2.80e-02,-4.96e+00,
245,-6.00e-03,-5.20e+00,
246,2.80e-02,-4.96e+00,
247,-2.00e-03,-5.20e+00,
248,2.00e-03,-5.04e+00,
249,3.00e-02,-4.96e+00,
250,-2.00e-03,-4.96e+00,
251,3.20e-02,-5.12e+00,
252,2.40e-02,-5.12e+00,
253,-2.00e-03,-4.96e+00,
254,-4.00e-03,-5.12e+00,
255,3.00e-02,-4.96e+00,
256,2.40e-02,-5.12e+00,
257,-2.00e-03,-5.04e+00,
258,-2.00e-03,-5.12e+00,
259,3.00e-02,-4.96e+00,
260,4.00e-03,-5.12e+00,
261,3.20e-02,-4.96e+00,
262,3.00e-02,-5.12e+00,
263,0.00e+00,-4.88e+00,
264,3.20e-02,-4.88e+00,
265,-2.00e-03,-5.12e+00,
266,2.80e-02,-5.04e+00,
267,0.00e+00,-4.88e+00,
268,2.00e-03,-5.04e+00,
269,3.00e-02,-4.88e+00,
270,4.00e-03,-5.04e+00,
271,3.20e-02,-4.88e+00,
272,3.00e-02,-5.04e+00,
273,-2.00e-03,-4.88e+00,
274,2.60e-02,-4.88e+00,
275,-2.00e-03,-5.04e+00,
276,2.80e-02,-5.04e+00,
277,-2.00e-03,-4.80e+00,
278,2.00e-03,-4.96e+00,
279,2.60e-02,-4.80e+00,
280,2.00e-03,-4.80e+00,
281,3.20e-02,-4.96e+00,
282,4.00e-03,-4.96e+00,
283,3.60e-02,-4.80e+00,
284,4.00e-03,-4.96e+00,
285,3.40e-02,-4.88e+00,
286,3.20e-02,-4.96e+00,
287,2.00e-03,-4.80e+00,
288,2.60e-02,-4.72e+00,
289,-2.00e-03,-4.96e+00,
290,3.00e-02,-4.72e+00,
291,-2.00e-03,-4.88e+00,
292,3.00e-02,-4.72e+00,
293,-2.00e-03,-4.88e+00,
294,0.00e+00,-4.88e+00,
295,2.80e-02,-4.80e+00,
296,0.00e+00,-4.88e+00,
297,3.20e-02,-4.64e+00,
298,4.00e-03,-4.88e+00,
299,3.40e-02,-4.64e+00,
300,3.00e-02,-4.64e+00,
301,0.00e+00,-4.80e+00,
302,2.60e-02,-4.64e+00,
303,-2.00e-03,-4.80e+00,
304,-4.00e-03,-4.64e+00,
305,2.60e-02,-4.80e+00,
306,-2.00e-03,-4.64e+00,
307,3.20e-02,-4.80e+00,
308,4.00e-03,-4.56e+00,
309,3.40e-02,-4.80e+00,
310,3.00e-02,-4.56e+00,
311,0.00e+00,-4.72e+00,
312,0.00e+00,-4.56e+00,
313,2.80e-02,-4.72e+00,
314,2.60e-02,-4.72e+00,
315,-4.00e-03,-4.56e+00,
316,0.00e+00,-4.72e+00,
317,2.80e-02,-4.48e+00,
318,2.60e-02,-4.48e+00,
319,-6.00e-03,-4.64e+00,
320,2.40e-02,-4.48e+00,
321,-6.00e-03,-4.64e+00,
322,0.00e+00,-4.64e+00,
323,2.60e-02,-4.48e+00,
324,2.60e-02,-4.64e+00,
325,-2.00e-03,-4.40e+00,
326,0.00e+00,-4.40e+00,
327,3.20e-02,-4.56e+00,
328,3.00e-02,-4.40e+00,
329,0.00e+00,-4.56e+00,
330,0.00e+00,-4.40e+00,
331,3.20e-02,-4.56e+00,
332,-2.00e-03,-4.56e+00,
333,2.80e-02,-4.32e+00,
334,4.00e-03,-4.56e+00,
335,3.20e-02,-4.24e+00,
336,0.00e+00,-4.24e+00,
337,3.40e-02,-4.48e+00,
338,2.40e-02,-4.48e+00,
339,-4.00e-03,-4.32e+00,
340,-4.00e-03,-4.40e+00,
341,2.60e-02,-4.16e+00,
342,0.00e+00,-4.32e+00,
343,3.40e-02,-4.16e+00,
344,3.20e-02,-4.32e+00,
345,2.00e-03,-4.16e+00,
346,0.00e+00,-4.32e+00,
347,3.20e-02,-4.16e+00,
348,3.00e-02,-4.32e+00,
349,0.00e+00,-4.08e+00,
350,0.00e+00,-4.24e+00,
351,3.00e-02,-4.08e+00,
352,3.00e-02,-4.24e+00,
353,2.00e-03,-4.08e+00,
354,2.60e-02,-4.24e+00,
355,0.00e+00,-4.00e+00,
356,0.00e+00,-4.16e+00,
357,3.00e-02,-4.00e+00,
358,6.00e-03,-4.16e+00,
359,3.40e-02,-4.00e+00,
360,3.20e-02,-4.16e+00,
361,2.00e-03,-4.00e+00,
362,3.00e-02,-4.16e+00,
363,0.00e+00,-3.92e+00,
364,-2.00e-03,-3.92e+00,
365,3.20e-02,-4.08e+00,
366,2.60e-02,-4.08e+00,
367,0.00e+00,-3.92e+00,
368,3.00e-02,-4.00e+00,
369,-2.00e-03,-3.84e+00,
370,0.00e+00,-3.84e+00,
371,3.00e-02,-4.00e+00,
372,3.00e-02,-4.00e+00,
373,-2.00e-03,-3.84e+00,
374,2.00e-03,-4.00e+00,
375,2.60e-02,-3.76e+00,
376,2.60e-02,-3.76e+00,
377,-4.00e-03,-3.92e+00,
378,2.00e-03,-3.92e+00,
379,3.20e-02,-3.76e+00,
380,3.40e-02,-3.92e+00,
381,6.00e-03,-3.68e+00,
382,6.00e-03,-3.68e+00,
383,3.80e-02,-3.84e+00,
384,3.40e-02,-3.68e+00,
385,8.00e-03,-3.84e+00,
386,3.40e-02,-3.84e+00,
387,4.00e-03,-3.60e+00,
388,0.00e+00,-3.60e+00,
389,3.00e-02,-3.76e+00,
390,0.00e+00,-3.60e+00,
391,3.20e-02,-3.76e+00,
392,2.00e-03,-3.76e+00,
393,3.00e-02,-3.52e+00,
394,4.00e-03,-3.68e+00,
395,3.20e-02,-3.52e+00,
396,1.20e-02,-3.52e+00,
397,3.60e-02,-3.68e+00,
398,1.20e-02,-3.68e+00,
399,3.80e-02,-3.44e+00,
400,3.80e-02,-3.44e+00,
401,6.00e-03,-3.60e+00,
402,3.40e-02,-3.60e+00,
403,6.00e-03,-3.44e+00,
404,6.00e-03,-3.60e+00,
405,3.40e-02,-3.36e+00,
406,4.00e-03,-3.36e+00,
407,3.40e-02,-3.52e+00,
408,6.00e-03,-3.52e+00,
409,3.40e-02,-3.36e+00,
410,4.00e-03,-3.52e+00,
411,3.60e-02,-3.20e+00,
412,6.00e-03,-3.20e+00,
413,3.80e-02,-3.36e+00,
414,3.80e-02,-3.36e+00,
415,6.00e-03,-3.20e+00,
416,3.60e-02,-3.28e+00,
417,6.00e-03,-3.12e+00,
418,4.00e-02,-3.28e+00,
419,1.00e-02,-3.12e+00,
420,3.40e-02,-3.28e+00,
421,6.00e-03,-3.12e+00,
422,4.00e-03,-3.20e+00,
423,3.80e-02,-3.04e+00,
424,3.80e-02,-3.04e+00,
425,1.00e-02,-3.20e+00,
426,3.60e-02,-3.20e+00,
427,1.00e-02,-2.96e+00,
428,8.00e-03,-3.12e+00,
429,4.00e-02,-2.96e+00,
430,6.00e-03,-3.12e+00,
431,3.40e-02,-2.96e+00,
432,6.00e-03,-3.04e+00,
433,3.60e-02,-2.88e+00,
434,6.00e-03,-3.04e+00,
435,3.80e-02,-2.88e+00,
436,4.20e-02,-3.04e+00,
437,8.00e-03,-2.88e+00,
438,3.40e-02,-2.96e+00,
439,4.00e-03,-2.80e+00,
440,3.60e-02,-2.80e+00,
441,4.00e-03,-2.96e+00,
442,6.00e-03,-2.88e+00,
443,3.80e-02,-2.72e+00,
444,3.80e-02,-2.72e+00,
445,8.00e-03,-2.88e+00,
446,3.20e-02,-2.88e+00,
447,6.00e-03,-2.72e+00,
448,3.40e-02,-2.80e+00,
449,6.00e-03,-2.64e+00,
450,2.00e-03,-2.64e+00,
451,3.20e-02,-2.80e+00,
452,4.00e-03,-2.80e+00,
453,3.80e-02,-2.56e+00,
454,1.20e-02,-2.72e+00,
455,4.00e-02,-2.56e+00,
456,4.20e-02,-2.72e+00,
457,1.40e-02,-2.56e+00,
458,3.80e-02,-2.64e+00,
459,1.20e-02,-2.48e+00,
460,3.80e-02,-2.48e+00,
461,8.00e-03,-2.64e+00,
462,1.20e-02,-2.64e+00,
463,3.80e-02,-2.40e+00,
464,6.00e-03,-2.56e+00,
465,3.80e-02,-2.40e+00,
466,1.40e-02,-2.40e+00,
467,4.40e-02,-2.56e+00,
468,4.20e-02,-2.40e+00,
469,8.00e-03,-2.24e+00,
470,1.00e-02,-2.40e+00,
471,3.80e-02,-2.24e+00,
472,4.00e-02,-2.40e+00,
473,8.00e-03,-2.16e+00,
474,8.00e-03,-2.32e+00,
475,4.00e-02,-2.16e+00,
476,4.00e-02,-2.32e+00,
477,8.00e-03,-2.16e+00,
478,3.80e-02,-2.24e+00,
479,4.00e-03,-2.08e+00,
480,3.00e-02,-2.08e+00,
481,0.00e+00,-2.24e+00,
482,4.00e-03,-2.16e+00,
483,3.40e-02,-2.00e+00,
484,3.80e-02,-2.00e+00,
485,8.00e-03,-2.16e+00,
486,2.80e-02,-2.16e+00,
487,-2.00e-03,-2.00e+00,
488,2.40e-02,-2.08e+00,
489,-8.00e-03,-1.92e+00,
490,1.60e-02,-1.92e+00,
491,-1.80e-02,-2.08e+00,
492,4.00e-03,-2.00e+00,
493,-4.00e-02,-1.84e+00,
494,-1.80e-02,-2.00e+00,
495,-7.60e-02,-1.84e+00,
496,-5.40e-02,-1.84e+00,
497,-1.28e-01,-1.92e+00,
498,-1.10e-01,-1.92e+00,
499,-1.80e-01,-1.76e+00,
500,-1.88e-01,-1.76e+00,
501,-1.42e-01,-1.92e+00,
502,-1.62e-01,-1.84e+00,
503,-2.00e-03,-1.68e+00,
504,-2.20e-02,-1.68e+00,
505,1.74e-01,-1.84e+00,
506,2.10e-01,-1.76e+00,
507,1.44e-01,-1.60e+00,
508,1.60e-01,-1.60e+00,
509,-6.20e-02,-1.76e+00,
510,-1.14e-01,-1.60e+00,
511,-4.40e-02,-1.76e+00,
512,-5.80e-02,-1.68e+00,
513,1.22e-01,-1.52e+00,
514,1.22e-01,-1.68e+00,
515,-1.40e-02,-1.52e+00,
516,-5.20e-02,-1.60e+00,
517,3.00e-02,-1.44e+00,
518,1.80e-02,-1.44e+00,
519,8.80e-02,-1.60e+00,
520,4.60e-02,-1.44e+00,
521,-2.40e-02,-1.52e+00,
522,8.00e-03,-1.44e+00,
523,6.80e-02,-1.28e+00,
524,4.00e-02,-1.52e+00,
525,-1.40e-02,-1.28e+00,
526,6.00e-02,-1.36e+00,
527,-2.00e-03,-1.20e+00,
528,-8.00e-03,-1.36e+00,
529,5.00e-02,-1.20e+00,
530,4.80e-02,-1.28e+00,
531,-4.00e-03,-1.12e+00,
532,5.00e-02,-1.12e+00,
533,8.00e-03,-1.28e+00,
534,6.00e-03,-1.20e+00,
535,4.40e-02,-1.12e+00,
536,4.00e-03,-1.20e+00,
537,4.60e-02,-1.04e+00,
538,4.40e-02,-1.20e+00,
539,6.00e-03,-1.04e+00,
540,4.40e-02,-1.12e+00,
541,8.00e-03,-9.60e-01,
542,4.20e-02,-9.60e-01,
543,4.00e-03,-1.12e+00,
544,4.00e-02,-1.04e+00,
545,1.00e-02,-8.80e-01,
546,4.00e-02,-1.04e+00,
547,8.00e-03,-8.80e-01,
548,3.80e-02,-9.60e-01,
549,6.00e-03,-8.00e-01,
550,4.00e-02,-9.60e-01,
551,8.00e-03,-8.00e-01,
552,3.60e-02,-8.00e-01,
553,0.00e+00,-9.60e-01,
554,3.20e-02,-8.80e-01,
555,4.00e-03,-7.20e-01,
556,3.40e-02,-7.20e-01,
557,6.00e-03,-8.80e-01,
558,3.40e-02,-8.00e-01,
559,8.00e-03,-6.40e-01,
560,6.00e-03,-8.00e-01,
561,3.80e-02,-6.40e-01,
562,6.00e-03,-6.40e-01,
563,3.80e-02,-7.20e-01,
564,3.80e-02,-7.20e-01,
565,4.00e-03,-5.60e-01,
566,6.00e-03,-5.60e-01,
567,3.40e-02,-6.40e-01,
568,3.20e-02,-6.40e-01,
569,8.00e-03,-4.80e-01,
570,3.40e-02,-6.40e-01,
571,4.00e-03,-4.80e-01,
572,3.20e-02,-5.60e-01,
573,4.00e-03,-3.20e-01,
574,-2.00e-03,-3.20e-01,
575,3.20e-02,-4.80e-01,
576,3.80e-02,-4.00e-01,
577,6.00e-03,-3.20e-01,
578,2.60e-02,-4.00e-01,
579,-2.00e-03,-2.40e-01,
580,-2.00e-03,-2.40e-01,
581,2.60e-02,-3.20e-01,
582,2.00e-03,-3.20e-01,
583,3.00e-02,-1.60e-01,
584,8.00e-03,-3.20e-01,
585,3.60e-02,-1.60e-01,
586,3.20e-02,-2.40e-01,
587,4.00e-03,-8.00e-02,
588,2.00e-03,-2.40e-01,
589,2.80e-02,-8.00e-02,
590,2.60e-02,-1.60e-01,
591,0.00e+00,-8.00e-02,
592,-2.00e-03,-1.60e-01,
593,3.20e-02,0.00e+00,
594,6.00e-03,0.00e+00,
595,3.60e-02,-8.00e-02,
596,4.00e-03,-8.00e-02,
597,3.20e-02,8.00e-02,
598,6.00e-03,8.00e-02,
599,3.20e-02,0.00e+00,
600,3.40e-02,0.00e+00,
601,4.00e-03,1.60e-01,
602,0.00e+00,0.00e+00,
603,3.20e-02,1.60e-01,
604,3.00e-02,8.00e-02,
605,2.00e-03,2.40e-01,
606,2.00e-03,2.40e-01,
607,3.20e-02,8.00e-02,
608,3.20e-02,2.40e-01,
609,2.00e-03,1.60e-01,
610,3.00e-02,1.60e-01,
611,0.00e+00,3.20e-01,
612,0.00e+00,3.20e-01,
613,3.00e-02,2.40e-01,
614,3.00e-02,2.40e-01,
615,0.00e+00,4.00e-01,
616,3.20e-02,2.40e-01,
617,-2.00e-03,4.00e-01,
618,4.00e-03,3.20e-01,
619,3.00e-02,4.80e-01,
620,3.00e-02,4.80e-01,
621,4.00e-03,3.20e-01,
622,4.00e-03,4.80e-01,
623,3.20e-02,4.00e-01,
624,3.40e-02,6.40e-01,
625,4.00e-03,4.00e-01,
626,3.00e-02,5.60e-01,
627,4.00e-03,6.40e-01,
628,-2.00e-03,5.60e-01,
629,3.00e-02,7.20e-01,
630,2.40e-02,5.60e-01,
631,-4.00e-03,7.20e-01,
632,-4.00e-03,6.40e-01,
633,2.60e-02,8.00e-01,
634,4.00e-03,6.40e-01,
635,2.80e-02,8.00e-01,
636,4.00e-03,7.20e-01,
637,3.20e-02,8.00e-01,
638,3.00e-02,7.20e-01,
639,4.00e-03,8.80e-01,
640,6.00e-03,8.00e-01,
641,3.00e-02,8.80e-01,
642,6.00e-03,8.00e-01,
643,3.40e-02,9.60e-01,
644,6.00e-03,8.80e-01,
645,3.40e-02,9.60e-01,
646,3.80e-02,8.80e-01,
647,4.00e-03,1.04e+00,
648,-2.00e-03,8.80e-01,
649,2.80e-02,1.04e+00,
650,2.60e-02,1.04e+00,
651,0.00e+00,9.60e-01,
652,3.20e-02,1.12e+00,
653,4.00e-03,9.60e-01,
654,3.00e-02,1.12e+00,
655,4.00e-03,1.04e+00,
656,0.00e+00,1.04e+00,
657,2.80e-02,1.20e+00,
658,6.00e-03,1.04e+00,
659,3.40e-02,1.20e+00,
660,3.40e-02,1.12e+00,
661,4.00e-03,1.28e+00,
662,3.20e-02,1.12e+00,
663,8.00e-03,1.28e+00,
664,8.00e-03,1.20e+00,
665,3.80e-02,1.36e+00,
666,3.20e-02,1.36e+00,
667,4.00e-03,1.20e+00,
668,4.00e-03,1.36e+00,
669,3.20e-02,1.28e+00,
670,3.00e-02,1.28e+00,
671,2.00e-03,1.44e+00,
672,3.20e-02,1.36e+00,
673,4.00e-03,1.44e+00,
674,0.00e+00,1.36e+00,
675,3.00e-02,1.60e+00,
676,2.00e-03,1.36e+00,
677,3.20e-02,1.60e+00,
678,3.00e-02,1.52e+00,
679,4.00e-03,1.60e+00,
680,3.20e-02,1.52e+00,
681,2.00e-03,1.68e+00,
682,4.00e-03,1.60e+00,
683,3.20e-02,1.68e+00,
684,6.00e-03,1.60e+00,
685,3.20e-02,1.76e+00,
686,4.00e-03,1.60e+00,
687,3.40e-02,1.76e+00,
688,3.20e-02,1.68e+00,
689,0.00e+00,1.84e+00,
690,6.00e-03,1.68e+00,
691,3.80e-02,1.84e+00,
692,2.00e-03,1.76e+00,
693,3.40e-02,1.92e+00,
694,4.00e-03,1.76e+00,
695,3.40e-02,1.92e+00,
696,8.00e-03,1.92e+00,
697,3.60e-02,1.84e+00,
698,8.00e-03,1.84e+00,
699,3.40e-02,2.00e+00,
700,3.80e-02,2.00e+00,
701,6.00e-03,1.84e+00,
702,3.40e-02,1.92e+00,
703,6.00e-03,2.08e+00,
704,3.80e-02,2.08e+00,
705,2.00e-03,1.92e+00,
706,4.00e-03,2.00e+00,
707,3.20e-02,2.08e+00,
708,3.20e-02,2.00e+00,
709,4.00e-03,2.16e+00,
710,3.40e-02,2.00e+00,
711,-2.00e-03,2.16e+00,
712,3.00e-02,2.08e+00,
713,2.00e-03,2.24e+00,
714,0.00e+00,2.08e+00,
715,3.20e-02,2.24e+00,
716,2.00e-03,2.16e+00,
717,3.40e-02,2.24e+00,
718,3.40e-02,2.16e+00,
719,6.00e-03,2.32e+00,
720,6.00e-03,2.32e+00,
721,3.60e-02,2.16e+00,
722,3.20e-02,2.24e+00,
723,4.00e-03,2.40e+00,
724,2.00e-03,2.40e+00,
725,3.00e-02,2.24e+00,
726,3.00e-02,2.40e+00,
727,-2.00e-03,2.32e+00,
728,4.00e-03,2.32e+00,
729,3.00e-02,2.56e+00,
730,6.00e-03,2.32e+00,
731,3.40e-02,2.56e+00,
732,4.00e-03,2.48e+00,
733,3.40e-02,2.64e+00,
734,6.00e-03,2.48e+00,
735,3.40e-02,2.64e+00,
736,4.00e-03,2.56e+00,
737,3.20e-02,2.72e+00,
738,3.40e-02,2.56e+00,
739,6.00e-03,2.72e+00,
740,3.20e-02,2.56e+00,
741,6.00e-03,2.72e+00,
742,6.00e-03,2.64e+00,
743,4.00e-02,2.80e+00,
744,3.20e-02,2.64e+00,
745,0.00e+00,2.80e+00,
746,3.00e-02,2.72e+00,
747,-2.00e-03,2.80e+00,
748,2.60e-02,2.72e+00,
749,-2.00e-03,2.88e+00,
750,0.00e+00,2.88e+00,
751,3.20e-02,2.72e+00,
752,3.20e-02,2.80e+00,
753,4.00e-03,2.96e+00,
754,4.00e-03,2.96e+00,
755,3.00e-02,2.80e+00,
756,3.20e-02,2.88e+00,
757,4.00e-03,2.96e+00,
758,3.20e-02,2.88e+00,
759,4.00e-03,3.04e+00,
760,2.80e-02,3.04e+00,
761,0.00e+00,2.88e+00,
762,2.00e-03,2.96e+00,
763,3.20e-02,3.04e+00,
764,4.00e-03,2.96e+00,
765,3.20e-02,3.12e+00,
766,3.20e-02,2.96e+00,
767,-2.00e-03,3.12e+00,
768,2.00e-03,3.04e+00,
769,3.00e-02,3.20e+00,
770,0.00e+00,3.20e+00,
771,3.20e-02,3.04e+00,
772,3.00e-02,3.20e+00,
773,4.00e-03,3.04e+00,
774,4.00e-03,3.12e+00,
775,3.40e-02,3.28e+00,
776,2.80e-02,3.28e+00,
777,4.00e-03,3.12e+00,
778,2.80e-02,3.28e+00,
779,-4.00e-03,3.12e+00,
780,-6.00e-03,3.20e+00,
781,2.60e-02,3.36e+00,
782,-2.00e-03,3.36e+00,
783,2.80e-02,3.20e+00,
784,-2.00e-03,3.28e+00,
785,2.80e-02,3.36e+00,
786,0.00e+00,3.28e+00,
787,3.40e-02,3.44e+00,
788,3.40e-02,3.28e+00,
789,4.00e-03,3.52e+00,
790,3.00e-02,3.28e+00,
791,2.00e-03,3.52e+00,
792,4.00e-03,3.44e+00,
793,3.20e-02,3.60e+00,
794,3.00e-02,3.44e+00,
795,0.00e+00,3.60e+00,
796,4.00e-03,3.44e+00,
797,3.40e-02,3.60e+00,
798,2.00e-03,3.52e+00,
799,3.20e-02,3.68e+00,
800,2.60e-02,3.52e+00,
801,-2.00e-03,3.68e+00,
802,-2.00e-03,3.52e+00,
803,2.80e-02,3.68e+00,
804,6.00e-03,3.60e+00,
805,3.40e-02,3.68e+00,
806,3.20e-02,3.60e+00,
807,4.00e-03,3.76e+00,
808,4.00e-03,3.60e+00,
809,3.40e-02,3.76e+00,
810,6.00e-03,3.60e+00,
811,3.60e-02,3.84e+00,
812,3.40e-02,3.68e+00,
813,1.00e-02,3.84e+00,
814,1.20e-02,3.84e+00,
815,4.00e-02,3.68e+00,
816,4.00e-02,3.68e+00,
817,1.00e-02,3.84e+00,
818,3.80e-02,3.76e+00,
819,8.00e-03,3.92e+00,
820,6.00e-03,3.76e+00,
821,4.00e-02,3.92e+00,
822,1.20e-02,3.76e+00,
823,4.00e-02,3.92e+00,
824,3.80e-02,3.76e+00,
825,1.20e-02,3.92e+00,
826,1.00e-02,3.84e+00,
827,4.00e-02,4.00e+00,
828,4.00e-02,3.84e+00,
829,1.20e-02,4.00e+00,
830,4.00e-02,3.84e+00,
831,1.20e-02,4.00e+00,
832,1.40e-02,4.00e+00,
833,4.40e-02,3.84e+00,
834,4.00e-02,3.92e+00,
835,1.60e-02,4.08e+00,
836,4.40e-02,4.08e+00,
837,1.00e-02,3.92e+00,
838,4.40e-02,4.08e+00,
839,1.00e-02,3.92e+00,
