Kernspin/Daten/guess_5.csv

X,CH1,CH2,Start,Increment,
Sequence,Volt,Volt,-3.000000e-02,5.000000e-05
0,4.00e-03,6.40e-01,
1,3.80e-02,8.00e-01,
2,4.80e-02,7.20e-01,
3,1.20e-02,8.80e-01,
4,1.20e-02,8.00e-01,
5,4.60e-02,9.60e-01,
6,4.80e-02,8.80e-01,
7,8.00e-03,1.04e+00,
8,1.00e-02,9.60e-01,
9,4.40e-02,1.12e+00,
10,1.40e-02,1.04e+00,
11,4.20e-02,1.20e+00,
12,4.00e-02,1.12e+00,
13,2.00e-03,1.28e+00,
14,4.00e-03,1.20e+00,
15,4.20e-02,1.44e+00,
16,4.60e-02,1.28e+00,
17,4.00e-03,1.60e+00,
18,1.00e-02,1.44e+00,
19,3.80e-02,1.68e+00,
20,4.20e-02,1.52e+00,
21,1.20e-02,1.76e+00,
22,4.20e-02,1.60e+00,
23,1.00e-02,1.84e+00,
24,0.00e+00,1.76e+00,
25,3.40e-02,1.92e+00,
26,6.00e-03,1.84e+00,
27,3.60e-02,2.00e+00,
28,1.40e-02,1.92e+00,
29,4.60e-02,2.08e+00,
30,4.60e-02,2.00e+00,
31,1.20e-02,2.16e+00,
32,3.80e-02,2.08e+00,
33,0.00e+00,2.24e+00,
34,-2.00e-03,2.16e+00,
35,3.40e-02,2.32e+00,
36,6.00e-03,2.24e+00,
37,3.60e-02,2.40e+00,
38,-2.00e-03,2.32e+00,
39,3.40e-02,2.56e+00,
40,3.60e-02,2.48e+00,
41,2.00e-03,2.64e+00,
42,4.00e-03,2.56e+00,
43,4.00e-02,2.72e+00,
44,3.80e-02,2.64e+00,
45,8.00e-03,2.80e+00,
46,3.60e-02,2.72e+00,
47,4.00e-03,2.88e+00,
48,3.40e-02,2.80e+00,
49,-2.00e-03,2.96e+00,
50,-2.00e-03,2.88e+00,
51,3.00e-02,3.04e+00,
52,3.40e-02,2.88e+00,
53,2.00e-03,3.12e+00,
54,8.00e-03,2.96e+00,
55,3.60e-02,3.20e+00,
56,3.20e-02,3.04e+00,
57,4.00e-03,3.28e+00,
58,3.00e-02,3.28e+00,
59,-2.00e-03,3.12e+00,
60,-2.00e-03,3.20e+00,
61,3.40e-02,3.36e+00,
62,8.00e-03,3.28e+00,
63,4.00e-02,3.52e+00,
64,4.00e-02,3.44e+00,
65,4.00e-03,3.60e+00,
66,2.00e-03,3.44e+00,
67,3.80e-02,3.68e+00,
68,1.20e-02,3.52e+00,
69,4.60e-02,3.68e+00,
70,2.40e-02,3.60e+00,
71,5.40e-02,3.76e+00,
72,5.40e-02,3.68e+00,
73,1.40e-02,3.84e+00,
74,1.60e-02,3.68e+00,
75,4.80e-02,3.84e+00,
76,4.80e-02,3.76e+00,
77,1.40e-02,3.92e+00,
78,1.20e-02,3.84e+00,
79,4.80e-02,4.00e+00,
80,4.80e-02,4.00e+00,
81,1.20e-02,3.84e+00,
82,1.20e-02,3.92e+00,
83,4.00e-02,4.08e+00,
84,4.80e-02,3.92e+00,
85,1.80e-02,4.16e+00,
86,1.80e-02,4.16e+00,
87,4.80e-02,4.00e+00,
88,2.00e-02,4.00e+00,
89,4.80e-02,4.24e+00,
90,4.60e-02,4.24e+00,
91,1.00e-02,4.08e+00,
92,4.00e-03,4.24e+00,
93,4.40e-02,4.08e+00,
94,1.80e-02,4.32e+00,
95,4.80e-02,4.16e+00,
96,4.80e-02,4.24e+00,
97,1.40e-02,4.40e+00,
98,4.20e-02,4.24e+00,
99,1.60e-02,4.48e+00,
100,5.00e-02,4.40e+00,
101,1.40e-02,4.56e+00,
102,1.20e-02,4.40e+00,
103,4.20e-02,4.56e+00,
104,1.80e-02,4.48e+00,
105,5.20e-02,4.64e+00,
106,4.80e-02,4.48e+00,
107,1.80e-02,4.64e+00,
108,8.00e-03,4.56e+00,
109,4.00e-02,4.72e+00,
110,4.40e-02,4.56e+00,
111,1.80e-02,4.72e+00,
112,4.40e-02,4.72e+00,
113,1.60e-02,4.56e+00,
114,1.60e-02,4.64e+00,
115,5.20e-02,4.72e+00,
116,2.40e-02,4.64e+00,
117,5.20e-02,4.80e+00,
118,5.20e-02,4.64e+00,
119,2.20e-02,4.80e+00,
120,1.40e-02,4.64e+00,
121,4.80e-02,4.80e+00,
122,4.60e-02,4.80e+00,
123,1.40e-02,4.64e+00,
124,4.60e-02,4.72e+00,
125,1.80e-02,4.80e+00,
126,2.20e-02,4.72e+00,
127,5.20e-02,4.80e+00,
128,4.80e-02,4.72e+00,
129,1.60e-02,4.80e+00,
130,4.60e-02,4.72e+00,
131,-2.00e-03,4.88e+00,
132,-2.00e-03,4.72e+00,
133,3.80e-02,4.88e+00,
134,3.80e-02,4.72e+00,
135,6.00e-03,4.88e+00,
136,4.00e-03,4.88e+00,
137,3.40e-02,4.72e+00,
138,1.00e-02,4.72e+00,
139,3.80e-02,4.88e+00,
140,8.00e-03,4.72e+00,
141,4.20e-02,4.88e+00,
142,8.00e-03,4.80e+00,
143,3.40e-02,4.72e+00,
144,8.00e-03,4.80e+00,
145,3.60e-02,4.72e+00,
146,1.20e-02,4.72e+00,
147,4.60e-02,4.80e+00,
148,4.00e-02,4.80e+00,
149,8.00e-03,4.64e+00,
150,3.80e-02,4.64e+00,
151,4.00e-03,4.80e+00,
152,8.00e-03,4.64e+00,
153,4.60e-02,4.80e+00,
154,3.80e-02,4.80e+00,
155,4.00e-03,4.64e+00,
156,8.00e-03,4.72e+00,
157,4.00e-02,4.56e+00,
158,2.00e-02,4.56e+00,
159,5.20e-02,4.72e+00,
160,4.60e-02,4.72e+00,
161,6.00e-03,4.56e+00,
162,8.00e-03,4.64e+00,
163,4.40e-02,4.48e+00,
164,8.00e-03,4.64e+00,
165,4.40e-02,4.48e+00,
166,4.20e-02,4.56e+00,
167,6.00e-03,4.40e+00,
168,1.60e-02,4.40e+00,
169,5.00e-02,4.56e+00,
170,4.20e-02,4.40e+00,
171,1.00e-02,4.56e+00,
172,4.00e-02,4.40e+00,
173,1.40e-02,4.24e+00,
174,1.20e-02,4.32e+00,
175,4.40e-02,4.16e+00,
176,4.00e-02,4.16e+00,
177,6.00e-03,4.32e+00,
178,1.40e-02,4.24e+00,
179,4.80e-02,4.08e+00,
180,4.60e-02,4.08e+00,
181,8.00e-03,4.24e+00,
182,1.20e-02,4.16e+00,
183,4.60e-02,4.00e+00,
184,1.00e-02,4.08e+00,
185,4.40e-02,3.92e+00,
186,6.00e-03,4.08e+00,
187,3.80e-02,3.84e+00,
188,1.20e-02,4.00e+00,
189,4.80e-02,3.84e+00,
190,4.60e-02,3.92e+00,
191,1.20e-02,3.76e+00,
192,4.20e-02,3.84e+00,
193,1.40e-02,3.68e+00,
194,1.00e-02,3.84e+00,
195,4.60e-02,3.60e+00,
196,1.40e-02,3.76e+00,
197,4.00e-02,3.52e+00,
198,3.80e-02,3.68e+00,
199,4.00e-03,3.52e+00,
200,6.00e-03,3.60e+00,
201,3.80e-02,3.44e+00,
202,3.80e-02,3.52e+00,
203,6.00e-03,3.28e+00,
204,8.00e-03,3.36e+00,
205,4.00e-02,3.20e+00,
206,4.00e-02,3.36e+00,
207,8.00e-03,3.12e+00,
208,3.60e-02,3.28e+00,
209,2.00e-03,3.04e+00,
210,4.00e-03,3.20e+00,
211,3.40e-02,2.96e+00,
212,3.80e-02,3.12e+00,
213,6.00e-03,2.88e+00,
214,8.00e-03,2.88e+00,
215,4.00e-02,3.04e+00,
216,1.20e-02,2.96e+00,
217,4.20e-02,2.80e+00,
218,3.60e-02,2.88e+00,
219,0.00e+00,2.72e+00,
220,1.20e-02,2.80e+00,
221,4.00e-02,2.64e+00,
222,4.20e-02,2.72e+00,
223,1.40e-02,2.56e+00,
224,1.20e-02,2.64e+00,
225,4.20e-02,2.48e+00,
226,4.00e-02,2.32e+00,
227,4.00e-03,2.56e+00,
228,2.00e-03,2.40e+00,
229,4.40e-02,2.24e+00,
230,4.20e-02,2.32e+00,
231,1.40e-02,2.16e+00,
232,3.00e-02,2.24e+00,
233,0.00e+00,2.08e+00,
234,3.20e-02,2.16e+00,
235,6.00e-03,2.00e+00,
236,4.00e-03,2.08e+00,
237,4.00e-02,1.84e+00,
238,3.80e-02,2.00e+00,
239,4.00e-03,1.76e+00,
240,3.80e-02,1.92e+00,
241,6.00e-03,1.68e+00,
242,1.00e-02,1.84e+00,
243,4.60e-02,1.60e+00,
244,3.80e-02,1.76e+00,
245,1.00e-02,1.52e+00,
246,6.00e-03,1.68e+00,
247,4.00e-02,1.44e+00,
248,3.40e-02,1.44e+00,
249,4.00e-03,1.28e+00,
250,3.80e-02,1.36e+00,
251,-2.00e-03,1.20e+00,
252,4.00e-03,1.28e+00,
253,3.20e-02,1.12e+00,
254,3.40e-02,1.20e+00,
255,4.00e-03,1.04e+00,
256,6.00e-03,1.12e+00,
257,3.60e-02,9.60e-01,
258,3.00e-02,1.04e+00,
259,-2.00e-03,8.80e-01,
260,2.60e-02,9.60e-01,
261,-4.00e-03,8.00e-01,
262,3.40e-02,8.80e-01,
263,2.00e-03,7.20e-01,
264,1.00e-02,8.00e-01,
265,4.20e-02,5.60e-01,
266,3.20e-02,7.20e-01,
267,2.00e-03,4.80e-01,
268,-4.00e-03,5.60e-01,
269,3.20e-02,3.20e-01,
270,2.20e-02,4.00e-01,
271,-6.00e-03,2.40e-01,
272,0.00e+00,3.20e-01,
273,3.20e-02,1.60e-01,
274,2.40e-02,2.40e-01,
275,-1.00e-02,8.00e-02,
276,-1.00e-02,1.60e-01,
277,3.20e-02,0.00e+00,
278,2.60e-02,8.00e-02,
279,-2.00e-03,-8.00e-02,
280,-4.00e-03,0.00e+00,
281,2.80e-02,-1.60e-01,
282,2.40e-02,-8.00e-02,
283,-8.00e-03,-3.20e-01,
284,1.80e-02,-1.60e-01,
285,-2.00e-02,-4.00e-01,
286,0.00e+00,-3.20e-01,
287,-7.80e-02,-4.80e-01,
288,-6.40e-02,-4.00e-01,
289,-2.54e-01,-6.40e-01,
290,-2.54e-01,-4.80e-01,
291,-7.80e-02,-7.20e-01,
292,-7.80e-02,-6.40e-01,
293,2.56e-01,-8.00e-01,
294,-2.40e-01,-7.20e-01,
295,1.96e-01,-8.80e-01,
296,1.98e-01,-8.00e-01,
297,-1.22e-01,-9.60e-01,
298,1.22e-01,-8.80e-01,
299,-7.00e-02,-1.04e+00,
300,-3.80e-02,-9.60e-01,
301,8.00e-02,-1.12e+00,
302,6.40e-02,-1.04e+00,
303,-1.80e-02,-1.20e+00,
304,4.80e-02,-1.12e+00,
305,-1.80e-02,-1.36e+00,
306,-1.40e-02,-1.20e+00,
307,4.80e-02,-1.44e+00,
308,5.60e-02,-1.28e+00,
309,-2.00e-03,-1.52e+00,
310,6.00e-03,-1.44e+00,
311,5.20e-02,-1.68e+00,
312,4.80e-02,-1.52e+00,
313,6.00e-03,-1.76e+00,
314,8.00e-03,-1.60e+00,
315,3.80e-02,-1.84e+00,
316,4.00e-02,-1.76e+00,
317,8.00e-03,-1.92e+00,
318,1.20e-02,-1.84e+00,
319,4.20e-02,-2.00e+00,
320,4.80e-02,-1.92e+00,
321,1.20e-02,-2.08e+00,
322,1.00e-02,-2.00e+00,
323,4.40e-02,-2.16e+00,
324,4.20e-02,-2.08e+00,
325,8.00e-03,-2.24e+00,
326,8.00e-03,-2.16e+00,
327,4.20e-02,-2.32e+00,
328,1.40e-02,-2.24e+00,
329,4.00e-02,-2.40e+00,
330,6.00e-03,-2.40e+00,
331,4.20e-02,-2.56e+00,
332,5.20e-02,-2.48e+00,
333,2.40e-02,-2.64e+00,
334,2.00e-02,-2.56e+00,
335,5.40e-02,-2.72e+00,
336,2.00e-02,-2.64e+00,
337,5.20e-02,-2.80e+00,
338,2.00e-02,-2.72e+00,
339,5.60e-02,-2.88e+00,
340,2.40e-02,-2.80e+00,
341,6.00e-02,-2.96e+00,
342,6.40e-02,-2.80e+00,
343,1.20e-02,-3.04e+00,
344,4.00e-03,-2.88e+00,
345,5.00e-02,-3.12e+00,
346,5.20e-02,-2.96e+00,
347,1.80e-02,-3.20e+00,
348,4.40e-02,-3.04e+00,
349,1.40e-02,-3.28e+00,
350,1.00e-02,-3.12e+00,
351,4.00e-02,-3.36e+00,
352,8.00e-03,-3.20e+00,
353,4.40e-02,-3.52e+00,
354,4.20e-02,-3.36e+00,
355,1.20e-02,-3.52e+00,
356,4.20e-02,-3.44e+00,
357,1.20e-02,-3.60e+00,
358,1.40e-02,-3.52e+00,
359,4.40e-02,-3.68e+00,
360,4.20e-02,-3.52e+00,
361,0.00e+00,-3.76e+00,
362,8.00e-03,-3.60e+00,
363,3.40e-02,-3.84e+00,
364,6.00e-03,-3.68e+00,
365,3.80e-02,-3.92e+00,
366,4.00e-03,-3.92e+00,
367,4.00e-02,-3.76e+00,
368,4.00e-02,-3.84e+00,
369,4.00e-03,-4.00e+00,
370,3.20e-02,-3.84e+00,
371,4.00e-03,-4.08e+00,
372,2.60e-02,-3.92e+00,
373,0.00e+00,-4.16e+00,
374,-8.00e-03,-4.16e+00,
375,3.60e-02,-4.00e+00,
376,4.00e-02,-4.08e+00,
377,6.00e-03,-4.24e+00,
378,4.00e-02,-4.08e+00,
379,1.00e-02,-4.32e+00,
380,3.20e-02,-4.32e+00,
381,0.00e+00,-4.16e+00,
382,3.20e-02,-4.24e+00,
383,2.00e-03,-4.48e+00,
384,-2.00e-03,-4.24e+00,
385,3.20e-02,-4.48e+00,
386,4.00e-03,-4.40e+00,
387,4.40e-02,-4.56e+00,
388,2.00e-03,-4.40e+00,
389,3.60e-02,-4.56e+00,
390,4.00e-02,-4.48e+00,
391,8.00e-03,-4.64e+00,
392,4.00e-02,-4.48e+00,
393,6.00e-03,-4.64e+00,
394,3.80e-02,-4.72e+00,
395,6.00e-03,-4.56e+00,
396,1.40e-02,-4.56e+00,
397,4.20e-02,-4.72e+00,
398,4.00e-02,-4.64e+00,
399,4.00e-03,-4.80e+00,
400,-6.00e-03,-4.64e+00,
401,3.20e-02,-4.88e+00,
402,1.00e-02,-4.88e+00,
403,4.00e-02,-4.72e+00,
404,4.60e-02,-4.80e+00,
405,4.00e-03,-4.96e+00,
406,3.20e-02,-4.96e+00,
407,6.00e-03,-4.80e+00,
408,3.20e-02,-4.88e+00,
409,-2.00e-03,-5.04e+00,
410,3.60e-02,-5.04e+00,
411,6.00e-03,-4.88e+00,
412,4.20e-02,-4.88e+00,
413,6.00e-03,-5.04e+00,
414,-1.00e-02,-4.96e+00,
415,3.80e-02,-5.12e+00,
416,1.60e-02,-5.12e+00,
417,4.80e-02,-4.96e+00,
418,4.20e-02,-5.12e+00,
419,0.00e+00,-4.96e+00,
420,6.00e-03,-5.04e+00,
421,3.20e-02,-5.20e+00,
422,-4.00e-03,-5.20e+00,
423,3.00e-02,-5.04e+00,
424,3.80e-02,-5.20e+00,
425,6.00e-03,-5.04e+00,
426,4.00e-03,-5.20e+00,
427,3.40e-02,-5.04e+00,
428,8.00e-03,-5.20e+00,
429,4.20e-02,-5.04e+00,
430,3.60e-02,-5.20e+00,
431,0.00e+00,-5.04e+00,
432,6.00e-03,-5.20e+00,
433,3.40e-02,-5.04e+00,
434,2.60e-02,-5.20e+00,
435,-4.00e-03,-5.12e+00,
436,-4.00e-03,-5.12e+00,
437,3.60e-02,-5.20e+00,
438,3.20e-02,-5.20e+00,
439,2.00e-03,-5.12e+00,
440,2.00e-03,-5.20e+00,
441,3.40e-02,-5.12e+00,
442,3.40e-02,-5.12e+00,
443,4.00e-03,-5.20e+00,
444,-1.00e-02,-5.20e+00,
445,2.60e-02,-5.04e+00,
446,-2.00e-03,-5.20e+00,
447,3.20e-02,-5.04e+00,
448,6.00e-03,-5.20e+00,
449,4.00e-02,-5.04e+00,
450,3.20e-02,-5.20e+00,
451,0.00e+00,-5.12e+00,
452,1.20e-02,-5.20e+00,
453,4.20e-02,-5.12e+00,
454,1.40e-02,-5.20e+00,
455,4.60e-02,-5.12e+00,
456,4.40e-02,-5.20e+00,
457,8.00e-03,-5.04e+00,
458,3.60e-02,-5.12e+00,
459,4.00e-03,-4.96e+00,
460,1.40e-02,-5.12e+00,
461,4.80e-02,-4.96e+00,
462,5.60e-02,-5.12e+00,
463,1.80e-02,-4.96e+00,
464,1.40e-02,-5.12e+00,
465,4.40e-02,-4.96e+00,
466,1.60e-02,-5.04e+00,
467,5.00e-02,-4.88e+00,
468,1.40e-02,-5.04e+00,
469,4.80e-02,-4.88e+00,
470,4.80e-02,-5.04e+00,
471,1.00e-02,-4.80e+00,
472,1.00e-02,-4.80e+00,
473,4.40e-02,-4.96e+00,
474,1.40e-02,-4.96e+00,
475,5.00e-02,-4.80e+00,
476,5.40e-02,-4.88e+00,
477,2.00e-02,-4.72e+00,
478,2.00e-02,-4.72e+00,
479,5.00e-02,-4.88e+00,
480,5.40e-02,-4.80e+00,
481,1.80e-02,-4.64e+00,
482,2.00e-02,-4.80e+00,
483,4.60e-02,-4.64e+00,
484,4.80e-02,-4.72e+00,
485,1.40e-02,-4.56e+00,
486,4.40e-02,-4.72e+00,
487,1.40e-02,-4.56e+00,
488,4.60e-02,-4.64e+00,
489,1.40e-02,-4.48e+00,
490,1.00e-02,-4.64e+00,
491,4.60e-02,-4.40e+00,
492,1.60e-02,-4.40e+00,
493,4.60e-02,-4.56e+00,
494,4.00e-02,-4.48e+00,
495,1.60e-02,-4.24e+00,
496,2.00e-02,-4.48e+00,
497,5.20e-02,-4.32e+00,
498,1.80e-02,-4.32e+00,
499,4.40e-02,-4.16e+00,
500,4.80e-02,-4.24e+00,
501,1.20e-02,-4.08e+00,
502,3.80e-02,-4.24e+00,
503,1.00e-02,-4.00e+00,
504,4.80e-02,-4.16e+00,
505,1.20e-02,-4.00e+00,
506,8.00e-03,-4.08e+00,
507,4.00e-02,-3.92e+00,
508,1.40e-02,-4.08e+00,
509,4.40e-02,-3.84e+00,
510,1.20e-02,-4.00e+00,
511,4.60e-02,-3.76e+00,
512,4.40e-02,-3.92e+00,
513,1.20e-02,-3.76e+00,
514,3.80e-02,-3.84e+00,
515,-2.00e-03,-3.68e+00,
516,3.60e-02,-3.76e+00,
517,8.00e-03,-3.60e+00,
518,8.00e-03,-3.68e+00,
519,4.20e-02,-3.52e+00,
520,4.60e-02,-3.68e+00,
521,1.40e-02,-3.44e+00,
522,6.00e-03,-3.60e+00,
523,3.80e-02,-3.36e+00,
524,4.00e-03,-3.52e+00,
525,3.80e-02,-3.28e+00,
526,8.00e-03,-3.36e+00,
527,4.40e-02,-3.20e+00,
528,3.20e-02,-3.28e+00,
529,-4.00e-03,-3.12e+00,
530,-2.00e-03,-3.20e+00,
531,3.40e-02,-3.04e+00,
532,4.00e-02,-3.12e+00,
533,4.00e-03,-2.96e+00,
534,-2.00e-03,-3.04e+00,
535,2.40e-02,-2.88e+00,
536,-2.00e-03,-3.04e+00,
537,4.00e-02,-2.80e+00,
538,4.20e-02,-2.88e+00,
539,6.00e-03,-2.72e+00,
540,3.00e-02,-2.88e+00,
541,-2.00e-03,-2.64e+00,
542,3.20e-02,-2.72e+00,
543,-2.00e-03,-2.56e+00,
544,-2.00e-03,-2.72e+00,
545,3.20e-02,-2.48e+00,
546,2.40e-02,-2.64e+00,
547,-8.00e-03,-2.40e+00,
548,-4.00e-03,-2.48e+00,
549,3.20e-02,-2.24e+00,
550,3.00e-02,-2.40e+00,
551,0.00e+00,-2.16e+00,
552,3.00e-02,-2.32e+00,
553,0.00e+00,-2.08e+00,
554,-2.00e-03,-2.24e+00,
555,3.20e-02,-2.00e+00,
556,2.80e-02,-2.16e+00,
557,-6.00e-03,-1.92e+00,
558,3.60e-02,-2.08e+00,
559,2.00e-03,-1.84e+00,
560,2.60e-02,-1.92e+00,
561,-6.00e-03,-1.76e+00,
562,-8.00e-03,-1.92e+00,
563,2.40e-02,-1.68e+00,
564,3.00e-02,-1.76e+00,
565,-8.00e-03,-1.60e+00,
566,1.80e-02,-1.68e+00,
567,-1.00e-02,-1.52e+00,
568,1.60e-02,-1.60e+00,
569,-2.60e-02,-1.44e+00,
570,-6.00e-03,-1.52e+00,
571,-1.06e-01,-1.28e+00,
572,-9.20e-02,-1.36e+00,
573,-2.54e-01,-1.20e+00,
574,-2.54e-01,-1.28e+00,
575,0.00e+00,-1.12e+00,
576,2.56e-01,-1.20e+00,
577,-1.00e-02,-1.04e+00,
578,-2.06e-01,-1.12e+00,
579,1.66e-01,-8.80e-01,
580,1.52e-01,-1.04e+00,
581,-1.02e-01,-8.00e-01,
582,6.80e-02,-9.60e-01,
583,-5.40e-02,-7.20e-01,
584,-2.40e-02,-8.80e-01,
585,6.80e-02,-6.40e-01,
586,-1.60e-02,-8.00e-01,
587,5.20e-02,-5.60e-01,
588,5.20e-02,-6.40e-01,
589,4.00e-03,-4.80e-01,
590,8.00e-03,-3.20e-01,
591,4.80e-02,-5.60e-01,
592,6.00e-03,-4.00e-01,
593,3.60e-02,-2.40e-01,
594,4.00e-02,-3.20e-01,
595,1.20e-02,-1.60e-01,
596,1.80e-02,-2.40e-01,
597,4.40e-02,-8.00e-02,
598,4.00e-02,-1.60e-01,
599,6.00e-03,0.00e+00,
600,8.00e-03,-8.00e-02,
601,4.20e-02,8.00e-02,
602,4.40e-02,0.00e+00,
603,6.00e-03,2.40e-01,
604,4.00e-03,8.00e-02,
605,3.60e-02,3.20e-01,
606,3.40e-02,1.60e-01,
607,4.00e-03,4.00e-01,
608,8.00e-03,2.40e-01,
609,4.00e-02,4.80e-01,
610,4.20e-02,4.00e-01,
611,6.00e-03,6.40e-01,
612,3.60e-02,5.60e-01,
613,6.00e-03,7.20e-01,
614,1.20e-02,6.40e-01,
615,4.60e-02,8.00e-01,
616,3.40e-02,7.20e-01,
617,-2.00e-03,8.80e-01,
618,3.00e-02,8.00e-01,
619,-4.00e-03,9.60e-01,
620,-4.00e-03,8.80e-01,
621,4.20e-02,1.04e+00,
622,4.20e-02,9.60e-01,
623,6.00e-03,1.12e+00,
624,4.00e-03,1.04e+00,
625,3.40e-02,1.20e+00,
626,3.80e-02,1.12e+00,
627,1.20e-02,1.28e+00,
628,1.00e-02,1.20e+00,
629,4.20e-02,1.36e+00,
630,4.60e-02,1.28e+00,
631,1.20e-02,1.52e+00,
632,1.60e-02,1.60e+00,
633,4.40e-02,1.36e+00,
634,4.00e-02,1.52e+00,
635,1.00e-02,1.76e+00,
636,1.20e-02,1.60e+00,
637,3.80e-02,1.84e+00,
638,4.00e-02,1.68e+00,
639,1.40e-02,1.92e+00,
640,3.80e-02,1.76e+00,
641,1.20e-02,2.00e+00,
642,4.60e-02,1.84e+00,
643,1.40e-02,2.08e+00,
644,1.20e-02,1.92e+00,
645,5.20e-02,2.16e+00,
646,4.80e-02,2.08e+00,
647,1.80e-02,2.24e+00,
648,4.40e-02,2.16e+00,
649,6.00e-03,2.32e+00,
650,8.00e-03,2.24e+00,
651,4.00e-02,2.40e+00,
652,4.00e-02,2.32e+00,
653,4.00e-03,2.56e+00,
654,3.40e-02,2.48e+00,
655,4.00e-03,2.64e+00,
656,3.80e-02,2.56e+00,
657,6.00e-03,2.72e+00,
658,3.60e-02,2.56e+00,
659,4.00e-03,2.80e+00,
660,2.60e-02,2.72e+00,
661,-1.00e-02,2.88e+00,
662,0.00e+00,2.72e+00,
663,2.60e-02,2.96e+00,
664,4.00e-03,2.80e+00,
665,3.40e-02,3.04e+00,
666,8.00e-03,2.88e+00,
667,3.80e-02,3.12e+00,
668,3.40e-02,2.96e+00,
669,2.00e-03,3.20e+00,
670,3.00e-02,3.04e+00,
671,2.00e-03,3.20e+00,
672,6.00e-03,3.12e+00,
673,3.80e-02,3.28e+00,
674,8.00e-03,3.20e+00,
675,3.80e-02,3.36e+00,
676,4.00e-03,3.28e+00,
677,3.40e-02,3.44e+00,
678,3.40e-02,3.44e+00,
679,-2.00e-03,3.52e+00,
680,4.00e-03,3.44e+00,
681,3.80e-02,3.60e+00,
682,3.60e-02,3.68e+00,
683,0.00e+00,3.52e+00,
684,-2.00e-03,3.60e+00,
685,3.40e-02,3.76e+00,
686,2.60e-02,3.68e+00,
687,-1.00e-02,3.84e+00,
688,-1.00e-02,3.84e+00,
689,2.60e-02,3.68e+00,
690,3.20e-02,3.76e+00,
691,-1.00e-02,3.92e+00,
692,3.00e-02,3.84e+00,
693,-4.00e-03,4.00e+00,
694,-1.00e-02,4.00e+00,
695,2.60e-02,3.84e+00,
696,3.20e-02,3.92e+00,
697,-4.00e-03,4.08e+00,
698,0.00e+00,4.08e+00,
699,3.60e-02,3.92e+00,
700,3.80e-02,4.00e+00,
701,2.00e-03,4.16e+00,
702,2.80e-02,4.08e+00,
703,0.00e+00,4.16e+00,
704,4.00e-03,4.08e+00,
705,4.00e-02,4.24e+00,
706,3.20e-02,4.24e+00,
707,-2.00e-03,4.08e+00,
708,1.40e-02,4.32e+00,
709,4.20e-02,4.16e+00,
710,4.40e-02,4.24e+00,
711,8.00e-03,4.40e+00,
712,4.00e-03,4.40e+00,
713,3.60e-02,4.24e+00,
714,1.40e-02,4.40e+00,
715,4.60e-02,4.56e+00,
716,4.40e-02,4.40e+00,
717,1.00e-02,4.56e+00,
718,0.00e+00,4.48e+00,
719,3.20e-02,4.64e+00,
720,6.00e-03,4.48e+00,
721,4.40e-02,4.64e+00,
722,5.40e-02,4.56e+00,
723,1.20e-02,4.72e+00,
724,3.40e-02,4.72e+00,
725,6.00e-03,4.56e+00,
726,3.40e-02,4.72e+00,
727,4.00e-03,4.56e+00,
728,8.00e-03,4.64e+00,
729,4.40e-02,4.72e+00,
730,5.00e-02,4.64e+00,
731,6.00e-03,4.80e+00,
732,6.00e-03,4.72e+00,
733,3.20e-02,4.80e+00,
734,4.40e-02,4.80e+00,
735,1.20e-02,4.64e+00,
736,4.00e-03,4.64e+00,
737,3.80e-02,4.80e+00,
738,6.00e-03,4.72e+00,
739,4.60e-02,4.80e+00,
740,4.60e-02,4.72e+00,
741,1.40e-02,4.80e+00,
742,3.80e-02,4.80e+00,
743,1.00e-02,4.72e+00,
744,4.40e-02,4.72e+00,
745,8.00e-03,4.88e+00,
746,1.00e-02,4.72e+00,
747,4.00e-02,4.88e+00,
748,4.40e-02,4.72e+00,
749,8.00e-03,4.88e+00,
750,3.60e-02,4.88e+00,
751,8.00e-03,4.72e+00,
752,3.80e-02,4.88e+00,
753,8.00e-03,4.72e+00,
754,8.00e-03,4.72e+00,
755,4.00e-02,4.80e+00,
756,3.80e-02,4.72e+00,
757,0.00e+00,4.80e+00,
758,4.00e-03,4.80e+00,
759,3.80e-02,4.72e+00,
760,3.20e-02,4.72e+00,
761,2.00e-03,4.80e+00,
762,2.80e-02,4.80e+00,
763,-6.00e-03,4.64e+00,
764,-6.00e-03,4.64e+00,
765,3.20e-02,4.80e+00,
766,3.80e-02,4.80e+00,
767,4.00e-03,4.64e+00,
768,4.00e-03,4.64e+00,
769,3.40e-02,4.80e+00,
770,4.20e-02,4.72e+00,
771,8.00e-03,4.56e+00,
772,3.20e-02,4.72e+00,
773,0.00e+00,4.56e+00,
774,-2.00e-03,4.72e+00,
775,3.80e-02,4.56e+00,
776,3.20e-02,4.64e+00,
777,4.00e-03,4.48e+00,
778,0.00e+00,4.48e+00,
779,3.60e-02,4.64e+00,
780,3.80e-02,4.48e+00,
781,4.00e-03,4.56e+00,
782,3.20e-02,4.56e+00,
783,4.00e-03,4.40e+00,
784,8.00e-03,4.56e+00,
785,3.80e-02,4.32e+00,
786,4.00e-02,4.40e+00,
787,1.20e-02,4.24e+00,
788,1.40e-02,4.40e+00,
789,4.80e-02,4.16e+00,
790,4.00e-02,4.32e+00,
791,6.00e-03,4.16e+00,
792,8.00e-03,4.24e+00,
793,4.20e-02,4.08e+00,
794,4.40e-02,4.24e+00,
795,1.40e-02,4.08e+00,
796,4.00e-02,4.16e+00,
797,6.00e-03,4.00e+00,
798,4.40e-02,4.08e+00,
799,1.20e-02,3.92e+00,
800,8.00e-03,4.08e+00,
801,4.20e-02,3.84e+00,
802,4.40e-02,4.00e+00,
803,0.00e+00,3.84e+00,
804,1.20e-02,3.92e+00,
805,3.80e-02,3.76e+00,
806,4.00e-02,3.92e+00,
807,6.00e-03,3.68e+00,
808,3.80e-02,3.84e+00,
809,6.00e-03,3.60e+00,
810,3.40e-02,3.60e+00,
811,-4.00e-03,3.76e+00,
812,4.00e-03,3.68e+00,
813,3.20e-02,3.52e+00,
814,2.00e-03,3.60e+00,
815,3.60e-02,3.44e+00,
816,3.80e-02,3.52e+00,
817,-2.00e-03,3.28e+00,
818,0.00e+00,3.44e+00,
819,3.40e-02,3.20e+00,
820,3.60e-02,3.36e+00,
821,6.00e-03,3.12e+00,
822,8.00e-03,3.28e+00,
823,3.60e-02,3.04e+00,
824,3.20e-02,3.20e+00,
825,4.00e-03,3.04e+00,
826,3.40e-02,3.12e+00,
827,4.00e-03,2.96e+00,
828,0.00e+00,3.04e+00,
829,3.00e-02,2.88e+00,
830,8.00e-03,2.96e+00,
831,3.60e-02,2.80e+00,
832,3.60e-02,2.88e+00,
833,0.00e+00,2.72e+00,
834,6.00e-03,2.80e+00,
835,3.20e-02,2.64e+00,
836,3.40e-02,2.72e+00,
837,4.00e-03,2.56e+00,
838,0.00e+00,2.64e+00,
839,2.80e-02,2.48e+00,
840,1.00e-02,2.56e+00,
841,4.40e-02,2.32e+00,
842,3.80e-02,2.40e+00,
843,-2.00e-03,2.24e+00,
844,3.00e-02,2.32e+00,
845,-1.00e-02,2.16e+00,
846,-1.00e-02,2.24e+00,
847,3.80e-02,2.08e+00,
848,2.60e-02,2.16e+00,
849,-6.00e-03,2.00e+00,
850,3.00e-02,2.08e+00,
851,-6.00e-03,1.92e+00,
852,-6.00e-03,2.00e+00,
