Kernspin/Daten/lockin_7.csv

X,CH1,CH2,Start,Increment,
Sequence,Volt,Volt,-2.945000e+01,5.000000e-02
0,4.80e-02,2.80e+00,
1,-1.60e-02,4.00e+00,
2,3.20e-02,4.00e+00,
3,-1.60e-02,2.88e+00,
4,-3.20e-02,2.88e+00,
5,4.00e-02,4.00e+00,
6,-2.40e-02,2.88e+00,
7,4.00e-02,4.08e+00,
8,4.00e-02,2.96e+00,
9,-1.60e-02,4.08e+00,
10,-2.40e-02,4.08e+00,
11,3.20e-02,2.96e+00,
12,3.20e-02,2.96e+00,
13,-1.60e-02,4.08e+00,
14,4.80e-02,4.08e+00,
15,-2.40e-02,2.96e+00,
16,-2.40e-02,4.16e+00,
17,3.20e-02,2.96e+00,
18,3.20e-02,4.16e+00,
19,-1.60e-02,3.04e+00,
20,-1.60e-02,4.16e+00,
21,4.00e-02,3.04e+00,
22,2.40e-02,3.04e+00,
23,-2.40e-02,4.24e+00,
24,4.80e-02,3.12e+00,
25,-2.40e-02,4.24e+00,
26,-1.60e-02,4.24e+00,
27,4.00e-02,3.20e+00,
28,4.00e-02,4.24e+00,
29,-1.60e-02,3.12e+00,
30,4.80e-02,3.12e+00,
31,-4.00e-02,4.32e+00,
32,4.00e-02,3.12e+00,
33,-2.40e-02,4.32e+00,
34,3.20e-02,4.32e+00,
35,-2.40e-02,3.20e+00,
36,-1.60e-02,3.28e+00,
37,4.80e-02,4.32e+00,
38,4.80e-02,3.92e+00,
39,-1.04e-01,-4.24e+00,
40,2.40e-02,-4.24e+00,
41,-6.40e-02,-3.04e+00,
42,-4.80e-02,-3.04e+00,
43,8.00e-03,-4.16e+00,
44,-4.00e-02,-4.16e+00,
45,1.60e-02,-3.04e+00,
46,1.60e-02,-3.04e+00,
47,-3.20e-02,-4.16e+00,
48,-2.40e-02,-4.16e+00,
49,1.60e-02,-2.96e+00,
50,-2.40e-02,-2.96e+00,
51,3.20e-02,-4.08e+00,
52,2.40e-02,-4.08e+00,
53,-2.40e-02,-2.96e+00,
54,4.00e-02,-2.96e+00,
55,-8.00e-03,-4.08e+00,
56,-1.60e-02,-4.08e+00,
57,4.00e-02,-2.88e+00,
58,3.20e-02,-4.00e+00,
59,-1.60e-02,-2.88e+00,
60,-1.60e-02,-4.00e+00,
61,3.20e-02,-2.88e+00,
62,3.20e-02,-4.00e+00,
63,-1.60e-02,-2.88e+00,
64,4.80e-02,-4.00e+00,
65,-8.00e-03,-2.80e+00,
66,-8.00e-03,-3.92e+00,
67,4.80e-02,-2.80e+00,
68,-8.00e-03,-2.80e+00,
69,5.60e-02,-3.92e+00,
70,4.80e-02,-3.92e+00,
71,0.00e+00,-2.80e+00,
72,4.00e-02,-3.84e+00,
73,-8.00e-03,-2.72e+00,
74,4.80e-02,-3.84e+00,
75,0.00e+00,-2.72e+00,
76,4.00e-02,-2.72e+00,
77,0.00e+00,-3.84e+00,
78,5.60e-02,-3.84e+00,
79,-8.00e-03,-2.64e+00,
80,4.80e-02,-3.84e+00,
81,-8.00e-03,-2.64e+00,
82,-8.00e-03,-2.64e+00,
83,4.80e-02,-3.76e+00,
84,4.80e-02,-2.64e+00,
85,-8.00e-03,-3.76e+00,
86,0.00e+00,-3.76e+00,
87,5.60e-02,-2.56e+00,
88,4.80e-02,-2.56e+00,
89,-8.00e-03,-3.68e+00,
90,-8.00e-03,-3.68e+00,
91,4.80e-02,-2.56e+00,
92,4.80e-02,-2.56e+00,
93,-8.00e-03,-3.68e+00,
94,5.60e-02,-3.68e+00,
95,-8.00e-03,-2.48e+00,
96,4.80e-02,-2.48e+00,
97,-8.00e-03,-3.60e+00,
98,-1.60e-02,-2.48e+00,
99,4.00e-02,-3.60e+00,
100,4.00e-02,-2.48e+00,
101,-8.00e-03,-3.60e+00,
102,4.80e-02,-3.60e+00,
103,-8.00e-03,-2.40e+00,
104,-8.00e-03,-2.40e+00,
105,4.00e-02,-3.52e+00,
106,0.00e+00,-3.44e+00,
107,4.00e-02,-2.40e+00,
108,-1.60e-02,-2.40e+00,
109,4.80e-02,-3.44e+00,
110,3.20e-02,-3.52e+00,
111,-1.60e-02,-2.32e+00,
112,3.20e-02,-3.36e+00,
113,-8.00e-03,-2.24e+00,
114,-1.60e-02,-3.36e+00,
115,4.00e-02,-2.32e+00,
116,-1.60e-02,-2.32e+00,
117,4.00e-02,-3.36e+00,
118,4.80e-02,-3.36e+00,
119,-8.00e-03,-2.16e+00,
120,-8.00e-03,-2.24e+00,
121,5.60e-02,-3.36e+00,
122,4.00e-02,-3.28e+00,
123,-1.60e-02,-2.16e+00,
124,4.80e-02,-2.16e+00,
125,-8.00e-03,-3.28e+00,
126,4.00e-02,-3.28e+00,
127,-8.00e-03,-2.08e+00,
128,-2.40e-02,-2.08e+00,
129,4.80e-02,-3.20e+00,
130,4.00e-02,-3.20e+00,
131,-1.60e-02,-2.08e+00,
132,2.40e-02,-3.20e+00,
133,-2.40e-02,-2.08e+00,
134,3.20e-02,-3.20e+00,
135,-3.20e-02,-2.00e+00,
136,2.40e-02,-2.00e+00,
137,-2.40e-02,-3.12e+00,
138,2.40e-02,-3.12e+00,
139,-1.60e-02,-2.00e+00,
140,4.00e-02,-2.00e+00,
141,-1.60e-02,-3.12e+00,
142,-1.60e-02,-3.12e+00,
143,4.00e-02,-1.92e+00,
144,2.40e-02,-3.04e+00,
145,-2.40e-02,-1.92e+00,
146,-2.40e-02,-1.92e+00,
147,2.40e-02,-3.04e+00,
148,-2.40e-02,-3.04e+00,
149,2.40e-02,-1.92e+00,
150,3.20e-02,-3.04e+00,
151,-2.40e-02,-1.84e+00,
152,-4.00e-02,-2.96e+00,
153,4.00e-02,-1.84e+00,
154,-1.60e-02,-1.84e+00,
155,3.20e-02,-2.96e+00,
156,-3.20e-02,-2.96e+00,
157,2.40e-02,-1.84e+00,
158,-1.60e-02,-2.96e+00,
159,4.00e-02,-1.76e+00,
160,4.00e-02,-2.88e+00,
161,-5.60e-02,-1.76e+00,
162,-8.80e-02,-1.76e+00,
163,7.20e-02,-2.88e+00,
164,-8.00e-03,-2.88e+00,
165,9.60e-02,-1.76e+00,
166,1.12e-01,-2.88e+00,
167,-2.40e-02,-1.68e+00,
168,6.40e-02,-1.68e+00,
169,-5.60e-02,-2.80e+00,
170,0.00e+00,-1.68e+00,
171,-1.28e-01,-2.80e+00,
172,-9.60e-02,-1.68e+00,
173,-2.40e-01,-2.80e+00,
174,-1.76e-01,-2.80e+00,
175,-3.04e-01,-1.60e+00,
176,-2.72e-01,-1.60e+00,
177,-4.08e-01,-2.72e+00,
178,-3.44e-01,-1.60e+00,
179,-4.80e-01,-2.72e+00,
180,-4.40e-01,-2.72e+00,
181,-5.52e-01,-1.60e+00,
182,-5.20e-01,-2.72e+00,
183,-6.16e-01,-1.52e+00,
184,-5.84e-01,-2.64e+00,
185,-6.56e-01,-1.52e+00,
186,-6.24e-01,-1.52e+00,
187,-6.96e-01,-2.64e+00,
188,-6.56e-01,-2.56e+00,
189,-7.12e-01,-1.52e+00,
190,-7.12e-01,-2.56e+00,
191,-6.56e-01,-1.44e+00,
192,-7.04e-01,-2.56e+00,
193,-6.48e-01,-1.44e+00,
194,-6.96e-01,-1.44e+00,
195,-6.24e-01,-2.56e+00,
196,-6.64e-01,-2.48e+00,
197,-6.00e-01,-1.44e+00,
198,-6.32e-01,-2.48e+00,
199,-5.28e-01,-1.36e+00,
200,-5.68e-01,-2.40e+00,
201,-4.72e-01,-1.36e+00,
202,-5.12e-01,-1.36e+00,
203,-4.00e-01,-2.40e+00,
204,-4.32e-01,-2.40e+00,
205,-2.80e-01,-1.28e+00,
206,-3.28e-01,-2.40e+00,
207,-1.60e-01,-1.28e+00,
208,-2.00e-01,-2.32e+00,
209,-5.60e-02,-1.28e+00,
210,-8.80e-02,-1.28e+00,
211,1.04e-01,-2.32e+00,
212,1.60e-02,-2.32e+00,
213,2.00e-01,-1.20e+00,
214,1.52e-01,-2.32e+00,
215,2.56e-01,-1.12e+00,
216,2.16e-01,-2.24e+00,
217,2.80e-01,-1.12e+00,
218,2.56e-01,-2.24e+00,
219,3.20e-01,-1.12e+00,
220,2.96e-01,-2.24e+00,
221,3.52e-01,-1.12e+00,
222,3.04e-01,-2.24e+00,
223,3.60e-01,-1.04e+00,
224,3.20e-01,-2.16e+00,
225,3.76e-01,-1.04e+00,
226,3.84e-01,-2.16e+00,
227,3.28e-01,-1.04e+00,
228,3.84e-01,-1.04e+00,
229,3.28e-01,-2.16e+00,
230,3.20e-01,-2.16e+00,
231,3.76e-01,-9.60e-01,
232,3.68e-01,-9.60e-01,
233,2.96e-01,-2.08e+00,
234,3.60e-01,-2.08e+00,
235,3.04e-01,-9.60e-01,
236,3.44e-01,-2.08e+00,
237,3.04e-01,-9.60e-01,
238,3.44e-01,-2.08e+00,
239,2.88e-01,-8.80e-01,
240,2.80e-01,-8.80e-01,
241,3.28e-01,-2.00e+00,
242,3.12e-01,-2.00e+00,
243,2.64e-01,-8.80e-01,
244,2.24e-01,-8.80e-01,
245,3.04e-01,-2.00e+00,
246,2.40e-01,-2.00e+00,
247,2.96e-01,-8.00e-01,
248,2.80e-01,-8.00e-01,
249,2.16e-01,-1.92e+00,
250,2.64e-01,-1.92e+00,
251,1.76e-01,-8.00e-01,
252,2.00e-01,-8.00e-01,
253,2.56e-01,-1.92e+00,
254,2.32e-01,-1.92e+00,
255,1.84e-01,-7.20e-01,
256,2.48e-01,-7.20e-01,
257,1.84e-01,-1.84e+00,
258,2.08e-01,-1.84e+00,
259,1.60e-01,-7.20e-01,
260,1.60e-01,-7.20e-01,
261,2.08e-01,-1.84e+00,
262,2.00e-01,-6.40e-01,
263,1.44e-01,-1.84e+00,
264,1.36e-01,-6.40e-01,
265,1.92e-01,-1.76e+00,
266,1.76e-01,-6.40e-01,
267,1.28e-01,-1.76e+00,
268,1.68e-01,-1.76e+00,
269,1.20e-01,-5.60e-01,
270,8.80e-02,-1.76e+00,
271,1.60e-01,-5.60e-01,
272,1.52e-01,-5.60e-01,
273,1.04e-01,-1.60e+00,
274,1.44e-01,-5.60e-01,
275,8.80e-02,-1.68e+00,
276,1.44e-01,-5.60e-01,
277,8.00e-02,-1.68e+00,
278,1.28e-01,-1.60e+00,
279,8.00e-02,-4.80e-01,
280,1.28e-01,-4.80e-01,
281,6.40e-02,-1.60e+00,
282,1.12e-01,-1.52e+00,
283,6.40e-02,-4.80e-01,
284,1.04e-01,-1.60e+00,
285,5.60e-02,-4.00e-01,
286,3.20e-02,-1.52e+00,
287,1.04e-01,-4.00e-01,
288,1.04e-01,-4.00e-01,
289,3.20e-02,-1.44e+00,
290,1.04e-01,-1.44e+00,
291,4.00e-02,-4.00e-01,
292,9.60e-02,-1.44e+00,
293,4.00e-02,-2.40e-01,
294,8.80e-02,-1.44e+00,
295,4.00e-02,-3.20e-01,
296,8.80e-02,-1.36e+00,
297,4.00e-02,-2.40e-01,
298,8.80e-02,-1.36e+00,
299,3.20e-02,-3.20e-01,
300,8.80e-02,-1.36e+00,
301,3.20e-02,-1.60e-01,
302,8.00e-02,-1.36e+00,
303,2.40e-02,-1.60e-01,
304,8.00e-02,-1.28e+00,
305,2.40e-02,-1.60e-01,
306,7.20e-02,-1.28e+00,
307,2.40e-02,-1.60e-01,
308,2.40e-02,-1.60e-01,
309,7.20e-02,-1.28e+00,
310,6.40e-02,-1.28e+00,
311,2.40e-02,-8.00e-02,
312,2.40e-02,-1.20e+00,
313,7.20e-02,-8.00e-02,
314,2.40e-02,-8.00e-02,
315,7.20e-02,-1.20e+00,
316,1.60e-02,-1.20e+00,
317,6.40e-02,-8.00e-02,
318,7.20e-02,0.00e+00,
319,0.00e+00,-1.20e+00,
320,1.60e-02,-1.12e+00,
321,5.60e-02,0.00e+00,
322,8.00e-02,-1.12e+00,
323,-1.60e-02,0.00e+00,
324,4.80e-02,-1.12e+00,
325,0.00e+00,0.00e+00,
326,5.60e-02,-1.12e+00,
327,0.00e+00,8.00e-02,
328,6.40e-02,-1.04e+00,
329,8.00e-03,8.00e-02,
330,8.00e-03,8.00e-02,
331,5.60e-02,-1.04e+00,
332,4.80e-02,-1.04e+00,
333,0.00e+00,1.60e-01,
334,0.00e+00,1.60e-01,
335,4.80e-02,-1.04e+00,
336,-1.60e-02,-9.60e-01,
337,4.80e-02,1.60e-01,
338,4.00e-02,1.60e-01,
339,-8.00e-03,-9.60e-01,
340,-1.60e-02,1.60e-01,
341,6.40e-02,-9.60e-01,
342,1.60e-02,2.40e-01,
343,5.60e-02,-9.60e-01,
344,-1.60e-02,-8.80e-01,
345,5.60e-02,2.40e-01,
346,-8.00e-03,2.40e-01,
347,5.60e-02,-8.80e-01,
348,0.00e+00,-8.80e-01,
349,5.60e-02,3.20e-01,
350,6.40e-02,-8.80e-01,
351,-2.40e-02,3.20e-01,
352,4.80e-02,-8.80e-01,
353,-1.60e-02,3.20e-01,
354,5.60e-02,3.20e-01,
355,-1.60e-02,-7.20e-01,
356,-8.00e-03,-8.00e-01,
357,4.00e-02,3.20e-01,
358,4.80e-02,4.00e-01,
359,-8.00e-03,-8.00e-01,
360,-8.00e-03,-8.00e-01,
361,4.80e-02,4.00e-01,
362,0.00e+00,4.00e-01,
363,4.80e-02,-7.20e-01,
364,-8.00e-03,-7.20e-01,
365,4.80e-02,4.00e-01,
366,4.80e-02,4.80e-01,
367,-8.00e-03,-7.20e-01,
368,4.80e-02,4.80e-01,
369,0.00e+00,-7.20e-01,
370,4.80e-02,4.80e-01,
371,0.00e+00,-5.60e-01,
372,0.00e+00,4.80e-01,
373,5.60e-02,-6.40e-01,
374,4.80e-02,-6.40e-01,
375,0.00e+00,6.40e-01,
376,4.80e-02,-5.60e-01,
377,-8.00e-03,6.40e-01,
378,4.80e-02,5.60e-01,
379,0.00e+00,-5.60e-01,
380,3.20e-02,-5.60e-01,
381,-1.60e-02,5.60e-01,
382,4.00e-02,-4.80e-01,
383,-1.60e-02,6.40e-01,
384,-1.60e-02,-4.80e-01,
385,5.60e-02,7.20e-01,
386,4.80e-02,7.20e-01,
387,-2.40e-02,-4.00e-01,
388,-8.00e-03,-4.00e-01,
389,4.80e-02,6.40e-01,
390,-4.00e-02,-4.00e-01,
391,5.60e-02,8.00e-01,
392,7.20e-02,-4.00e-01,
393,-8.00e-03,8.00e-01,
394,-8.00e-03,8.00e-01,
395,4.80e-02,-3.20e-01,
396,-8.00e-03,-3.20e-01,
397,4.80e-02,8.00e-01,
398,-8.00e-03,-3.20e-01,
399,4.80e-02,8.80e-01,
400,4.80e-02,-3.20e-01,
401,-8.00e-03,8.80e-01,
402,-8.00e-03,-2.40e-01,
403,5.60e-02,8.80e-01,
404,4.00e-02,-2.40e-01,
405,-1.60e-02,9.60e-01,
406,5.60e-02,-2.40e-01,
407,-8.00e-03,8.80e-01,
408,4.00e-02,-2.40e-01,
409,-1.60e-02,9.60e-01,
410,4.80e-02,-1.60e-01,
411,-1.60e-02,9.60e-01,
412,-8.00e-03,9.60e-01,
413,4.80e-02,-1.60e-01,
414,-1.60e-02,-1.60e-01,
415,4.80e-02,1.04e+00,
416,4.80e-02,-1.60e-01,
417,-1.60e-02,1.04e+00,
418,-2.40e-02,-8.00e-02,
419,4.00e-02,1.04e+00,
420,4.80e-02,1.04e+00,
421,-1.60e-02,-8.00e-02,
422,-1.60e-02,0.00e+00,
423,4.00e-02,1.12e+00,
424,4.80e-02,1.12e+00,
425,-3.20e-02,0.00e+00,
426,4.00e-02,0.00e+00,
427,-1.60e-02,1.12e+00,
428,-1.60e-02,0.00e+00,
429,4.80e-02,1.20e+00,
430,3.20e-02,8.00e-02,
431,-2.40e-02,1.20e+00,
432,-2.40e-02,1.20e+00,
433,4.00e-02,8.00e-02,
434,-2.40e-02,1.20e+00,
435,4.00e-02,8.00e-02,
436,-2.40e-02,1.20e+00,
437,3.20e-02,8.00e-02,
438,4.00e-02,1.60e-01,
439,-2.40e-02,1.28e+00,
440,3.20e-02,1.28e+00,
441,-4.00e-02,2.40e-01,
442,3.20e-02,1.60e-01,
443,-4.80e-02,1.28e+00,
444,3.20e-02,1.28e+00,
445,-3.20e-02,1.60e-01,
446,3.20e-02,1.36e+00,
447,-2.40e-02,2.40e-01,
448,-2.40e-02,1.36e+00,
449,3.20e-02,2.40e-01,
450,2.40e-02,3.20e-01,
451,-4.00e-02,1.36e+00,
452,5.60e-02,2.40e-01,
453,-1.60e-02,1.44e+00,
454,-5.60e-02,3.20e-01,
455,4.00e-02,1.44e+00,
456,-3.20e-02,1.44e+00,
457,5.60e-02,4.00e-01,
458,1.60e-02,3.20e-01,
459,-4.00e-02,1.44e+00,
460,-3.20e-02,3.20e-01,
461,3.20e-02,1.52e+00,
462,2.40e-02,4.00e-01,
463,-2.40e-02,1.60e+00,
464,-1.60e-02,1.60e+00,
465,3.20e-02,4.80e-01,
466,3.20e-02,4.80e-01,
467,-2.40e-02,1.52e+00,
468,2.40e-02,1.52e+00,
469,-2.40e-02,4.00e-01,
470,-2.40e-02,5.60e-01,
471,4.00e-02,1.60e+00,
472,2.40e-02,5.60e-01,
473,-3.20e-02,1.68e+00,
474,-2.40e-02,5.60e-01,
475,4.00e-02,1.68e+00,
476,-2.40e-02,5.60e-01,
477,3.20e-02,1.68e+00,
478,3.20e-02,5.60e-01,
479,-4.00e-02,1.76e+00,
480,4.00e-02,6.40e-01,
481,-2.40e-02,1.76e+00,
482,4.80e-02,6.40e-01,
483,-1.60e-02,1.76e+00,
484,4.00e-02,6.40e-01,
485,-3.20e-02,1.76e+00,
486,-1.60e-02,6.40e-01,
487,3.20e-02,1.84e+00,
488,-1.60e-02,7.20e-01,
489,3.20e-02,1.84e+00,
490,-2.40e-02,1.84e+00,
491,4.00e-02,7.20e-01,
492,3.20e-02,7.20e-01,
493,-2.40e-02,1.84e+00,
494,-1.60e-02,1.92e+00,
495,3.20e-02,7.20e-01,
496,-2.40e-02,8.00e-01,
497,5.60e-02,1.92e+00,
498,4.80e-02,8.00e-01,
499,-1.60e-02,1.92e+00,
500,-8.00e-03,8.00e-01,
501,4.00e-02,2.00e+00,
502,-2.40e-02,8.00e-01,
503,4.00e-02,2.00e+00,
504,-2.40e-02,8.80e-01,
505,4.80e-02,2.00e+00,
506,4.80e-02,8.80e-01,
507,-2.40e-02,2.00e+00,
508,4.00e-02,8.80e-01,
509,-8.00e-03,2.00e+00,
510,-1.60e-02,2.08e+00,
511,4.00e-02,8.80e-01,
512,-2.40e-02,9.60e-01,
513,3.20e-02,2.08e+00,
514,5.60e-02,2.08e+00,
515,-2.40e-02,9.60e-01,
516,-4.00e-02,9.60e-01,
517,5.60e-02,2.16e+00,
518,-2.40e-02,2.16e+00,
519,2.40e-02,1.04e+00,
520,3.20e-02,1.04e+00,
521,-2.40e-02,2.16e+00,
522,-1.60e-02,2.16e+00,
523,4.80e-02,1.04e+00,
524,-8.00e-03,1.04e+00,
525,3.20e-02,2.16e+00,
526,3.20e-02,2.24e+00,
527,-2.40e-02,1.04e+00,
528,2.40e-02,1.12e+00,
529,-2.40e-02,2.24e+00,
530,2.40e-02,2.24e+00,
531,-2.40e-02,1.12e+00,
532,-2.40e-02,1.12e+00,
533,2.40e-02,2.24e+00,
534,-2.40e-02,2.32e+00,
535,3.20e-02,1.20e+00,
536,3.20e-02,2.32e+00,
537,-1.60e-02,1.20e+00,
538,3.20e-02,2.32e+00,
539,-1.60e-02,1.20e+00,
540,-2.40e-02,1.20e+00,
541,3.20e-02,2.40e+00,
542,-3.20e-02,2.40e+00,
543,4.00e-02,1.28e+00,
544,4.80e-02,2.40e+00,
545,-1.60e-02,1.28e+00,
546,4.80e-02,2.40e+00,
547,-2.40e-02,1.36e+00,
548,4.00e-02,2.40e+00,
549,-2.40e-02,1.28e+00,
550,-2.40e-02,2.48e+00,
551,4.00e-02,1.36e+00,
552,-1.60e-02,1.44e+00,
553,4.00e-02,2.48e+00,
554,5.60e-02,2.48e+00,
555,-1.60e-02,1.44e+00,
556,-2.40e-02,1.44e+00,
557,4.00e-02,2.56e+00,
558,-2.40e-02,1.44e+00,
559,4.00e-02,2.64e+00,
560,2.40e-02,1.52e+00,
561,-3.20e-02,2.56e+00,
562,3.20e-02,1.52e+00,
563,-2.40e-02,2.64e+00,
564,-3.20e-02,1.52e+00,
565,2.40e-02,2.64e+00,
566,3.20e-02,1.60e+00,
567,-3.20e-02,2.72e+00,
568,-2.40e-02,1.60e+00,
569,3.20e-02,2.72e+00,
570,2.40e-02,1.60e+00,
571,-2.40e-02,2.72e+00,
572,-3.20e-02,1.60e+00,
573,3.20e-02,2.72e+00,
574,-2.40e-02,1.60e+00,
575,2.40e-02,2.80e+00,
576,2.40e-02,2.80e+00,
577,-3.20e-02,1.68e+00,
578,-2.40e-02,1.68e+00,
579,3.20e-02,2.80e+00,
580,-2.40e-02,1.68e+00,
581,4.00e-02,2.88e+00,
582,-2.40e-02,1.76e+00,
583,3.20e-02,2.88e+00,
584,1.60e-02,2.88e+00,
585,-3.20e-02,1.76e+00,
586,-1.60e-02,2.88e+00,
587,4.00e-02,1.76e+00,
588,-2.40e-02,1.76e+00,
589,3.20e-02,2.96e+00,
590,4.00e-02,1.84e+00,
591,-3.20e-02,2.96e+00,
592,2.40e-02,2.96e+00,
593,-3.20e-02,1.84e+00,
594,2.40e-02,1.84e+00,
595,-3.20e-02,2.96e+00,
596,4.00e-02,1.84e+00,
597,-2.40e-02,3.04e+00,
598,-2.40e-02,1.92e+00,
599,3.20e-02,3.04e+00,
600,2.40e-02,3.04e+00,
601,-3.20e-02,1.92e+00,
602,-3.20e-02,1.92e+00,
603,2.40e-02,3.04e+00,
604,4.80e-02,1.92e+00,
605,-3.20e-02,3.12e+00,
606,2.40e-02,1.92e+00,
607,-3.20e-02,3.12e+00,
608,2.40e-02,2.00e+00,
609,-4.00e-02,3.12e+00,
610,-4.00e-02,3.12e+00,
611,4.00e-02,2.00e+00,
612,-3.20e-02,2.00e+00,
613,2.40e-02,3.20e+00,
614,-2.40e-02,2.08e+00,
615,4.00e-02,3.20e+00,
616,-3.20e-02,3.20e+00,
617,2.40e-02,2.08e+00,
618,2.40e-02,2.08e+00,
619,-4.00e-02,3.20e+00,
620,3.20e-02,2.08e+00,
621,-3.20e-02,3.28e+00,
622,4.00e-02,2.16e+00,
623,-1.60e-02,3.28e+00,
624,3.20e-02,3.28e+00,
625,-2.40e-02,2.16e+00,
626,-1.60e-02,3.28e+00,
627,4.80e-02,2.16e+00,
628,4.00e-02,2.24e+00,
629,-2.40e-02,3.36e+00,
630,4.80e-02,3.36e+00,
631,-2.40e-02,2.24e+00,
632,3.20e-02,3.36e+00,
633,-2.40e-02,2.24e+00,
634,-2.40e-02,3.36e+00,
635,3.20e-02,2.24e+00,
636,-2.40e-02,3.36e+00,
637,3.20e-02,2.24e+00,
638,-1.60e-02,3.44e+00,
639,4.80e-02,2.32e+00,
640,3.20e-02,3.44e+00,
641,-2.40e-02,2.40e+00,
642,-1.60e-02,3.44e+00,
643,4.80e-02,2.32e+00,
644,2.40e-02,3.44e+00,
645,-4.80e-02,2.32e+00,
646,0.00e+00,3.52e+00,
647,7.20e-02,2.48e+00,
648,-3.20e-02,2.48e+00,
649,3.20e-02,3.52e+00,
650,-1.60e-02,3.52e+00,
651,4.00e-02,2.48e+00,
652,-8.00e-03,2.48e+00,
653,4.00e-02,3.60e+00,
654,-1.60e-02,2.56e+00,
655,4.00e-02,3.68e+00,
656,-2.40e-02,2.56e+00,
657,4.80e-02,3.68e+00,
658,3.20e-02,2.56e+00,
659,-2.40e-02,3.68e+00,
660,-2.40e-02,2.56e+00,
661,4.00e-02,3.68e+00,
662,4.80e-02,2.64e+00,
663,-1.60e-02,3.76e+00,
664,-2.40e-02,2.64e+00,
665,5.60e-02,3.76e+00,
666,6.40e-02,3.76e+00,
667,-8.00e-03,2.64e+00,
668,4.80e-02,2.64e+00,
669,-8.00e-03,3.76e+00,
670,-2.40e-02,2.72e+00,
671,5.60e-02,3.84e+00,
672,8.00e-02,2.72e+00,
673,-8.00e-03,3.84e+00,
674,-1.60e-02,3.84e+00,
675,4.00e-02,2.72e+00,
676,4.00e-02,2.72e+00,
677,-1.60e-02,3.84e+00,
678,4.00e-02,2.80e+00,
679,-8.00e-03,3.92e+00,
680,-8.00e-03,2.80e+00,
681,3.20e-02,3.92e+00,
682,-8.00e-03,3.92e+00,
683,4.00e-02,2.80e+00,
684,3.20e-02,2.80e+00,
685,-2.40e-02,4.00e+00,
686,3.20e-02,4.00e+00,
687,-4.00e-02,2.88e+00,
688,-3.20e-02,2.88e+00,
689,5.60e-02,4.00e+00,
690,3.20e-02,4.00e+00,
691,-3.20e-02,2.88e+00,
692,-1.60e-02,2.88e+00,
693,3.20e-02,4.08e+00,
694,4.00e-02,2.96e+00,
695,-4.80e-02,4.08e+00,
696,-2.40e-02,2.96e+00,
697,4.00e-02,4.08e+00,
698,4.00e-02,4.08e+00,
699,-3.20e-02,2.96e+00,
700,4.00e-02,2.96e+00,
701,-1.60e-02,4.16e+00,
702,-1.60e-02,4.16e+00,
703,4.80e-02,3.04e+00,
704,3.20e-02,3.04e+00,
705,-3.20e-02,4.16e+00,
706,-3.20e-02,4.16e+00,
707,4.00e-02,3.04e+00,
708,4.80e-02,3.04e+00,
709,-2.40e-02,4.24e+00,
710,4.00e-02,4.24e+00,
711,-1.60e-02,3.12e+00,
712,-1.60e-02,4.24e+00,
713,4.00e-02,3.12e+00,
714,-1.60e-02,4.24e+00,
715,4.00e-02,3.12e+00,
716,-2.40e-02,3.12e+00,
717,4.80e-02,4.32e+00,
718,-8.00e-03,4.32e+00,
719,4.80e-02,3.20e+00,
720,4.80e-02,3.28e+00,
721,-2.40e-02,4.32e+00,
722,-2.40e-02,4.32e+00,
723,3.20e-02,-4.32e+00,
724,-4.00e-02,-4.24e+00,
725,8.80e-02,-3.12e+00,
726,1.12e-01,-4.24e+00,
727,-8.00e-03,-3.04e+00,
728,5.60e-02,-4.16e+00,
729,0.00e+00,-3.04e+00,
730,4.80e-02,-4.16e+00,
731,0.00e+00,-3.04e+00,
732,-1.60e-02,-3.04e+00,
733,5.60e-02,-4.16e+00,
734,5.60e-02,-4.16e+00,
735,0.00e+00,-2.96e+00,
736,3.20e-02,-2.96e+00,
737,0.00e+00,-4.08e+00,
738,4.80e-02,-4.08e+00,
739,-1.60e-02,-2.96e+00,
740,-1.60e-02,-2.96e+00,
741,4.00e-02,-4.08e+00,
742,4.80e-02,-4.08e+00,
743,-2.40e-02,-2.88e+00,
744,4.00e-02,-2.88e+00,
745,-2.40e-02,-4.00e+00,
746,3.20e-02,-4.00e+00,
747,-3.20e-02,-2.88e+00,
748,-1.60e-02,-4.00e+00,
749,4.80e-02,-2.88e+00,
750,-3.20e-02,-3.92e+00,
751,4.00e-02,-2.80e+00,
752,-3.20e-02,-2.80e+00,
753,2.40e-02,-3.92e+00,
754,4.00e-02,-3.92e+00,
755,-3.20e-02,-2.80e+00,
756,2.40e-02,-2.80e+00,
757,-3.20e-02,-3.92e+00,
758,3.20e-02,-3.84e+00,
759,-2.40e-02,-2.72e+00,
760,3.20e-02,-2.72e+00,
761,-3.20e-02,-3.84e+00,
762,-1.60e-02,-3.84e+00,
763,4.00e-02,-2.72e+00,
764,2.40e-02,-3.84e+00,
765,-1.60e-02,-2.64e+00,
766,-2.40e-02,-3.76e+00,
767,3.20e-02,-2.64e+00,
768,3.20e-02,-2.64e+00,
769,-3.20e-02,-3.76e+00,
770,-4.00e-02,-2.64e+00,
771,3.20e-02,-3.76e+00,
772,2.40e-02,-3.76e+00,
773,-4.80e-02,-2.56e+00,
774,2.40e-02,-3.68e+00,
775,-3.20e-02,-2.56e+00,
776,3.20e-02,-3.68e+00,
777,-2.40e-02,-2.56e+00,
778,4.00e-02,-2.56e+00,
779,-1.60e-02,-3.68e+00,
780,4.80e-02,-3.68e+00,
781,-2.40e-02,-2.48e+00,
782,-2.40e-02,-3.60e+00,
783,4.00e-02,-2.48e+00,
784,4.00e-02,-2.48e+00,
785,-2.40e-02,-3.60e+00,
786,4.00e-02,-3.60e+00,
787,-3.20e-02,-2.48e+00,
788,1.60e-02,-3.60e+00,
789,-3.20e-02,-2.40e+00,
790,4.00e-02,-3.52e+00,
791,-3.20e-02,-2.40e+00,
792,2.40e-02,-2.40e+00,
793,-4.00e-02,-3.52e+00,
794,-3.20e-02,-3.44e+00,
795,5.60e-02,-2.40e+00,
796,-2.40e-02,-3.44e+00,
797,4.00e-02,-2.32e+00,
798,4.00e-02,-3.36e+00,
799,-3.20e-02,-2.32e+00,
800,-3.20e-02,-2.32e+00,
801,2.40e-02,-3.36e+00,
802,2.40e-02,-3.36e+00,
803,-3.20e-02,-2.32e+00,
804,2.40e-02,-2.24e+00,
805,-3.20e-02,-3.36e+00,
806,-3.20e-02,-2.16e+00,
807,3.20e-02,-3.28e+00,
808,4.00e-02,-3.28e+00,
809,-2.40e-02,-2.16e+00,
810,4.00e-02,-2.16e+00,
811,-2.40e-02,-3.28e+00,
812,-1.60e-02,-3.28e+00,
813,4.80e-02,-2.08e+00,
814,-1.60e-02,-2.08e+00,
815,5.60e-02,-3.20e+00,
816,4.00e-02,-3.20e+00,
817,-2.40e-02,-2.08e+00,
818,-1.60e-02,-2.08e+00,
819,4.00e-02,-3.20e+00,
820,4.00e-02,-3.20e+00,
821,-2.40e-02,-2.08e+00,
822,4.80e-02,-3.12e+00,
823,-1.60e-02,-2.00e+00,
824,4.80e-02,-3.12e+00,
825,-1.60e-02,-2.00e+00,
826,4.00e-02,-2.00e+00,
827,-1.60e-02,-3.12e+00,
828,-2.40e-02,-3.12e+00,
829,5.60e-02,-1.92e+00,
830,4.80e-02,-1.92e+00,
831,-4.00e-02,-3.04e+00,
832,2.40e-02,-3.04e+00,
833,-2.40e-02,-1.92e+00,
834,2.40e-02,-1.92e+00,
835,-1.60e-02,-3.04e+00,
