Kernspin/Daten/lockin_8.csv

X,CH1,CH2,Start,Increment,
Sequence,Volt,Volt,-2.945000e+01,5.000000e-02
0,-8.00e-03,1.76e+00,
1,4.80e-02,2.88e+00,
2,-1.60e-02,2.96e+00,
3,4.00e-02,1.84e+00,
4,4.00e-02,2.96e+00,
5,-1.60e-02,1.84e+00,
6,4.00e-02,1.84e+00,
7,-2.40e-02,2.96e+00,
8,-2.40e-02,1.84e+00,
9,3.20e-02,2.96e+00,
10,-3.20e-02,1.92e+00,
11,3.20e-02,3.04e+00,
12,-2.40e-02,1.92e+00,
13,4.80e-02,3.04e+00,
14,2.40e-02,3.04e+00,
15,-2.40e-02,1.92e+00,
16,2.40e-02,1.92e+00,
17,-2.40e-02,3.04e+00,
18,3.20e-02,1.92e+00,
19,-3.20e-02,3.12e+00,
20,-2.40e-02,2.00e+00,
21,2.40e-02,3.12e+00,
22,2.40e-02,2.00e+00,
23,-2.40e-02,3.12e+00,
24,1.60e-02,3.12e+00,
25,-2.40e-02,2.00e+00,
26,2.40e-02,3.20e+00,
27,-3.20e-02,2.00e+00,
28,-1.60e-02,3.20e+00,
29,3.20e-02,2.08e+00,
30,2.40e-02,2.16e+00,
31,-2.40e-02,3.20e+00,
32,-2.40e-02,3.20e+00,
33,3.20e-02,2.08e+00,
34,2.40e-02,2.16e+00,
35,-2.40e-02,3.28e+00,
36,2.40e-02,3.28e+00,
37,-2.40e-02,2.16e+00,
38,-2.40e-02,3.28e+00,
39,2.40e-02,2.16e+00,
40,-2.40e-02,3.28e+00,
41,2.40e-02,2.16e+00,
42,-1.60e-02,2.16e+00,
43,3.20e-02,3.36e+00,
44,3.20e-02,3.36e+00,
45,-2.40e-02,2.32e+00,
46,-1.60e-02,2.24e+00,
47,3.20e-02,3.36e+00,
48,-1.60e-02,3.36e+00,
49,4.00e-02,2.24e+00,
50,-8.00e-03,2.32e+00,
51,3.20e-02,3.44e+00,
52,3.20e-02,3.52e+00,
53,-1.60e-02,2.40e+00,
54,4.00e-02,2.40e+00,
55,-1.60e-02,3.44e+00,
56,-1.60e-02,3.44e+00,
57,4.80e-02,2.40e+00,
58,-8.00e-03,2.40e+00,
59,2.40e-02,3.60e+00,
60,-8.00e-03,3.52e+00,
61,4.80e-02,2.48e+00,
62,4.80e-02,2.48e+00,
63,-1.60e-02,3.60e+00,
64,-1.60e-02,3.52e+00,
65,3.20e-02,2.48e+00,
66,2.40e-02,2.48e+00,
67,-3.20e-02,3.68e+00,
68,4.80e-02,3.68e+00,
69,-1.60e-02,2.56e+00,
70,-1.60e-02,2.56e+00,
71,3.20e-02,3.68e+00,
72,2.40e-02,2.56e+00,
73,-4.80e-02,3.76e+00,
74,4.80e-02,2.64e+00,
75,-1.60e-02,3.68e+00,
76,3.20e-02,2.64e+00,
77,-2.40e-02,3.76e+00,
78,-1.60e-02,2.64e+00,
79,3.20e-02,3.76e+00,
80,3.20e-02,2.64e+00,
81,-2.40e-02,3.84e+00,
82,3.20e-02,2.64e+00,
83,-1.60e-02,3.84e+00,
84,4.00e-02,3.84e+00,
85,-1.60e-02,2.72e+00,
86,-1.60e-02,2.72e+00,
87,4.00e-02,3.84e+00,
88,-1.60e-02,2.72e+00,
89,4.00e-02,3.84e+00,
90,4.00e-02,2.72e+00,
91,-1.60e-02,3.92e+00,
92,-2.40e-02,3.92e+00,
93,3.20e-02,2.80e+00,
94,4.00e-02,3.92e+00,
95,-2.40e-02,2.80e+00,
96,-1.60e-02,2.80e+00,
97,4.00e-02,4.00e+00,
98,3.20e-02,2.80e+00,
99,-2.40e-02,4.00e+00,
100,2.40e-02,4.00e+00,
101,-1.60e-02,2.88e+00,
102,-1.60e-02,2.88e+00,
103,2.40e-02,4.00e+00,
104,-2.40e-02,4.00e+00,
105,3.20e-02,2.88e+00,
106,-1.60e-02,2.96e+00,
107,3.20e-02,4.08e+00,
108,2.40e-02,4.08e+00,
109,-1.60e-02,2.96e+00,
110,2.40e-02,4.08e+00,
111,-2.40e-02,2.96e+00,
112,2.40e-02,2.96e+00,
113,-3.20e-02,4.08e+00,
114,-3.20e-02,4.16e+00,
115,2.40e-02,2.96e+00,
116,2.40e-02,3.04e+00,
117,-2.40e-02,4.16e+00,
118,-2.40e-02,4.16e+00,
119,4.00e-02,3.04e+00,
120,-2.40e-02,3.04e+00,
121,3.20e-02,4.16e+00,
122,2.40e-02,4.24e+00,
123,-4.80e-02,3.12e+00,
124,-2.40e-02,4.24e+00,
125,3.20e-02,3.12e+00,
126,4.00e-02,4.24e+00,
127,-2.40e-02,3.12e+00,
128,-2.40e-02,4.24e+00,
129,4.00e-02,3.12e+00,
130,4.00e-02,4.32e+00,
131,-1.60e-02,3.20e+00,
132,-8.00e-03,4.32e+00,
133,4.00e-02,3.20e+00,
134,4.80e-02,4.32e+00,
135,-1.60e-02,-4.32e+00,
136,4.80e-02,-4.24e+00,
137,-1.60e-02,-3.12e+00,
138,5.60e-02,-4.24e+00,
139,-6.40e-02,-3.04e+00,
140,-4.00e-02,-4.16e+00,
141,-2.24e-01,-3.12e+00,
142,-2.40e-01,-4.16e+00,
143,-6.40e-02,-3.04e+00,
144,-1.28e-01,-4.16e+00,
145,-4.00e-02,-2.96e+00,
146,-9.60e-02,-2.96e+00,
147,-3.20e-02,-4.08e+00,
148,-8.00e-02,-4.08e+00,
149,-1.60e-02,-2.96e+00,
150,-5.60e-02,-4.08e+00,
151,1.60e-02,-2.96e+00,
152,0.00e+00,-4.08e+00,
153,-8.00e-02,-2.88e+00,
154,-1.04e-01,-4.00e+00,
155,2.40e-02,-2.88e+00,
156,-2.40e-02,-4.00e+00,
157,9.60e-02,-2.88e+00,
158,2.40e-02,-2.88e+00,
159,1.20e-01,-4.00e+00,
160,8.80e-02,-4.00e+00,
161,-1.60e-02,-2.80e+00,
162,1.60e-02,-3.92e+00,
163,-8.00e-02,-2.80e+00,
164,-4.00e-02,-3.92e+00,
165,-1.68e-01,-2.80e+00,
166,-1.36e-01,-2.80e+00,
167,-2.72e-01,-3.92e+00,
168,-2.32e-01,-3.92e+00,
169,-3.44e-01,-2.72e+00,
170,-3.20e-01,-2.72e+00,
171,-4.24e-01,-3.84e+00,
172,-3.92e-01,-3.84e+00,
173,-4.96e-01,-2.72e+00,
174,-4.72e-01,-2.72e+00,
175,-5.76e-01,-3.84e+00,
176,-5.36e-01,-3.84e+00,
177,-6.24e-01,-2.64e+00,
178,-6.00e-01,-2.64e+00,
179,-6.64e-01,-3.76e+00,
180,-6.32e-01,-3.76e+00,
181,-7.12e-01,-2.64e+00,
182,-7.04e-01,-2.64e+00,
183,-6.40e-01,-3.76e+00,
184,-6.88e-01,-3.68e+00,
185,-6.32e-01,-2.56e+00,
186,-6.24e-01,-3.68e+00,
187,-6.80e-01,-2.56e+00,
188,-6.64e-01,-3.68e+00,
189,-5.68e-01,-2.56e+00,
190,-6.08e-01,-2.56e+00,
191,-5.28e-01,-3.68e+00,
192,-5.60e-01,-3.60e+00,
193,-4.48e-01,-2.48e+00,
194,-4.80e-01,-2.48e+00,
195,-3.76e-01,-3.60e+00,
196,-4.16e-01,-2.48e+00,
197,-2.88e-01,-3.60e+00,
198,-3.12e-01,-3.60e+00,
199,-1.84e-01,-2.48e+00,
200,-2.40e-01,-2.40e+00,
201,-5.60e-02,-3.52e+00,
202,-8.00e-02,-2.40e+00,
203,7.20e-02,-3.52e+00,
204,1.60e-02,-2.40e+00,
205,2.24e-01,-3.52e+00,
206,1.84e-01,-3.52e+00,
207,2.80e-01,-2.40e+00,
208,2.24e-01,-3.36e+00,
209,3.04e-01,-2.32e+00,
210,2.72e-01,-3.36e+00,
211,3.36e-01,-2.32e+00,
212,2.88e-01,-3.36e+00,
213,3.60e-01,-2.24e+00,
214,3.28e-01,-3.36e+00,
215,3.92e-01,-2.32e+00,
216,3.92e-01,-2.16e+00,
217,3.28e-01,-3.28e+00,
218,3.92e-01,-3.28e+00,
219,3.44e-01,-2.24e+00,
220,4.00e-01,-2.16e+00,
221,3.44e-01,-3.28e+00,
222,3.92e-01,-3.28e+00,
223,3.28e-01,-2.16e+00,
224,3.84e-01,-2.16e+00,
225,3.04e-01,-3.20e+00,
226,3.76e-01,-3.20e+00,
227,3.20e-01,-2.08e+00,
228,3.52e-01,-3.20e+00,
229,3.12e-01,-2.08e+00,
230,3.52e-01,-3.20e+00,
231,2.88e-01,-2.08e+00,
232,3.28e-01,-3.12e+00,
233,2.80e-01,-2.00e+00,
234,3.20e-01,-3.12e+00,
235,2.72e-01,-2.00e+00,
236,3.12e-01,-2.00e+00,
237,2.48e-01,-3.12e+00,
238,3.04e-01,-3.12e+00,
239,2.48e-01,-1.92e+00,
240,2.80e-01,-1.92e+00,
241,2.32e-01,-3.04e+00,
242,2.72e-01,-3.04e+00,
243,2.00e-01,-1.92e+00,
244,2.56e-01,-3.04e+00,
245,2.00e-01,-1.92e+00,
246,2.48e-01,-3.04e+00,
247,1.84e-01,-1.92e+00,
248,2.40e-01,-1.84e+00,
249,1.76e-01,-2.96e+00,
250,1.68e-01,-2.96e+00,
251,2.24e-01,-1.84e+00,
252,2.16e-01,-1.84e+00,
253,1.60e-01,-2.96e+00,
254,2.08e-01,-2.96e+00,
255,1.44e-01,-1.84e+00,
256,1.36e-01,-1.76e+00,
257,1.84e-01,-2.88e+00,
258,1.76e-01,-2.88e+00,
259,1.20e-01,-1.76e+00,
260,1.60e-01,-1.76e+00,
261,1.12e-01,-2.88e+00,
262,1.60e-01,-2.88e+00,
263,9.60e-02,-1.68e+00,
264,9.60e-02,-1.68e+00,
265,1.52e-01,-2.80e+00,
266,1.36e-01,-1.68e+00,
267,8.80e-02,-2.80e+00,
268,1.36e-01,-2.80e+00,
269,8.00e-02,-1.68e+00,
270,1.28e-01,-2.80e+00,
271,7.20e-02,-1.60e+00,
272,1.36e-01,-1.60e+00,
273,6.40e-02,-2.72e+00,
274,1.28e-01,-1.60e+00,
275,6.40e-02,-2.72e+00,
276,1.12e-01,-2.64e+00,
277,4.80e-02,-1.60e+00,
278,1.04e-01,-2.64e+00,
279,5.60e-02,-1.52e+00,
280,2.40e-02,-2.56e+00,
281,1.04e-01,-1.52e+00,
282,4.80e-02,-1.52e+00,
283,8.80e-02,-2.64e+00,
284,9.60e-02,-2.64e+00,
285,4.80e-02,-1.52e+00,
286,8.80e-02,-2.64e+00,
287,4.00e-02,-1.44e+00,
288,8.00e-02,-2.48e+00,
289,2.40e-02,-1.44e+00,
290,2.40e-02,-1.44e+00,
291,8.00e-02,-2.48e+00,
292,7.20e-02,-2.48e+00,
293,1.60e-02,-1.44e+00,
294,7.20e-02,-2.56e+00,
295,2.40e-02,-1.36e+00,
296,1.60e-02,-2.56e+00,
297,6.40e-02,-1.28e+00,
298,2.40e-02,-1.36e+00,
299,7.20e-02,-2.40e+00,
300,7.20e-02,-2.40e+00,
301,2.40e-02,-1.36e+00,
302,6.40e-02,-2.40e+00,
303,2.40e-02,-1.20e+00,
304,7.20e-02,-2.40e+00,
305,8.00e-03,-1.20e+00,
306,1.60e-02,-2.32e+00,
307,7.20e-02,-1.20e+00,
308,0.00e+00,-2.32e+00,
309,6.40e-02,-1.20e+00,
310,5.60e-02,-2.32e+00,
311,1.60e-02,-1.20e+00,
312,6.40e-02,-2.24e+00,
313,0.00e+00,-1.12e+00,
314,4.80e-02,-1.12e+00,
315,-8.00e-03,-2.24e+00,
316,5.60e-02,-2.24e+00,
317,8.00e-03,-1.12e+00,
318,6.40e-02,-2.24e+00,
319,-8.00e-03,-1.04e+00,
320,-1.60e-02,-2.16e+00,
321,4.80e-02,-1.04e+00,
322,5.60e-02,-2.16e+00,
323,8.00e-03,-1.04e+00,
324,6.40e-02,-2.16e+00,
325,8.00e-03,-1.04e+00,
326,0.00e+00,-2.16e+00,
327,5.60e-02,-9.60e-01,
328,5.60e-02,-2.08e+00,
329,0.00e+00,-9.60e-01,
330,5.60e-02,-9.60e-01,
331,0.00e+00,-2.08e+00,
332,6.40e-02,-2.08e+00,
333,-1.60e-02,-9.60e-01,
334,0.00e+00,-2.08e+00,
335,5.60e-02,-8.80e-01,
336,6.40e-02,-2.00e+00,
337,-8.00e-03,-8.80e-01,
338,4.00e-02,-2.00e+00,
339,-8.00e-03,-8.80e-01,
340,5.60e-02,-2.00e+00,
341,-1.60e-02,-8.80e-01,
342,0.00e+00,-2.00e+00,
343,4.80e-02,-8.00e-01,
344,0.00e+00,-1.92e+00,
345,4.80e-02,-8.00e-01,
346,-1.60e-02,-8.00e-01,
347,4.80e-02,-1.92e+00,
348,-1.60e-02,-1.92e+00,
349,4.00e-02,-8.00e-01,
350,-1.60e-02,-8.00e-01,
351,4.80e-02,-1.92e+00,
352,4.00e-02,-7.20e-01,
353,-8.00e-03,-1.84e+00,
354,8.00e-03,-7.20e-01,
355,4.80e-02,-1.84e+00,
356,4.00e-02,-1.84e+00,
357,-1.60e-02,-7.20e-01,
358,-1.60e-02,-1.84e+00,
359,4.00e-02,-6.40e-01,
360,-1.60e-02,-6.40e-01,
361,4.00e-02,-1.76e+00,
362,4.80e-02,-1.76e+00,
363,-8.00e-03,-6.40e-01,
364,-1.60e-02,-6.40e-01,
365,5.60e-02,-1.68e+00,
366,-4.00e-02,-1.76e+00,
367,4.00e-02,-5.60e-01,
368,-8.00e-03,-5.60e-01,
369,4.00e-02,-1.68e+00,
370,4.00e-02,-1.68e+00,
371,-8.00e-03,-5.60e-01,
372,-2.40e-02,-5.60e-01,
373,4.00e-02,-1.68e+00,
374,-8.00e-03,-1.60e+00,
375,4.00e-02,-4.80e-01,
376,-1.60e-02,-4.80e-01,
377,3.20e-02,-1.60e+00,
378,-1.60e-02,-4.80e-01,
379,2.40e-02,-1.60e+00,
380,-8.00e-03,-4.80e-01,
381,4.00e-02,-1.60e+00,
382,4.00e-02,-4.00e-01,
383,-8.00e-03,-1.60e+00,
384,4.00e-02,-4.00e-01,
385,-1.60e-02,-1.44e+00,
386,4.00e-02,-4.00e-01,
387,-2.40e-02,-1.52e+00,
388,4.00e-02,-1.44e+00,
389,-8.00e-03,-3.20e-01,
390,-1.60e-02,-1.44e+00,
391,2.40e-02,-2.40e-01,
392,4.00e-02,-3.20e-01,
393,-2.40e-02,-1.36e+00,
394,4.00e-02,-1.36e+00,
395,-1.60e-02,-2.40e-01,
396,4.00e-02,-1.36e+00,
397,-2.40e-02,-2.40e-01,
398,4.00e-02,-1.36e+00,
399,-1.60e-02,-1.60e-01,
400,2.40e-02,-1.28e+00,
401,-2.40e-02,-1.60e-01,
402,-1.60e-02,-1.28e+00,
403,4.00e-02,-1.60e-01,
404,2.40e-02,-1.60e-01,
405,-2.40e-02,-1.28e+00,
406,-1.60e-02,-1.28e+00,
407,3.20e-02,-8.00e-02,
408,2.40e-02,-8.00e-02,
409,-1.60e-02,-1.20e+00,
410,-1.60e-02,-1.20e+00,
411,4.00e-02,-8.00e-02,
412,-2.40e-02,-8.00e-02,
413,3.20e-02,-1.20e+00,
414,-2.40e-02,-1.20e+00,
415,3.20e-02,0.00e+00,
416,-1.60e-02,0.00e+00,
417,4.80e-02,-1.12e+00,
418,3.20e-02,-1.12e+00,
419,-1.60e-02,0.00e+00,
420,3.20e-02,-1.12e+00,
421,-2.40e-02,0.00e+00,
422,4.00e-02,-1.12e+00,
423,-1.60e-02,8.00e-02,
424,-1.60e-02,8.00e-02,
425,4.00e-02,-1.04e+00,
426,-4.00e-02,-1.04e+00,
427,4.00e-02,8.00e-02,
428,-1.60e-02,8.00e-02,
429,2.40e-02,-1.04e+00,
430,-2.40e-02,-1.04e+00,
431,3.20e-02,1.60e-01,
432,3.20e-02,1.60e-01,
433,-2.40e-02,-9.60e-01,
434,-1.60e-02,1.60e-01,
435,3.20e-02,-9.60e-01,
436,-8.00e-03,1.60e-01,
437,4.80e-02,-9.60e-01,
438,4.00e-02,-9.60e-01,
439,-1.60e-02,2.40e-01,
440,-1.60e-02,-9.60e-01,
441,4.00e-02,2.40e-01,
442,4.00e-02,2.40e-01,
443,-5.60e-02,-8.80e-01,
444,-2.40e-02,2.40e-01,
445,4.00e-02,-8.80e-01,
446,3.20e-02,-8.80e-01,
447,-1.60e-02,3.20e-01,
448,3.20e-02,3.20e-01,
449,-2.40e-02,-8.80e-01,
450,-2.40e-02,3.20e-01,
451,4.00e-02,-8.00e-01,
452,-8.00e-03,-8.00e-01,
453,4.00e-02,3.20e-01,
454,-1.60e-02,-8.00e-01,
455,4.00e-02,4.00e-01,
456,-1.60e-02,4.00e-01,
457,4.00e-02,-8.00e-01,
458,-1.60e-02,4.00e-01,
459,4.00e-02,-8.00e-01,
460,3.20e-02,-7.20e-01,
461,-4.80e-02,4.00e-01,
462,-1.60e-02,-7.20e-01,
463,4.00e-02,4.80e-01,
464,-1.60e-02,-7.20e-01,
465,4.00e-02,4.80e-01,
466,-1.60e-02,4.80e-01,
467,2.40e-02,-6.40e-01,
468,-2.40e-02,4.80e-01,
469,4.00e-02,-6.40e-01,
470,4.00e-02,-6.40e-01,
471,-1.60e-02,5.60e-01,
472,3.20e-02,5.60e-01,
473,-1.60e-02,-6.40e-01,
474,-2.40e-02,-5.60e-01,
475,3.20e-02,6.40e-01,
476,2.40e-02,-4.80e-01,
477,-4.00e-02,6.40e-01,
478,4.00e-02,6.40e-01,
479,-3.20e-02,-5.60e-01,
480,1.60e-02,-4.80e-01,
481,-3.20e-02,7.20e-01,
482,-3.20e-02,6.40e-01,
483,2.40e-02,-4.80e-01,
484,-3.20e-02,-4.00e-01,
485,2.40e-02,7.20e-01,
486,1.60e-02,-4.00e-01,
487,-2.40e-02,8.00e-01,
488,2.40e-02,-4.00e-01,
489,-2.40e-02,8.00e-01,
490,-3.20e-02,8.00e-01,
491,2.40e-02,-4.00e-01,
492,-3.20e-02,7.20e-01,
493,2.40e-02,-3.20e-01,
494,-1.60e-02,-3.20e-01,
495,3.20e-02,8.80e-01,
496,-2.40e-02,-3.20e-01,
497,3.20e-02,8.80e-01,
498,-1.60e-02,-3.20e-01,
499,2.40e-02,8.80e-01,
500,-2.40e-02,-2.40e-01,
501,3.20e-02,8.80e-01,
502,3.20e-02,-2.40e-01,
503,-2.40e-02,9.60e-01,
504,4.00e-02,-2.40e-01,
505,-2.40e-02,9.60e-01,
506,-1.60e-02,-2.40e-01,
507,3.20e-02,9.60e-01,
508,3.20e-02,-1.60e-01,
509,-3.20e-02,9.60e-01,
510,4.00e-02,-1.60e-01,
511,-2.40e-02,1.04e+00,
512,-2.40e-02,-1.60e-01,
513,4.00e-02,1.04e+00,
514,-1.60e-02,1.04e+00,
515,3.20e-02,-8.00e-02,
516,-1.60e-02,-8.00e-02,
517,4.00e-02,1.04e+00,
518,-1.60e-02,-8.00e-02,
519,3.20e-02,1.12e+00,
520,2.40e-02,1.12e+00,
521,-1.60e-02,0.00e+00,
522,3.20e-02,0.00e+00,
523,-1.60e-02,1.12e+00,
524,3.20e-02,1.12e+00,
525,-1.60e-02,0.00e+00,
526,4.00e-02,0.00e+00,
527,-2.40e-02,1.20e+00,
528,-1.60e-02,1.20e+00,
529,3.20e-02,8.00e-02,
530,2.40e-02,8.00e-02,
531,-2.40e-02,1.20e+00,
532,2.40e-02,1.20e+00,
533,-2.40e-02,8.00e-02,
534,-1.60e-02,8.00e-02,
535,4.00e-02,1.20e+00,
536,3.20e-02,1.28e+00,
537,-8.00e-03,1.60e-01,
538,-1.60e-02,1.60e-01,
539,5.60e-02,1.28e+00,
540,-8.00e-03,1.28e+00,
541,4.00e-02,1.60e-01,
542,-1.60e-02,1.28e+00,
543,3.20e-02,1.60e-01,
544,-1.60e-02,1.36e+00,
545,3.20e-02,2.40e-01,
546,-8.00e-03,1.36e+00,
547,4.80e-02,2.40e-01,
548,0.00e+00,1.36e+00,
549,4.00e-02,2.40e-01,
550,4.00e-02,1.36e+00,
551,-8.00e-03,2.40e-01,
552,-1.60e-02,1.44e+00,
553,4.00e-02,3.20e-01,
554,-8.00e-03,3.20e-01,
555,4.80e-02,1.44e+00,
556,4.80e-02,1.44e+00,
557,-8.00e-03,4.00e-01,
558,4.00e-02,3.20e-01,
559,-8.00e-03,1.60e+00,
560,0.00e+00,4.80e-01,
561,4.80e-02,1.60e+00,
562,4.00e-02,4.80e-01,
563,0.00e+00,1.52e+00,
564,4.80e-02,1.52e+00,
565,-8.00e-03,4.80e-01,
566,3.20e-02,4.80e-01,
567,-2.40e-02,1.52e+00,
568,-1.60e-02,1.68e+00,
569,3.20e-02,5.60e-01,
570,3.20e-02,5.60e-01,
571,-1.60e-02,1.68e+00,
572,-1.60e-02,1.60e+00,
573,4.00e-02,5.60e-01,
574,-8.00e-03,5.60e-01,
575,3.20e-02,1.68e+00,
576,-1.60e-02,6.40e-01,
577,3.20e-02,1.76e+00,
578,-2.40e-02,6.40e-01,
579,3.20e-02,1.76e+00,
580,-1.60e-02,6.40e-01,
581,2.40e-02,1.76e+00,
582,3.20e-02,6.40e-01,
583,-1.60e-02,1.84e+00,
584,4.00e-02,1.84e+00,
585,-2.40e-02,7.20e-01,
586,4.00e-02,7.20e-01,
587,-2.40e-02,1.84e+00,
588,2.40e-02,1.76e+00,
589,-3.20e-02,7.20e-01,
590,-2.40e-02,7.20e-01,
591,1.60e-02,1.84e+00,
592,-3.20e-02,1.92e+00,
593,1.60e-02,7.20e-01,
594,1.60e-02,1.92e+00,
595,-2.40e-02,8.00e-01,
596,3.20e-02,1.92e+00,
597,-4.00e-02,8.00e-01,
598,-2.40e-02,8.00e-01,
599,4.00e-02,2.00e+00,
600,-2.40e-02,8.80e-01,
601,2.40e-02,2.00e+00,
602,-2.40e-02,8.80e-01,
603,2.40e-02,2.00e+00,
604,2.40e-02,2.00e+00,
605,-2.40e-02,8.80e-01,
606,-2.40e-02,8.80e-01,
607,2.40e-02,2.08e+00,
608,-2.40e-02,9.60e-01,
609,4.00e-02,2.08e+00,
610,3.20e-02,2.08e+00,
611,-2.40e-02,9.60e-01,
612,-1.60e-02,2.08e+00,
613,3.20e-02,9.60e-01,
614,3.20e-02,9.60e-01,
615,-3.20e-02,2.16e+00,
616,-3.20e-02,1.04e+00,
617,3.20e-02,2.16e+00,
618,-3.20e-02,2.16e+00,
619,2.40e-02,1.04e+00,
620,-1.60e-02,2.16e+00,
621,3.20e-02,1.04e+00,
622,-2.40e-02,2.16e+00,
623,2.40e-02,1.04e+00,
624,-1.60e-02,1.12e+00,
625,4.00e-02,2.24e+00,
626,-2.40e-02,2.24e+00,
627,4.00e-02,1.12e+00,
628,-1.60e-02,2.24e+00,
629,3.20e-02,1.12e+00,
630,3.20e-02,2.24e+00,
631,-1.60e-02,1.12e+00,
632,4.00e-02,1.20e+00,
633,-2.40e-02,2.32e+00,
634,3.20e-02,2.32e+00,
635,-2.40e-02,1.20e+00,
636,-1.60e-02,1.20e+00,
637,4.00e-02,2.32e+00,
638,-3.20e-02,1.20e+00,
639,4.00e-02,2.40e+00,
640,-1.60e-02,1.36e+00,
641,4.00e-02,2.40e+00,
642,-2.40e-02,2.40e+00,
643,3.20e-02,1.28e+00,
644,-1.60e-02,2.40e+00,
645,4.00e-02,1.28e+00,
646,-1.60e-02,1.28e+00,
647,3.20e-02,2.56e+00,
648,-1.60e-02,1.44e+00,
649,4.80e-02,2.56e+00,
650,-1.60e-02,2.48e+00,
651,4.80e-02,1.44e+00,
652,2.40e-02,1.44e+00,
653,-2.40e-02,2.48e+00,
654,3.20e-02,1.44e+00,
655,-1.60e-02,2.56e+00,
656,-8.00e-03,1.52e+00,
657,4.00e-02,2.64e+00,
658,4.00e-02,1.52e+00,
659,-1.60e-02,2.64e+00,
660,-8.00e-03,1.52e+00,
661,3.20e-02,2.64e+00,
662,-1.60e-02,1.52e+00,
663,4.00e-02,2.64e+00,
664,3.20e-02,1.60e+00,
665,-2.40e-02,2.72e+00,
666,-4.00e-02,2.64e+00,
667,4.00e-02,1.60e+00,
668,-8.00e-03,1.60e+00,
669,3.20e-02,2.72e+00,
670,-1.60e-02,2.72e+00,
671,3.20e-02,1.60e+00,
672,-3.20e-02,1.68e+00,
673,3.20e-02,2.80e+00,
674,-1.60e-02,2.80e+00,
675,3.20e-02,1.68e+00,
676,-2.40e-02,1.68e+00,
677,3.20e-02,2.80e+00,
678,3.20e-02,2.80e+00,
679,-2.40e-02,1.68e+00,
680,-1.60e-02,1.76e+00,
681,3.20e-02,2.88e+00,
682,-2.40e-02,2.88e+00,
683,3.20e-02,1.76e+00,
684,2.40e-02,1.76e+00,
685,-1.60e-02,2.88e+00,
686,4.00e-02,1.76e+00,
687,-1.60e-02,2.88e+00,
688,4.00e-02,2.96e+00,
689,-4.00e-02,1.84e+00,
690,-1.60e-02,1.84e+00,
691,4.00e-02,2.96e+00,
692,-8.00e-03,1.84e+00,
693,4.00e-02,2.96e+00,
694,-8.00e-03,1.84e+00,
695,4.00e-02,2.96e+00,
696,-1.60e-02,1.92e+00,
697,3.20e-02,3.04e+00,
698,4.00e-02,1.92e+00,
699,-8.00e-03,3.04e+00,
700,-1.60e-02,3.04e+00,
701,4.00e-02,1.92e+00,
702,-2.40e-02,1.92e+00,
703,3.20e-02,3.04e+00,
704,2.40e-02,3.12e+00,
705,-2.40e-02,2.00e+00,
706,-2.40e-02,2.00e+00,
707,3.20e-02,3.12e+00,
708,-2.40e-02,3.12e+00,
709,3.20e-02,2.00e+00,
710,2.40e-02,2.00e+00,
711,-1.60e-02,3.12e+00,
712,2.40e-02,2.00e+00,
713,-4.80e-02,3.20e+00,
714,-2.40e-02,2.08e+00,
715,3.20e-02,3.20e+00,
716,3.20e-02,3.20e+00,
717,-4.00e-02,2.08e+00,
718,-2.40e-02,3.20e+00,
719,4.00e-02,2.08e+00,
720,3.20e-02,3.28e+00,
721,-1.60e-02,2.16e+00,
722,1.60e-02,3.28e+00,
723,-4.00e-02,2.16e+00,
724,-2.40e-02,3.28e+00,
725,2.40e-02,2.16e+00,
726,-1.60e-02,2.16e+00,
727,3.20e-02,3.36e+00,
728,2.40e-02,3.36e+00,
729,-2.40e-02,2.32e+00,
730,2.40e-02,2.32e+00,
731,-1.60e-02,3.36e+00,
732,2.40e-02,3.36e+00,
733,-2.40e-02,2.24e+00,
734,2.40e-02,2.32e+00,
735,-2.40e-02,3.36e+00,
736,2.40e-02,2.32e+00,
737,-2.40e-02,3.52e+00,
738,-1.60e-02,2.40e+00,
739,3.20e-02,3.44e+00,
740,2.40e-02,3.44e+00,
741,-1.60e-02,2.40e+00,
742,-1.60e-02,2.40e+00,
743,4.00e-02,3.44e+00,
744,3.20e-02,3.52e+00,
745,-1.60e-02,2.48e+00,
746,-8.00e-03,2.48e+00,
747,3.20e-02,3.60e+00,
748,-8.00e-03,2.48e+00,
749,4.00e-02,3.60e+00,
750,3.20e-02,2.48e+00,
751,-1.60e-02,3.60e+00,
752,-8.00e-03,3.68e+00,
753,3.20e-02,2.56e+00,
754,-1.60e-02,2.56e+00,
755,3.20e-02,3.68e+00,
756,2.40e-02,2.56e+00,
757,-1.60e-02,3.68e+00,
758,-1.60e-02,2.56e+00,
759,3.20e-02,3.68e+00,
760,3.20e-02,3.76e+00,
761,-1.60e-02,2.64e+00,
762,3.20e-02,2.64e+00,
763,-2.40e-02,3.76e+00,
764,-1.60e-02,2.64e+00,
765,4.00e-02,3.76e+00,
766,-1.60e-02,2.64e+00,
767,4.00e-02,3.76e+00,
768,4.00e-02,2.64e+00,
769,-1.60e-02,3.84e+00,
770,2.40e-02,2.72e+00,
771,-4.00e-02,3.84e+00,
772,3.20e-02,2.72e+00,
773,-1.60e-02,3.84e+00,
774,-1.60e-02,3.84e+00,
775,3.20e-02,2.72e+00,
776,-1.60e-02,2.72e+00,
777,4.00e-02,3.92e+00,
778,4.00e-02,3.92e+00,
779,-1.60e-02,2.80e+00,
780,4.00e-02,2.80e+00,
781,-1.60e-02,3.92e+00,
782,-1.60e-02,3.92e+00,
783,4.80e-02,2.80e+00,
784,4.00e-02,2.80e+00,
785,-2.40e-02,4.00e+00,
786,-2.40e-02,4.00e+00,
787,2.40e-02,2.88e+00,
788,-2.40e-02,2.88e+00,
789,1.60e-02,4.00e+00,
790,-2.40e-02,4.00e+00,
791,3.20e-02,2.88e+00,
792,-3.20e-02,2.96e+00,
793,2.40e-02,4.08e+00,
794,3.20e-02,4.08e+00,
795,-2.40e-02,2.96e+00,
796,2.40e-02,2.96e+00,
797,-1.60e-02,4.08e+00,
798,4.00e-02,4.08e+00,
799,-2.40e-02,2.96e+00,
800,3.20e-02,3.04e+00,
801,-1.60e-02,4.16e+00,
802,4.00e-02,4.16e+00,
803,-1.60e-02,3.04e+00,
804,2.40e-02,4.16e+00,
805,-1.60e-02,3.04e+00,
806,-1.60e-02,4.16e+00,
807,3.20e-02,3.04e+00,
808,-1.60e-02,3.04e+00,
809,4.00e-02,4.24e+00,
810,-1.60e-02,4.24e+00,
811,4.00e-02,3.12e+00,
812,4.00e-02,3.12e+00,
813,-2.40e-02,4.24e+00,
814,4.80e-02,4.24e+00,
815,-1.60e-02,3.12e+00,
816,-2.40e-02,3.20e+00,
817,4.00e-02,4.32e+00,
818,3.20e-02,4.32e+00,
819,-2.40e-02,3.20e+00,
820,3.20e-02,4.32e+00,
821,-1.60e-02,-4.24e+00,
822,-2.40e-02,-4.24e+00,
823,3.20e-02,-3.04e+00,
824,-4.80e-02,-4.24e+00,
825,5.60e-02,-3.04e+00,
826,-4.00e-02,-4.16e+00,
827,-2.32e-01,-3.04e+00,
828,-2.24e-01,-4.16e+00,
829,-7.20e-02,-3.04e+00,
830,-1.52e-01,-4.16e+00,
831,6.40e-02,-2.96e+00,
832,-6.40e-02,-4.08e+00,
833,0.00e+00,-2.96e+00,
834,8.00e-03,-2.96e+00,
835,-5.60e-02,-4.08e+00,
836,1.60e-02,-2.96e+00,
837,-6.40e-02,-4.08e+00,
838,0.00e+00,-4.08e+00,
