Kernspin/Daten/guess_flouride/guess_f1.csv

X,CH1,CH2,Start,Increment,
Sequence,Volt,Volt,-3.000000e-02,5.000000e-05
0,2.00e-03,6.40e-01,
1,3.80e-02,8.00e-01,
2,8.00e-03,7.20e-01,
3,3.80e-02,8.80e-01,
4,3.80e-02,8.00e-01,
5,4.00e-03,9.60e-01,
6,8.00e-03,8.80e-01,
7,3.80e-02,1.04e+00,
8,3.80e-02,9.60e-01,
9,8.00e-03,1.12e+00,
10,1.20e-02,1.04e+00,
11,3.80e-02,1.20e+00,
12,3.60e-02,1.12e+00,
13,1.20e-02,1.28e+00,
14,1.00e-02,1.20e+00,
15,3.80e-02,1.36e+00,
16,3.80e-02,1.28e+00,
17,8.00e-03,1.52e+00,
18,1.00e-02,1.36e+00,
19,3.80e-02,1.68e+00,
20,3.80e-02,1.52e+00,
21,1.20e-02,1.76e+00,
22,1.20e-02,1.60e+00,
23,4.20e-02,1.84e+00,
24,6.00e-03,1.68e+00,
25,3.60e-02,1.92e+00,
26,6.00e-03,1.76e+00,
27,3.80e-02,2.00e+00,
28,3.80e-02,1.84e+00,
29,1.00e-02,2.08e+00,
30,1.00e-02,1.92e+00,
31,3.80e-02,2.16e+00,
32,6.00e-03,2.08e+00,
33,4.20e-02,2.24e+00,
34,3.60e-02,2.16e+00,
35,8.00e-03,2.32e+00,
36,6.00e-03,2.16e+00,
37,3.80e-02,2.40e+00,
38,3.40e-02,2.24e+00,
39,6.00e-03,2.48e+00,
40,3.60e-02,2.48e+00,
41,6.00e-03,2.64e+00,
42,3.80e-02,2.56e+00,
43,6.00e-03,2.72e+00,
44,0.00e+00,2.64e+00,
45,3.20e-02,2.80e+00,
46,3.60e-02,2.72e+00,
47,0.00e+00,2.88e+00,
48,0.00e+00,2.72e+00,
49,3.20e-02,2.96e+00,
50,0.00e+00,2.80e+00,
51,3.20e-02,3.04e+00,
52,3.00e-02,2.88e+00,
53,0.00e+00,3.12e+00,
54,3.00e-02,2.96e+00,
55,4.00e-03,3.20e+00,
56,0.00e+00,3.20e+00,
57,3.20e-02,3.04e+00,
58,3.40e-02,3.12e+00,
59,6.00e-03,3.28e+00,
60,2.60e-02,3.20e+00,
61,-4.00e-03,3.36e+00,
62,-6.00e-03,3.28e+00,
63,2.60e-02,3.52e+00,
64,0.00e+00,3.44e+00,
65,2.60e-02,3.60e+00,
66,0.00e+00,3.60e+00,
67,3.00e-02,3.44e+00,
68,-6.00e-03,3.52e+00,
69,2.20e-02,3.68e+00,
70,2.40e-02,3.60e+00,
71,-4.00e-03,3.76e+00,
72,0.00e+00,3.68e+00,
73,2.60e-02,3.84e+00,
74,2.40e-02,3.68e+00,
75,-6.00e-03,3.84e+00,
76,-2.00e-03,3.76e+00,
77,2.60e-02,3.92e+00,
78,-2.00e-03,3.84e+00,
79,3.20e-02,4.00e+00,
80,2.60e-02,4.00e+00,
81,-2.00e-03,3.84e+00,
82,2.40e-02,3.92e+00,
83,-6.00e-03,4.08e+00,
84,-8.00e-03,4.08e+00,
85,2.40e-02,3.92e+00,
86,2.60e-02,4.00e+00,
87,-1.00e-02,4.16e+00,
88,-6.00e-03,4.16e+00,
89,2.40e-02,4.00e+00,
90,-2.00e-03,4.08e+00,
91,2.40e-02,4.24e+00,
92,2.40e-02,4.24e+00,
93,-2.00e-03,4.08e+00,
94,-2.00e-03,4.16e+00,
95,2.80e-02,4.32e+00,
96,3.40e-02,4.24e+00,
97,4.00e-03,4.48e+00,
98,2.80e-02,4.48e+00,
99,2.00e-03,4.24e+00,
100,-2.00e-03,4.40e+00,
101,3.20e-02,4.56e+00,
102,3.20e-02,4.40e+00,
103,0.00e+00,4.56e+00,
104,0.00e+00,4.48e+00,
105,2.80e-02,4.64e+00,
106,2.80e-02,4.48e+00,
107,2.00e-03,4.64e+00,
108,2.00e-03,4.56e+00,
109,3.40e-02,4.64e+00,
110,3.00e-02,4.56e+00,
111,-2.00e-03,4.72e+00,
112,4.00e-03,4.56e+00,
113,3.00e-02,4.72e+00,
114,4.00e-03,4.64e+00,
115,3.20e-02,4.72e+00,
116,2.60e-02,4.64e+00,
117,0.00e+00,4.80e+00,
118,4.00e-03,4.80e+00,
119,3.40e-02,4.64e+00,
120,4.00e-03,4.64e+00,
121,3.20e-02,4.80e+00,
122,4.00e-03,4.80e+00,
123,3.40e-02,4.64e+00,
124,3.20e-02,4.80e+00,
125,4.00e-03,4.64e+00,
126,4.00e-03,4.80e+00,
127,3.20e-02,4.72e+00,
128,3.40e-02,4.72e+00,
129,6.00e-03,4.80e+00,
130,4.00e-03,4.72e+00,
131,3.40e-02,4.80e+00,
132,2.00e-03,4.72e+00,
133,3.60e-02,4.88e+00,
134,3.20e-02,4.72e+00,
135,6.00e-03,4.88e+00,
136,3.00e-02,4.72e+00,
137,2.00e-03,4.88e+00,
138,4.00e-03,4.72e+00,
139,3.00e-02,4.88e+00,
140,4.00e-03,4.72e+00,
141,3.40e-02,4.80e+00,
142,6.00e-03,4.72e+00,
143,3.20e-02,4.80e+00,
144,3.20e-02,4.80e+00,
145,8.00e-03,4.72e+00,
146,4.00e-03,4.80e+00,
147,3.60e-02,4.64e+00,
148,6.00e-03,4.64e+00,
149,3.60e-02,4.80e+00,
150,1.00e-02,4.64e+00,
151,3.80e-02,4.80e+00,
152,3.80e-02,4.64e+00,
153,1.00e-02,4.80e+00,
154,3.40e-02,4.64e+00,
155,4.00e-03,4.72e+00,
156,3.20e-02,4.72e+00,
157,6.00e-03,4.56e+00,
158,4.00e-03,4.56e+00,
159,3.80e-02,4.72e+00,
160,3.80e-02,4.72e+00,
161,1.40e-02,4.56e+00,
162,1.00e-02,4.64e+00,
163,3.80e-02,4.48e+00,
164,1.20e-02,4.48e+00,
165,4.00e-02,4.64e+00,
166,4.00e-02,4.56e+00,
167,1.00e-02,4.40e+00,
168,1.40e-02,4.40e+00,
169,4.20e-02,4.56e+00,
170,4.20e-02,4.56e+00,
171,1.20e-02,4.32e+00,
172,1.40e-02,4.40e+00,
173,4.20e-02,4.24e+00,
174,4.60e-02,4.32e+00,
175,1.20e-02,4.16e+00,
176,1.20e-02,4.32e+00,
177,4.00e-02,4.16e+00,
178,4.20e-02,4.24e+00,
179,1.60e-02,4.08e+00,
180,4.20e-02,4.24e+00,
181,1.20e-02,4.00e+00,
182,4.00e-02,4.16e+00,
183,1.40e-02,4.00e+00,
184,1.20e-02,4.08e+00,
185,4.40e-02,3.92e+00,
186,1.60e-02,4.08e+00,
187,4.40e-02,3.84e+00,
188,4.40e-02,4.00e+00,
189,1.40e-02,3.84e+00,
190,1.60e-02,3.92e+00,
191,4.20e-02,3.76e+00,
192,1.20e-02,3.84e+00,
193,4.60e-02,3.68e+00,
194,4.60e-02,3.84e+00,
195,1.40e-02,3.60e+00,
196,4.20e-02,3.76e+00,
197,1.40e-02,3.60e+00,
198,3.80e-02,3.68e+00,
199,1.20e-02,3.52e+00,
200,1.40e-02,3.60e+00,
201,4.00e-02,3.44e+00,
202,1.40e-02,3.52e+00,
203,4.40e-02,3.28e+00,
204,1.20e-02,3.36e+00,
205,4.40e-02,3.20e+00,
206,4.00e-02,3.36e+00,
207,8.00e-03,3.12e+00,
208,3.80e-02,3.28e+00,
209,1.20e-02,3.04e+00,
210,4.00e-02,3.20e+00,
211,6.00e-03,2.96e+00,
212,3.60e-02,3.12e+00,
213,1.20e-02,2.96e+00,
214,6.00e-03,3.04e+00,
215,3.80e-02,2.80e+00,
216,8.00e-03,2.96e+00,
217,4.00e-02,2.80e+00,
218,3.40e-02,2.72e+00,
219,4.00e-03,2.88e+00,
220,6.00e-03,2.80e+00,
221,3.40e-02,2.64e+00,
222,3.20e-02,2.72e+00,
223,4.00e-03,2.56e+00,
224,3.40e-02,2.48e+00,
225,-2.00e-03,2.64e+00,
226,3.00e-02,2.56e+00,
227,4.00e-03,2.32e+00,
228,3.20e-02,2.40e+00,
229,-2.00e-03,2.24e+00,
230,2.40e-02,2.32e+00,
231,0.00e+00,2.16e+00,
232,2.40e-02,2.24e+00,
233,-2.00e-03,2.08e+00,
234,2.40e-02,2.16e+00,
235,-6.00e-03,2.00e+00,
236,-2.00e-03,2.08e+00,
237,3.20e-02,1.92e+00,
238,2.60e-02,2.00e+00,
239,-2.00e-03,1.76e+00,
240,-2.00e-03,1.92e+00,
241,2.40e-02,1.68e+00,
242,-6.00e-03,1.84e+00,
243,2.60e-02,1.60e+00,
244,-2.00e-03,1.76e+00,
245,2.80e-02,1.52e+00,
246,2.80e-02,1.60e+00,
247,0.00e+00,1.44e+00,
248,6.00e-03,1.44e+00,
249,3.20e-02,1.28e+00,
250,3.80e-02,1.36e+00,
251,6.00e-03,1.20e+00,
252,8.00e-03,1.28e+00,
253,3.20e-02,1.12e+00,
254,3.40e-02,1.20e+00,
255,6.00e-03,1.04e+00,
256,3.60e-02,1.12e+00,
257,6.00e-03,9.60e-01,
258,3.80e-02,1.04e+00,
259,8.00e-03,8.80e-01,
260,3.60e-02,9.60e-01,
261,4.00e-03,8.00e-01,
262,2.80e-02,8.80e-01,
263,4.00e-03,7.20e-01,
264,2.00e-03,8.00e-01,
265,3.20e-02,5.60e-01,
266,3.20e-02,7.20e-01,
267,6.00e-03,4.80e-01,
268,8.00e-03,5.60e-01,
269,3.80e-02,3.20e-01,
270,6.00e-03,4.80e-01,
271,3.00e-02,2.40e-01,
272,3.20e-02,3.20e-01,
273,0.00e+00,1.60e-01,
274,3.20e-02,2.40e-01,
275,0.00e+00,8.00e-02,
276,1.80e-02,1.60e-01,
277,-3.40e-02,0.00e+00,
278,-1.40e-02,8.00e-02,
279,-5.40e-02,-8.00e-02,
280,-4.40e-02,0.00e+00,
281,8.00e-02,-1.60e-01,
282,8.40e-02,-8.00e-02,
283,-2.60e-02,-3.20e-01,
284,-8.00e-03,-1.60e-01,
285,5.60e-02,-4.00e-01,
286,-2.00e-03,-2.40e-01,
287,4.00e-02,-5.60e-01,
288,6.00e-03,-4.00e-01,
289,3.40e-02,-6.40e-01,
290,4.00e-03,-4.80e-01,
291,3.80e-02,-7.20e-01,
292,3.20e-02,-6.40e-01,
293,4.00e-03,-8.00e-01,
294,4.00e-03,-7.20e-01,
295,3.40e-02,-8.80e-01,
296,4.00e-03,-8.00e-01,
297,3.20e-02,-9.60e-01,
298,1.00e-02,-8.80e-01,
299,4.20e-02,-1.04e+00,
300,3.40e-02,-9.60e-01,
301,8.00e-03,-1.12e+00,
302,3.40e-02,-1.04e+00,
303,6.00e-03,-1.20e+00,
304,0.00e+00,-1.12e+00,
305,3.80e-02,-1.36e+00,
306,3.40e-02,-1.20e+00,
307,6.00e-03,-1.44e+00,
308,1.20e-02,-1.28e+00,
309,4.00e-02,-1.60e+00,
310,1.20e-02,-1.44e+00,
311,4.00e-02,-1.68e+00,
312,1.00e-02,-1.52e+00,
313,4.00e-02,-1.76e+00,
314,3.80e-02,-1.60e+00,
315,1.20e-02,-1.84e+00,
316,3.80e-02,-1.68e+00,
317,8.00e-03,-1.92e+00,
318,4.00e-02,-1.84e+00,
319,1.40e-02,-2.00e+00,
320,1.40e-02,-1.92e+00,
321,4.40e-02,-2.08e+00,
322,4.40e-02,-2.00e+00,
323,1.60e-02,-2.16e+00,
324,1.40e-02,-2.08e+00,
325,4.60e-02,-2.24e+00,
326,4.20e-02,-2.16e+00,
327,1.40e-02,-2.32e+00,
328,4.00e-02,-2.24e+00,
329,1.20e-02,-2.48e+00,
330,1.20e-02,-2.40e+00,
331,4.20e-02,-2.56e+00,
332,1.20e-02,-2.48e+00,
333,4.20e-02,-2.64e+00,
334,4.00e-02,-2.56e+00,
335,8.00e-03,-2.72e+00,
336,1.20e-02,-2.64e+00,
337,4.20e-02,-2.80e+00,
338,4.40e-02,-2.72e+00,
339,1.20e-02,-2.88e+00,
340,4.00e-02,-2.80e+00,
341,1.40e-02,-2.96e+00,
342,4.40e-02,-2.80e+00,
343,1.00e-02,-3.04e+00,
344,1.00e-02,-2.88e+00,
345,4.20e-02,-3.12e+00,
346,4.40e-02,-2.96e+00,
347,1.20e-02,-3.20e+00,
348,1.40e-02,-3.04e+00,
349,4.20e-02,-3.28e+00,
350,4.00e-02,-3.12e+00,
351,1.40e-02,-3.36e+00,
352,1.20e-02,-3.20e+00,
353,4.20e-02,-3.44e+00,
354,1.40e-02,-3.36e+00,
355,4.20e-02,-3.52e+00,
356,1.40e-02,-3.44e+00,
357,4.20e-02,-3.60e+00,
358,4.40e-02,-3.52e+00,
359,1.40e-02,-3.68e+00,
360,1.00e-02,-3.60e+00,
361,4.20e-02,-3.76e+00,
362,4.00e-02,-3.60e+00,
363,1.40e-02,-3.84e+00,
364,4.20e-02,-3.68e+00,
365,1.20e-02,-3.92e+00,
366,4.00e-02,-3.92e+00,
367,1.20e-02,-3.76e+00,
368,1.20e-02,-3.84e+00,
369,4.00e-02,-4.00e+00,
370,4.20e-02,-3.84e+00,
371,1.00e-02,-4.08e+00,
372,1.20e-02,-3.92e+00,
373,3.80e-02,-4.16e+00,
374,4.20e-02,-4.00e+00,
375,1.00e-02,-4.16e+00,
376,4.00e-02,-4.08e+00,
377,1.20e-02,-4.24e+00,
378,6.00e-03,-4.08e+00,
379,4.20e-02,-4.32e+00,
380,3.80e-02,-4.32e+00,
381,8.00e-03,-4.16e+00,
382,3.20e-02,-4.24e+00,
383,4.00e-03,-4.48e+00,
384,6.00e-03,-4.48e+00,
385,3.40e-02,-4.24e+00,
386,3.60e-02,-4.40e+00,
387,4.00e-03,-4.56e+00,
388,4.00e-03,-4.56e+00,
389,3.20e-02,-4.40e+00,
390,3.00e-02,-4.48e+00,
391,4.00e-03,-4.64e+00,
392,4.00e-03,-4.48e+00,
393,3.20e-02,-4.72e+00,
394,3.00e-02,-4.56e+00,
395,-2.00e-03,-4.72e+00,
396,4.00e-03,-4.56e+00,
397,3.00e-02,-4.80e+00,
398,3.20e-02,-4.80e+00,
399,0.00e+00,-4.64e+00,
400,2.60e-02,-4.64e+00,
401,-8.00e-03,-4.88e+00,
402,-2.00e-03,-4.88e+00,
403,2.80e-02,-4.72e+00,
404,3.00e-02,-4.80e+00,
405,-2.00e-03,-4.96e+00,
406,2.00e-03,-4.96e+00,
407,2.80e-02,-4.80e+00,
408,-4.00e-03,-4.88e+00,
409,3.40e-02,-5.04e+00,
410,0.00e+00,-5.04e+00,
411,3.00e-02,-4.88e+00,
412,3.40e-02,-4.88e+00,
413,0.00e+00,-5.12e+00,
414,-4.00e-03,-5.12e+00,
415,2.60e-02,-5.04e+00,
416,2.80e-02,-5.12e+00,
417,-6.00e-03,-4.96e+00,
418,-4.00e-03,-5.12e+00,
419,2.60e-02,-4.96e+00,
420,2.60e-02,-5.04e+00,
421,-4.00e-03,-5.20e+00,
422,-2.00e-03,-5.20e+00,
423,2.60e-02,-5.04e+00,
424,2.60e-02,-5.20e+00,
425,-2.00e-03,-5.04e+00,
426,0.00e+00,-5.20e+00,
427,3.00e-02,-5.04e+00,
428,2.40e-02,-5.20e+00,
429,-2.00e-03,-5.04e+00,
430,2.40e-02,-5.20e+00,
431,-1.00e-02,-5.04e+00,
432,-6.00e-03,-5.12e+00,
433,2.40e-02,-5.20e+00,
434,2.20e-02,-5.12e+00,
435,-4.00e-03,-5.28e+00,
436,2.20e-02,-5.20e+00,
437,-4.00e-03,-5.12e+00,
438,-2.00e-03,-5.12e+00,
439,2.20e-02,-5.28e+00,
440,-4.00e-03,-5.12e+00,
441,2.80e-02,-5.28e+00,
442,2.60e-02,-5.12e+00,
443,-4.00e-03,-5.28e+00,
444,2.40e-02,-5.20e+00,
445,-8.00e-03,-5.12e+00,
446,-6.00e-03,-5.20e+00,
447,2.20e-02,-5.04e+00,
448,-6.00e-03,-5.04e+00,
449,2.40e-02,-5.20e+00,
450,2.40e-02,-5.20e+00,
451,-4.00e-03,-5.04e+00,
452,1.80e-02,-5.20e+00,
453,-8.00e-03,-5.12e+00,
454,-1.00e-02,-5.20e+00,
455,3.00e-02,-5.04e+00,
456,-4.00e-03,-5.20e+00,
457,2.60e-02,-5.04e+00,
458,0.00e+00,-5.12e+00,
459,3.00e-02,-4.96e+00,
460,4.00e-03,-5.12e+00,
461,2.60e-02,-4.96e+00,
462,2.60e-02,-5.12e+00,
463,-4.00e-03,-4.96e+00,
464,3.00e-02,-5.12e+00,
465,0.00e+00,-4.96e+00,
466,3.00e-02,-5.04e+00,
467,0.00e+00,-4.88e+00,
468,2.00e-03,-5.04e+00,
469,3.00e-02,-4.88e+00,
470,3.00e-02,-5.04e+00,
471,4.00e-03,-4.80e+00,
472,2.80e-02,-4.80e+00,
473,-2.00e-03,-4.96e+00,
474,2.40e-02,-4.96e+00,
475,-2.00e-03,-4.80e+00,
476,-2.00e-03,-4.88e+00,
477,3.00e-02,-4.72e+00,
478,3.00e-02,-4.72e+00,
479,0.00e+00,-4.88e+00,
480,2.00e-03,-4.88e+00,
481,3.20e-02,-4.64e+00,
482,3.40e-02,-4.80e+00,
483,8.00e-03,-4.64e+00,
484,4.00e-03,-4.72e+00,
485,3.20e-02,-4.56e+00,
486,3.20e-02,-4.72e+00,
487,4.00e-03,-4.56e+00,
488,4.00e-03,-4.64e+00,
489,3.20e-02,-4.48e+00,
490,4.00e-02,-4.64e+00,
491,6.00e-03,-4.40e+00,
492,-4.00e-03,-4.40e+00,
493,2.80e-02,-4.56e+00,
494,3.20e-02,-4.48e+00,
495,6.00e-03,-4.32e+00,
496,6.00e-03,-4.48e+00,
497,3.40e-02,-4.32e+00,
498,8.00e-03,-4.32e+00,
499,3.40e-02,-4.16e+00,
500,3.40e-02,-4.32e+00,
501,4.00e-03,-4.08e+00,
502,4.00e-03,-4.24e+00,
503,3.40e-02,-4.00e+00,
504,6.00e-03,-4.00e+00,
505,3.60e-02,-4.16e+00,
506,3.40e-02,-4.08e+00,
507,4.00e-03,-3.92e+00,
508,8.00e-03,-4.08e+00,
509,3.80e-02,-3.84e+00,
510,8.00e-03,-4.00e+00,
511,4.00e-02,-3.76e+00,
512,6.00e-03,-3.92e+00,
513,3.40e-02,-3.76e+00,
514,4.00e-02,-3.84e+00,
515,1.00e-02,-3.68e+00,
516,1.00e-02,-3.76e+00,
517,3.80e-02,-3.60e+00,
518,4.00e-02,-3.76e+00,
519,1.00e-02,-3.52e+00,
520,8.00e-03,-3.68e+00,
521,3.60e-02,-3.44e+00,
522,1.00e-02,-3.60e+00,
523,3.80e-02,-3.36e+00,
524,3.80e-02,-3.52e+00,
525,0.00e+00,-3.20e+00,
526,4.00e-02,-3.36e+00,
527,6.00e-03,-3.20e+00,
528,8.00e-03,-3.28e+00,
529,3.80e-02,-3.12e+00,
530,6.00e-03,-3.20e+00,
531,3.20e-02,-3.04e+00,
532,3.80e-02,-3.12e+00,
533,8.00e-03,-2.96e+00,
534,3.40e-02,-3.04e+00,
535,1.00e-02,-2.88e+00,
536,3.80e-02,-2.96e+00,
537,6.00e-03,-2.80e+00,
538,8.00e-03,-2.88e+00,
539,3.40e-02,-2.72e+00,
540,3.40e-02,-2.80e+00,
541,4.00e-03,-2.64e+00,
542,3.40e-02,-2.80e+00,
543,4.00e-03,-2.56e+00,
544,4.00e-03,-2.72e+00,
545,3.40e-02,-2.48e+00,
546,4.00e-03,-2.56e+00,
547,2.80e-02,-2.40e+00,
548,0.00e+00,-2.48e+00,
549,3.00e-02,-2.24e+00,
550,0.00e+00,-2.48e+00,
551,3.20e-02,-2.16e+00,
552,6.00e-03,-2.32e+00,
553,3.20e-02,-2.08e+00,
554,2.60e-02,-2.16e+00,
555,-4.00e-03,-2.00e+00,
556,-2.00e-03,-2.16e+00,
557,2.40e-02,-1.92e+00,
558,-2.00e-03,-2.00e+00,
559,3.20e-02,-1.84e+00,
560,2.60e-02,-1.92e+00,
561,-4.00e-03,-1.76e+00,
562,0.00e+00,-1.84e+00,
563,2.60e-02,-1.68e+00,
564,-2.00e-03,-1.76e+00,
565,2.60e-02,-1.60e+00,
566,0.00e+00,-1.68e+00,
567,2.60e-02,-1.52e+00,
568,3.00e-02,-1.60e+00,
569,0.00e+00,-1.44e+00,
570,-2.00e-03,-1.52e+00,
571,2.40e-02,-1.28e+00,
572,2.60e-02,-1.36e+00,
573,-8.00e-03,-1.20e+00,
574,0.00e+00,-1.28e+00,
575,3.00e-02,-1.12e+00,
576,2.60e-02,-1.20e+00,
577,-4.00e-03,-9.60e-01,
578,-2.00e-03,-1.12e+00,
579,2.60e-02,-8.80e-01,
580,2.60e-02,-1.04e+00,
581,-6.00e-03,-8.00e-01,
582,1.60e-02,-9.60e-01,
583,-2.40e-02,-7.20e-01,
584,-1.00e-02,-8.80e-01,
585,-5.60e-02,-6.40e-01,
586,-6.00e-02,-7.20e-01,
587,4.20e-02,-5.60e-01,
588,7.20e-02,-6.40e-01,
589,-1.80e-02,-4.80e-01,
590,-3.00e-02,-5.60e-01,
591,4.20e-02,-3.20e-01,
592,3.60e-02,-4.00e-01,
593,-8.00e-03,-2.40e-01,
594,3.20e-02,-3.20e-01,
595,-2.00e-03,-1.60e-01,
596,2.60e-02,-2.40e-01,
597,0.00e+00,-8.00e-02,
598,-4.00e-03,-1.60e-01,
599,3.00e-02,0.00e+00,
600,-2.00e-03,-8.00e-02,
601,2.60e-02,1.60e-01,
602,2.80e-02,0.00e+00,
603,-4.00e-03,2.40e-01,
604,-2.00e-03,8.00e-02,
605,2.60e-02,3.20e-01,
606,2.80e-02,1.60e-01,
607,-6.00e-03,4.00e-01,
608,-2.00e-03,2.40e-01,
609,2.60e-02,4.80e-01,
610,-4.00e-03,4.00e-01,
611,2.40e-02,6.40e-01,
612,2.60e-02,5.60e-01,
613,-2.00e-03,7.20e-01,
614,-4.00e-03,6.40e-01,
615,2.40e-02,8.00e-01,
616,2.60e-02,7.20e-01,
617,-4.00e-03,8.80e-01,
618,2.20e-02,8.00e-01,
619,-4.00e-03,9.60e-01,
620,2.80e-02,8.80e-01,
621,-4.00e-03,1.04e+00,
622,-2.00e-03,9.60e-01,
623,2.20e-02,1.12e+00,
624,2.80e-02,1.04e+00,
625,-2.00e-03,1.20e+00,
626,-2.00e-03,1.12e+00,
627,2.20e-02,1.28e+00,
628,-2.00e-03,1.20e+00,
629,2.60e-02,1.44e+00,
630,2.60e-02,1.28e+00,
631,-2.00e-03,1.60e+00,
632,2.00e-03,1.44e+00,
633,3.20e-02,1.60e+00,
634,-2.00e-03,1.52e+00,
635,3.00e-02,1.76e+00,
636,3.00e-02,1.60e+00,
637,4.00e-03,1.84e+00,
638,0.00e+00,1.68e+00,
639,3.00e-02,1.92e+00,
640,3.40e-02,1.76e+00,
641,4.00e-03,2.00e+00,
642,-2.00e-03,1.92e+00,
643,2.60e-02,2.08e+00,
644,6.00e-03,2.00e+00,
645,3.40e-02,2.16e+00,
646,6.00e-03,2.08e+00,
647,3.80e-02,2.24e+00,
648,3.20e-02,2.16e+00,
649,4.00e-03,2.32e+00,
650,6.00e-03,2.24e+00,
651,4.20e-02,2.40e+00,
652,3.80e-02,2.32e+00,
653,1.00e-02,2.56e+00,
654,3.80e-02,2.48e+00,
655,1.20e-02,2.64e+00,
656,1.20e-02,2.56e+00,
657,4.20e-02,2.72e+00,
658,1.40e-02,2.64e+00,
659,4.60e-02,2.80e+00,
660,4.80e-02,2.72e+00,
661,1.40e-02,2.88e+00,
662,4.00e-02,2.80e+00,
663,1.20e-02,2.96e+00,
664,8.00e-03,2.80e+00,
665,4.40e-02,3.04e+00,
666,1.20e-02,2.88e+00,
667,4.00e-02,3.12e+00,
668,1.40e-02,2.96e+00,
669,4.20e-02,3.20e+00,
670,3.80e-02,3.04e+00,
671,8.00e-03,3.28e+00,
672,1.20e-02,3.28e+00,
673,4.40e-02,3.12e+00,
674,4.40e-02,3.20e+00,
675,1.40e-02,3.36e+00,
676,3.80e-02,3.28e+00,
677,1.40e-02,3.44e+00,
678,4.00e-02,3.44e+00,
679,1.20e-02,3.60e+00,
680,1.20e-02,3.44e+00,
681,4.00e-02,3.68e+00,
682,1.20e-02,3.68e+00,
683,4.00e-02,3.52e+00,
684,1.20e-02,3.60e+00,
685,4.20e-02,3.76e+00,
686,3.40e-02,3.68e+00,
687,4.00e-03,3.84e+00,
688,8.00e-03,3.84e+00,
689,3.80e-02,3.68e+00,
690,4.00e-02,3.76e+00,
691,1.20e-02,3.92e+00,
692,3.80e-02,3.84e+00,
693,1.20e-02,4.00e+00,
694,1.40e-02,4.00e+00,
695,4.20e-02,3.84e+00,
696,1.00e-02,3.92e+00,
697,3.60e-02,4.08e+00,
698,3.80e-02,4.08e+00,
699,1.00e-02,3.92e+00,
700,3.80e-02,4.00e+00,
701,6.00e-03,4.16e+00,
702,3.40e-02,4.00e+00,
703,8.00e-03,4.24e+00,
704,3.60e-02,4.08e+00,
705,4.00e-03,4.24e+00,
706,6.00e-03,4.24e+00,
707,3.20e-02,4.08e+00,
708,4.00e-03,4.16e+00,
709,3.40e-02,4.32e+00,
710,3.20e-02,4.24e+00,
711,4.00e-03,4.40e+00,
712,3.00e-02,4.40e+00,
713,0.00e+00,4.24e+00,
714,4.00e-03,4.40e+00,
715,3.00e-02,4.56e+00,
716,6.00e-03,4.40e+00,
717,3.20e-02,4.56e+00,
718,3.40e-02,4.48e+00,
719,0.00e+00,4.64e+00,
720,2.00e-03,4.48e+00,
721,3.20e-02,4.64e+00,
722,3.00e-02,4.56e+00,
723,4.00e-03,4.72e+00,
724,2.80e-02,4.56e+00,
725,0.00e+00,4.72e+00,
726,-2.00e-03,4.72e+00,
727,3.40e-02,4.56e+00,
728,3.00e-02,4.64e+00,
729,-2.00e-03,4.72e+00,
730,2.00e-03,4.64e+00,
731,2.80e-02,4.80e+00,
732,3.00e-02,4.80e+00,
733,0.00e+00,4.72e+00,
734,0.00e+00,4.80e+00,
735,3.00e-02,4.64e+00,
736,3.00e-02,4.80e+00,
737,-2.00e-03,4.64e+00,
738,2.60e-02,4.72e+00,
739,-2.00e-03,4.80e+00,
740,2.60e-02,4.72e+00,
741,2.00e-03,4.80e+00,
742,3.00e-02,4.80e+00,
743,4.00e-03,4.72e+00,
744,3.40e-02,4.72e+00,
745,2.00e-03,4.88e+00,
746,3.20e-02,4.72e+00,
747,4.00e-03,4.88e+00,
748,3.00e-02,4.72e+00,
749,0.00e+00,4.88e+00,
750,2.60e-02,4.88e+00,
751,0.00e+00,4.72e+00,
752,-2.00e-03,4.72e+00,
753,2.60e-02,4.88e+00,
754,0.00e+00,4.72e+00,
755,2.80e-02,4.88e+00,
756,3.20e-02,4.80e+00,
757,2.00e-03,4.72e+00,
758,4.00e-03,4.72e+00,
759,3.60e-02,4.80e+00,
760,3.20e-02,4.80e+00,
761,2.00e-03,4.64e+00,
762,4.00e-03,4.64e+00,
763,3.00e-02,4.80e+00,
764,4.00e-03,4.80e+00,
765,3.80e-02,4.64e+00,
766,3.20e-02,4.80e+00,
767,4.00e-03,4.64e+00,
768,3.00e-02,4.80e+00,
769,2.00e-03,4.64e+00,
770,3.20e-02,4.72e+00,
771,2.00e-03,4.56e+00,
772,4.00e-03,4.56e+00,
773,3.00e-02,4.72e+00,
774,3.40e-02,4.72e+00,
775,2.00e-03,4.56e+00,
776,4.00e-03,4.64e+00,
777,3.20e-02,4.48e+00,
778,-4.00e-03,4.48e+00,
779,2.80e-02,4.64e+00,
780,4.00e-03,4.56e+00,
781,3.20e-02,4.40e+00,
782,3.40e-02,4.40e+00,
783,6.00e-03,4.56e+00,
784,4.00e-03,4.48e+00,
785,3.00e-02,4.32e+00,
786,3.00e-02,4.40e+00,
787,0.00e+00,4.24e+00,
788,3.00e-02,4.32e+00,
789,0.00e+00,4.16e+00,
790,3.00e-02,4.32e+00,
791,2.00e-03,4.16e+00,
792,3.40e-02,4.24e+00,
793,4.00e-03,4.08e+00,
794,4.00e-03,4.24e+00,
795,3.20e-02,4.00e+00,
796,3.20e-02,4.16e+00,
797,4.00e-03,4.00e+00,
798,8.00e-03,4.08e+00,
799,4.00e-02,3.92e+00,
800,3.80e-02,4.08e+00,
801,6.00e-03,3.84e+00,
802,8.00e-03,3.84e+00,
803,3.40e-02,4.00e+00,
804,8.00e-03,3.92e+00,
805,4.20e-02,3.76e+00,
806,3.80e-02,3.84e+00,
807,8.00e-03,3.68e+00,
808,1.00e-02,3.84e+00,
809,4.00e-02,3.60e+00,
810,8.00e-03,3.76e+00,
811,3.80e-02,3.52e+00,
812,4.20e-02,3.52e+00,
813,1.00e-02,3.68e+00,
814,4.60e-02,3.60e+00,
815,1.20e-02,3.44e+00,
816,3.80e-02,3.28e+00,
817,1.20e-02,3.52e+00,
818,4.40e-02,3.36e+00,
819,1.40e-02,3.20e+00,
820,4.00e-02,3.28e+00,
821,1.00e-02,3.12e+00,
822,1.20e-02,3.28e+00,
823,4.40e-02,3.04e+00,
824,1.80e-02,3.20e+00,
825,4.80e-02,2.96e+00,
826,1.40e-02,3.12e+00,
827,4.40e-02,2.88e+00,
828,6.00e-03,2.88e+00,
829,4.00e-02,3.04e+00,
830,1.20e-02,2.80e+00,
831,4.00e-02,2.96e+00,
832,4.20e-02,2.88e+00,
833,8.00e-03,2.72e+00,
834,1.20e-02,2.80e+00,
835,3.80e-02,2.64e+00,
836,4.00e-02,2.72e+00,
837,1.20e-02,2.56e+00,
838,1.20e-02,2.64e+00,
839,4.00e-02,2.48e+00,
840,4.00e-02,2.32e+00,
841,1.00e-02,2.56e+00,
842,3.60e-02,2.40e+00,
843,1.00e-02,2.24e+00,
844,3.80e-02,2.32e+00,
845,1.00e-02,2.16e+00,
846,1.40e-02,2.24e+00,
847,4.00e-02,2.08e+00,
848,3.80e-02,2.16e+00,
849,1.20e-02,2.00e+00,
850,4.20e-02,2.08e+00,
851,1.00e-02,1.84e+00,
