Kernspin/Daten/guess_glycol/guess_gy3.csv

X,CH1,CH2,Start,Increment,
Sequence,Volt,Volt,-3.000000e-02,5.000000e-05
0,3.60e-02,6.40e-01,
1,0.00e+00,8.00e-01,
2,2.80e-02,7.20e-01,
3,-1.20e-02,8.80e-01,
4,3.20e-02,8.00e-01,
5,-8.00e-03,9.60e-01,
6,0.00e+00,8.80e-01,
7,4.00e-02,1.04e+00,
8,8.00e-03,9.60e-01,
9,7.20e-02,1.12e+00,
10,4.40e-02,1.04e+00,
11,8.40e-02,1.20e+00,
12,8.00e-02,1.12e+00,
13,1.60e-02,1.28e+00,
14,3.60e-02,1.20e+00,
15,-4.00e-03,1.36e+00,
16,2.40e-02,1.44e+00,
17,7.60e-02,1.28e+00,
18,6.80e-02,1.36e+00,
19,1.60e-02,1.68e+00,
20,2.00e-02,1.52e+00,
21,5.60e-02,1.76e+00,
22,4.40e-02,1.60e+00,
23,8.00e-03,1.84e+00,
24,1.60e-02,1.68e+00,
25,5.20e-02,1.92e+00,
26,5.60e-02,1.76e+00,
27,4.00e-03,2.00e+00,
28,0.00e+00,1.84e+00,
29,6.00e-02,2.08e+00,
30,7.20e-02,1.92e+00,
31,1.60e-02,2.16e+00,
32,8.00e-03,2.00e+00,
33,5.60e-02,2.24e+00,
34,2.80e-02,2.16e+00,
35,7.20e-02,2.32e+00,
36,4.00e-02,2.24e+00,
37,7.20e-02,2.40e+00,
38,7.20e-02,2.32e+00,
39,2.00e-02,2.56e+00,
40,1.60e-02,2.48e+00,
41,5.60e-02,2.64e+00,
42,4.00e-03,2.56e+00,
43,5.20e-02,2.72e+00,
44,2.40e-02,2.64e+00,
45,6.40e-02,2.80e+00,
46,7.20e-02,2.64e+00,
47,3.20e-02,2.88e+00,
48,6.00e-02,2.72e+00,
49,1.20e-02,2.96e+00,
50,2.40e-02,2.80e+00,
51,5.60e-02,3.04e+00,
52,2.00e-02,2.88e+00,
53,5.20e-02,3.12e+00,
54,6.00e-02,2.96e+00,
55,2.00e-02,3.20e+00,
56,5.20e-02,3.20e+00,
57,1.60e-02,3.04e+00,
58,4.00e-03,3.12e+00,
59,4.00e-02,3.28e+00,
60,2.80e-02,3.20e+00,
61,-1.20e-02,3.36e+00,
62,2.80e-02,3.28e+00,
63,-1.20e-02,3.44e+00,
64,-2.80e-02,3.44e+00,
65,2.00e-02,3.60e+00,
66,-4.00e-03,3.44e+00,
67,3.60e-02,3.68e+00,
68,4.40e-02,3.68e+00,
69,0.00e+00,3.52e+00,
70,2.00e-02,3.60e+00,
71,-2.00e-02,3.76e+00,
72,3.60e-02,3.68e+00,
73,-2.40e-02,3.84e+00,
74,-2.80e-02,3.68e+00,
75,3.60e-02,3.84e+00,
76,3.60e-02,3.76e+00,
77,4.00e-03,3.92e+00,
78,-4.00e-03,3.76e+00,
79,4.40e-02,4.00e+00,
80,4.80e-02,4.00e+00,
81,1.20e-02,3.84e+00,
82,4.40e-02,3.92e+00,
83,-1.20e-02,4.08e+00,
84,-1.20e-02,4.08e+00,
85,2.80e-02,3.92e+00,
86,1.60e-02,4.00e+00,
87,-1.20e-02,4.16e+00,
88,-4.00e-03,4.00e+00,
89,3.20e-02,4.16e+00,
90,4.00e-02,4.08e+00,
91,-4.00e-03,4.24e+00,
92,-8.00e-03,4.08e+00,
93,3.60e-02,4.24e+00,
94,4.80e-02,4.16e+00,
95,-1.60e-02,4.32e+00,
96,-1.60e-02,4.24e+00,
97,5.20e-02,4.40e+00,
98,4.80e-02,4.32e+00,
99,-1.20e-02,4.48e+00,
100,-1.20e-02,4.40e+00,
101,4.80e-02,4.56e+00,
102,5.20e-02,4.40e+00,
103,-1.20e-02,4.56e+00,
104,-2.80e-02,4.48e+00,
105,5.20e-02,4.64e+00,
106,5.60e-02,4.48e+00,
107,2.00e-02,4.64e+00,
108,4.80e-02,4.56e+00,
109,-8.00e-03,4.64e+00,
110,-1.20e-02,4.72e+00,
111,5.20e-02,4.56e+00,
112,5.60e-02,4.56e+00,
113,1.20e-02,4.72e+00,
114,3.20e-02,4.56e+00,
115,-8.00e-03,4.72e+00,
116,1.60e-02,4.64e+00,
117,-3.20e-02,4.80e+00,
118,-3.20e-02,4.64e+00,
119,3.20e-02,4.80e+00,
120,1.60e-02,4.64e+00,
121,-1.60e-02,4.80e+00,
122,1.60e-02,4.80e+00,
123,-2.00e-02,4.64e+00,
124,2.00e-02,4.80e+00,
125,-2.80e-02,4.64e+00,
126,-2.00e-02,4.72e+00,
127,4.40e-02,4.80e+00,
128,2.00e-02,4.72e+00,
129,6.00e-02,4.80e+00,
130,5.20e-02,4.80e+00,
131,4.00e-03,4.72e+00,
132,4.00e-03,4.72e+00,
133,5.20e-02,4.88e+00,
134,4.00e-02,4.72e+00,
135,-1.60e-02,4.88e+00,
136,-4.00e-03,4.88e+00,
137,5.20e-02,4.72e+00,
138,4.80e-02,4.72e+00,
139,0.00e+00,4.88e+00,
140,0.00e+00,4.72e+00,
141,4.40e-02,4.88e+00,
142,2.00e-02,4.80e+00,
143,5.20e-02,4.72e+00,
144,5.20e-02,4.72e+00,
145,-4.00e-03,4.80e+00,
146,0.00e+00,4.80e+00,
147,4.80e-02,4.64e+00,
148,4.00e-02,4.80e+00,
149,0.00e+00,4.64e+00,
150,4.00e-02,4.64e+00,
151,-4.00e-03,4.80e+00,
152,0.00e+00,4.64e+00,
153,4.80e-02,4.80e+00,
154,5.20e-02,4.64e+00,
155,1.60e-02,4.80e+00,
156,4.00e-02,4.72e+00,
157,-1.60e-02,4.56e+00,
158,-1.20e-02,4.56e+00,
159,5.20e-02,4.72e+00,
160,5.20e-02,4.56e+00,
161,8.00e-03,4.72e+00,
162,4.40e-02,4.64e+00,
163,4.00e-03,4.48e+00,
164,1.20e-02,4.48e+00,
165,6.40e-02,4.64e+00,
166,3.60e-02,4.56e+00,
167,-4.00e-03,4.40e+00,
168,0.00e+00,4.40e+00,
169,4.00e-02,4.56e+00,
170,-1.20e-02,4.56e+00,
171,4.80e-02,4.40e+00,
172,6.00e-02,4.24e+00,
173,-4.00e-03,4.48e+00,
174,2.00e-02,4.40e+00,
175,-2.00e-02,4.16e+00,
176,-1.60e-02,4.32e+00,
177,5.20e-02,4.16e+00,
178,6.40e-02,4.24e+00,
179,1.60e-02,4.08e+00,
180,1.60e-02,4.24e+00,
181,5.60e-02,4.08e+00,
182,1.20e-02,4.16e+00,
183,5.20e-02,4.00e+00,
184,5.20e-02,4.08e+00,
185,8.00e-03,3.92e+00,
186,2.00e-02,4.08e+00,
187,6.00e-02,3.84e+00,
188,4.80e-02,3.84e+00,
189,0.00e+00,4.00e+00,
190,2.00e-02,3.92e+00,
191,6.80e-02,3.76e+00,
192,4.80e-02,3.84e+00,
193,8.00e-03,3.68e+00,
194,8.00e-03,3.84e+00,
195,5.20e-02,3.60e+00,
196,5.60e-02,3.60e+00,
197,2.80e-02,3.76e+00,
198,5.20e-02,3.68e+00,
199,-2.80e-02,3.52e+00,
200,-3.60e-02,3.60e+00,
201,4.00e-03,3.44e+00,
202,-2.40e-02,3.36e+00,
203,6.40e-02,3.52e+00,
204,6.00e-02,3.36e+00,
205,4.00e-03,3.20e+00,
206,8.00e-03,3.36e+00,
207,4.40e-02,3.12e+00,
208,2.00e-02,3.28e+00,
209,6.40e-02,3.04e+00,
210,4.80e-02,3.20e+00,
211,-2.80e-02,3.04e+00,
212,-4.00e-03,3.12e+00,
213,8.00e-02,2.96e+00,
214,8.00e-02,3.04e+00,
215,2.40e-02,2.88e+00,
216,4.80e-02,2.96e+00,
217,8.00e-03,2.80e+00,
218,4.80e-02,2.88e+00,
219,1.60e-02,2.72e+00,
220,4.80e-02,2.80e+00,
221,4.00e-03,2.64e+00,
222,4.00e-03,2.72e+00,
223,4.40e-02,2.56e+00,
224,4.00e-02,2.64e+00,
225,-8.00e-03,2.48e+00,
226,-4.00e-03,2.56e+00,
227,5.20e-02,2.32e+00,
228,4.40e-02,2.40e+00,
229,8.00e-03,2.24e+00,
230,4.00e-03,2.32e+00,
231,3.60e-02,2.16e+00,
232,2.80e-02,2.24e+00,
233,-1.20e-02,2.08e+00,
234,4.00e-03,2.16e+00,
235,4.40e-02,2.00e+00,
236,5.60e-02,2.08e+00,
237,1.20e-02,1.92e+00,
238,-4.00e-03,2.00e+00,
239,6.40e-02,1.84e+00,
240,5.60e-02,1.92e+00,
241,1.60e-02,1.76e+00,
242,5.60e-02,1.84e+00,
243,0.00e+00,1.60e+00,
244,3.20e-02,1.76e+00,
245,-1.60e-02,1.52e+00,
246,-2.00e-02,1.68e+00,
247,3.60e-02,1.36e+00,
248,1.60e-02,1.52e+00,
249,5.20e-02,1.28e+00,
250,4.80e-02,1.44e+00,
251,-1.20e-02,1.20e+00,
252,-1.20e-02,1.28e+00,
253,4.00e-02,1.12e+00,
254,2.80e-02,1.20e+00,
255,-1.60e-02,1.04e+00,
256,-1.20e-02,1.12e+00,
257,3.20e-02,9.60e-01,
258,-4.00e-03,1.04e+00,
259,4.40e-02,8.80e-01,
260,3.60e-02,9.60e-01,
261,0.00e+00,8.00e-01,
262,0.00e+00,8.80e-01,
263,4.00e-02,7.20e-01,
264,4.00e-03,8.00e-01,
265,4.40e-02,6.40e-01,
266,4.40e-02,7.20e-01,
267,4.00e-03,4.80e-01,
268,3.60e-02,5.60e-01,
269,-8.00e-03,3.20e-01,
270,-8.00e-03,4.80e-01,
271,2.80e-02,2.40e-01,
272,4.00e-02,3.20e-01,
273,-1.20e-02,1.60e-01,
274,-3.20e-02,2.40e-01,
275,2.00e-02,8.00e-02,
276,-4.00e-03,1.60e-01,
277,4.40e-02,0.00e+00,
278,1.60e-02,8.00e-02,
279,-1.20e-01,-8.00e-02,
280,-1.12e-01,0.00e+00,
281,-4.84e-01,-1.60e-01,
282,-5.08e-01,-8.00e-02,
283,-3.16e-01,-2.40e-01,
284,-3.04e-01,-1.60e-01,
285,4.60e-01,-3.20e-01,
286,2.72e-01,-2.40e-01,
287,-1.88e-01,-4.80e-01,
288,2.16e-01,-3.20e-01,
289,-4.00e-02,-6.40e-01,
290,1.64e-01,-4.80e-01,
291,-1.60e-02,-7.20e-01,
292,6.80e-02,-5.60e-01,
293,-8.00e-03,-8.00e-01,
294,8.00e-03,-7.20e-01,
295,6.80e-02,-8.80e-01,
296,4.40e-02,-8.00e-01,
297,-4.00e-03,-9.60e-01,
298,4.00e-03,-8.80e-01,
299,4.40e-02,-1.04e+00,
300,1.20e-02,-9.60e-01,
301,5.20e-02,-1.12e+00,
302,1.20e-02,-1.04e+00,
303,6.00e-02,-1.20e+00,
304,3.20e-02,-1.12e+00,
305,7.60e-02,-1.28e+00,
306,6.80e-02,-1.20e+00,
307,-4.00e-03,-1.44e+00,
308,0.00e+00,-1.28e+00,
309,5.20e-02,-1.52e+00,
310,2.80e-02,-1.44e+00,
311,6.80e-02,-1.68e+00,
312,6.00e-02,-1.52e+00,
313,2.80e-02,-1.76e+00,
314,5.20e-02,-1.60e+00,
315,-4.00e-03,-1.84e+00,
316,4.40e-02,-1.68e+00,
317,4.00e-03,-1.92e+00,
318,-4.00e-03,-1.76e+00,
319,4.80e-02,-2.00e+00,
320,1.60e-02,-1.84e+00,
321,6.00e-02,-2.08e+00,
322,7.20e-02,-1.92e+00,
323,2.40e-02,-2.16e+00,
324,4.40e-02,-2.00e+00,
325,4.00e-03,-2.24e+00,
326,-8.00e-03,-2.16e+00,
327,4.40e-02,-2.32e+00,
328,1.20e-02,-2.24e+00,
329,5.60e-02,-2.40e+00,
330,4.00e-02,-2.40e+00,
331,4.00e-03,-2.56e+00,
332,1.20e-02,-2.48e+00,
333,6.00e-02,-2.64e+00,
334,6.40e-02,-2.56e+00,
335,2.00e-02,-2.72e+00,
336,2.40e-02,-2.56e+00,
337,8.00e-02,-2.80e+00,
338,8.40e-02,-2.72e+00,
339,4.00e-02,-2.88e+00,
340,6.00e-02,-2.72e+00,
341,2.40e-02,-2.96e+00,
342,2.00e-02,-2.80e+00,
343,5.60e-02,-3.04e+00,
344,2.00e-02,-2.88e+00,
345,7.20e-02,-3.12e+00,
346,5.20e-02,-2.96e+00,
347,8.00e-03,-3.20e+00,
348,-8.00e-03,-3.04e+00,
349,3.20e-02,-3.28e+00,
350,-8.00e-03,-3.12e+00,
351,3.20e-02,-3.36e+00,
352,8.00e-03,-3.36e+00,
353,4.40e-02,-3.20e+00,
354,1.20e-02,-3.36e+00,
355,4.80e-02,-3.52e+00,
356,1.60e-02,-3.44e+00,
357,6.00e-02,-3.60e+00,
358,5.60e-02,-3.52e+00,
359,2.40e-02,-3.68e+00,
360,4.80e-02,-3.52e+00,
361,-4.00e-03,-3.76e+00,
362,-8.00e-03,-3.60e+00,
363,4.40e-02,-3.84e+00,
364,4.00e-02,-3.84e+00,
365,0.00e+00,-3.68e+00,
366,4.00e-03,-3.76e+00,
367,4.00e-02,-3.92e+00,
368,1.60e-02,-3.84e+00,
369,5.60e-02,-4.00e+00,
370,2.40e-02,-3.84e+00,
371,6.00e-02,-4.08e+00,
372,6.00e-02,-4.08e+00,
373,-2.00e-02,-3.92e+00,
374,-8.00e-03,-4.00e+00,
375,3.60e-02,-4.16e+00,
376,1.60e-02,-4.00e+00,
377,5.20e-02,-4.24e+00,
378,5.20e-02,-4.24e+00,
379,1.20e-02,-4.08e+00,
380,2.00e-02,-4.16e+00,
381,5.20e-02,-4.32e+00,
382,5.20e-02,-4.16e+00,
383,4.00e-03,-4.48e+00,
384,2.40e-02,-4.32e+00,
385,-8.00e-03,-4.48e+00,
386,2.80e-02,-4.40e+00,
387,-1.20e-02,-4.56e+00,
388,-4.00e-03,-4.40e+00,
389,4.40e-02,-4.56e+00,
390,3.20e-02,-4.48e+00,
391,-2.80e-02,-4.64e+00,
392,-1.20e-02,-4.48e+00,
393,2.00e-02,-4.64e+00,
394,2.80e-02,-4.56e+00,
395,-4.00e-03,-4.72e+00,
396,-1.60e-02,-4.72e+00,
397,3.20e-02,-4.56e+00,
398,3.20e-02,-4.64e+00,
399,-2.40e-02,-4.80e+00,
400,-1.60e-02,-4.64e+00,
401,4.40e-02,-4.88e+00,
402,2.80e-02,-4.88e+00,
403,-8.00e-03,-4.72e+00,
404,-8.00e-03,-4.72e+00,
405,5.20e-02,-4.96e+00,
406,8.00e-03,-4.96e+00,
407,5.60e-02,-4.80e+00,
408,6.40e-02,-4.88e+00,
409,1.20e-02,-5.04e+00,
410,1.20e-02,-5.04e+00,
411,5.20e-02,-4.96e+00,
412,8.00e-03,-4.88e+00,
413,5.60e-02,-5.04e+00,
414,5.60e-02,-4.96e+00,
415,4.00e-03,-5.12e+00,
416,5.60e-02,-5.12e+00,
417,4.00e-03,-5.04e+00,
418,0.00e+00,-5.12e+00,
419,3.60e-02,-4.96e+00,
420,-4.00e-03,-5.04e+00,
421,3.60e-02,-5.20e+00,
422,8.00e-03,-5.04e+00,
423,5.60e-02,-5.20e+00,
424,2.40e-02,-5.20e+00,
425,5.60e-02,-5.04e+00,
426,4.40e-02,-5.20e+00,
427,-8.00e-03,-5.04e+00,
428,1.20e-02,-5.20e+00,
429,5.60e-02,-5.04e+00,
430,5.60e-02,-5.04e+00,
431,-4.00e-03,-5.20e+00,
432,1.60e-02,-5.20e+00,
433,-2.40e-02,-5.04e+00,
434,-2.00e-02,-5.20e+00,
435,4.80e-02,-5.12e+00,
436,4.80e-02,-5.12e+00,
437,8.00e-03,-5.28e+00,
438,1.60e-02,-5.20e+00,
439,6.40e-02,-5.12e+00,
440,6.40e-02,-5.20e+00,
441,1.60e-02,-5.12e+00,
442,4.00e-02,-5.20e+00,
443,0.00e+00,-5.12e+00,
444,0.00e+00,-5.20e+00,
445,5.20e-02,-5.04e+00,
446,4.00e-02,-5.20e+00,
447,0.00e+00,-5.04e+00,
448,2.40e-02,-5.20e+00,
449,-2.40e-02,-5.04e+00,
450,-4.00e-03,-5.20e+00,
451,2.80e-02,-5.12e+00,
452,-1.20e-02,-5.20e+00,
453,4.40e-02,-5.12e+00,
454,4.80e-02,-5.20e+00,
455,1.20e-02,-5.12e+00,
456,-4.00e-03,-5.04e+00,
457,4.40e-02,-5.20e+00,
458,5.60e-02,-5.12e+00,
459,0.00e+00,-4.96e+00,
460,2.00e-02,-5.12e+00,
461,-1.60e-02,-4.96e+00,
462,1.20e-02,-5.12e+00,
463,-4.00e-02,-4.96e+00,
464,-4.00e-02,-5.12e+00,
465,1.20e-02,-4.88e+00,
466,-1.60e-02,-5.04e+00,
467,2.00e-02,-4.88e+00,
468,-1.60e-02,-4.88e+00,
469,2.40e-02,-5.04e+00,
470,-8.00e-03,-5.04e+00,
471,3.20e-02,-4.80e+00,
472,-1.60e-02,-4.96e+00,
473,3.60e-02,-4.80e+00,
474,-1.60e-02,-4.96e+00,
475,3.60e-02,-4.80e+00,
476,4.80e-02,-4.88e+00,
477,-2.00e-02,-4.72e+00,
478,-4.00e-03,-4.72e+00,
479,-3.60e-02,-4.88e+00,
480,-4.00e-02,-4.80e+00,
481,1.60e-02,-4.64e+00,
482,-8.00e-03,-4.80e+00,
483,4.40e-02,-4.64e+00,
484,0.00e+00,-4.72e+00,
485,4.80e-02,-4.56e+00,
486,5.20e-02,-4.72e+00,
487,-4.00e-03,-4.56e+00,
488,2.40e-02,-4.64e+00,
489,-2.80e-02,-4.48e+00,
490,-2.40e-02,-4.64e+00,
491,2.00e-02,-4.40e+00,
492,1.20e-02,-4.40e+00,
493,-1.60e-02,-4.56e+00,
494,-2.80e-02,-4.56e+00,
495,2.40e-02,-4.32e+00,
496,2.80e-02,-4.48e+00,
497,-3.20e-02,-4.24e+00,
498,-1.60e-02,-4.32e+00,
499,6.00e-02,-4.16e+00,
500,4.40e-02,-4.24e+00,
501,-2.00e-02,-4.08e+00,
502,-2.80e-02,-4.24e+00,
503,2.00e-02,-4.00e+00,
504,-4.00e-03,-4.16e+00,
505,5.60e-02,-4.00e+00,
506,2.80e-02,-4.08e+00,
507,-2.00e-02,-3.92e+00,
508,-8.00e-03,-4.08e+00,
509,3.20e-02,-3.84e+00,
510,2.80e-02,-4.00e+00,
511,-8.00e-03,-3.76e+00,
512,4.00e-02,-3.92e+00,
513,-2.40e-02,-3.76e+00,
514,-2.40e-02,-3.84e+00,
515,2.80e-02,-3.68e+00,
516,0.00e+00,-3.76e+00,
517,5.20e-02,-3.60e+00,
518,3.60e-02,-3.68e+00,
519,-1.20e-02,-3.52e+00,
520,4.40e-02,-3.68e+00,
521,8.00e-03,-3.44e+00,
522,8.00e-03,-3.60e+00,
523,5.60e-02,-3.36e+00,
524,5.20e-02,-3.52e+00,
525,1.20e-02,-3.20e+00,
526,1.60e-02,-3.36e+00,
527,4.80e-02,-3.20e+00,
528,1.60e-02,-3.28e+00,
529,5.60e-02,-3.12e+00,
530,6.00e-02,-3.20e+00,
531,2.00e-02,-3.04e+00,
532,4.00e-02,-3.12e+00,
533,-4.00e-03,-2.96e+00,
534,-4.00e-03,-3.04e+00,
535,4.00e-02,-2.88e+00,
536,-4.00e-03,-2.96e+00,
537,3.60e-02,-2.80e+00,
538,1.20e-02,-2.88e+00,
539,4.80e-02,-2.72e+00,
540,4.00e-02,-2.88e+00,
541,4.00e-03,-2.64e+00,
542,4.00e-03,-2.80e+00,
543,4.40e-02,-2.56e+00,
544,4.80e-02,-2.72e+00,
545,-2.00e-02,-2.48e+00,
546,-2.40e-02,-2.64e+00,
547,5.60e-02,-2.40e+00,
548,5.60e-02,-2.56e+00,
549,-8.00e-03,-2.24e+00,
550,-1.60e-02,-2.40e+00,
551,2.40e-02,-2.16e+00,
552,3.60e-02,-2.32e+00,
553,0.00e+00,-2.08e+00,
554,-8.00e-03,-2.24e+00,
555,3.60e-02,-2.00e+00,
556,-4.00e-03,-2.08e+00,
557,4.00e-02,-1.92e+00,
558,4.00e-03,-2.00e+00,
559,4.40e-02,-1.84e+00,
560,0.00e+00,-1.92e+00,
561,4.40e-02,-1.76e+00,
562,8.00e-02,-1.84e+00,
563,2.00e-02,-1.68e+00,
564,3.60e-02,-1.76e+00,
565,-2.80e-02,-1.60e+00,
566,-3.20e-02,-1.68e+00,
567,1.60e-02,-1.52e+00,
568,-2.40e-02,-1.60e+00,
569,3.20e-02,-1.44e+00,
570,1.20e-02,-1.44e+00,
571,5.60e-02,-1.28e+00,
572,5.20e-02,-1.36e+00,
573,-2.40e-02,-1.20e+00,
574,-3.20e-02,-1.28e+00,
575,3.20e-02,-1.12e+00,
576,6.00e-02,-1.20e+00,
577,-1.20e-02,-1.04e+00,
578,1.20e-02,-1.12e+00,
579,-4.80e-02,-8.80e-01,
580,-2.80e-02,-1.04e+00,
581,-2.56e-01,-8.00e-01,
582,-2.44e-01,-9.60e-01,
583,-5.08e-01,-7.20e-01,
584,-5.08e-01,-8.80e-01,
585,3.04e-01,-6.40e-01,
586,4.00e-01,-7.20e-01,
587,-1.96e-01,-5.60e-01,
588,-1.92e-01,-6.40e-01,
589,1.56e-01,-4.80e-01,
590,-8.80e-02,-5.60e-01,
591,9.20e-02,-3.20e-01,
592,-4.00e-03,-4.00e-01,
593,9.60e-02,-2.40e-01,
594,4.00e-03,-3.20e-01,
595,8.00e-02,-1.60e-01,
596,6.00e-02,-2.40e-01,
597,1.20e-02,-8.00e-02,
598,6.40e-02,-1.60e-01,
599,-4.00e-03,0.00e+00,
600,-1.20e-02,-8.00e-02,
601,3.60e-02,8.00e-02,
602,-4.00e-03,0.00e+00,
603,4.00e-02,1.60e-01,
604,8.00e-03,8.00e-02,
605,5.20e-02,3.20e-01,
606,5.20e-02,1.60e-01,
607,8.00e-03,4.00e-01,
608,5.20e-02,2.40e-01,
609,0.00e+00,4.80e-01,
610,-2.40e-02,3.20e-01,
611,4.80e-02,6.40e-01,
612,2.00e-02,5.60e-01,
613,5.60e-02,7.20e-01,
614,4.40e-02,6.40e-01,
615,4.00e-03,8.00e-01,
616,3.20e-02,7.20e-01,
617,-2.00e-02,8.80e-01,
618,-2.80e-02,8.00e-01,
619,4.80e-02,9.60e-01,
620,2.40e-02,8.80e-01,
621,7.60e-02,1.04e+00,
622,5.60e-02,9.60e-01,
623,2.00e-02,1.12e+00,
624,2.40e-02,1.04e+00,
625,5.60e-02,1.20e+00,
626,6.00e-02,1.12e+00,
627,1.60e-02,1.28e+00,
628,8.00e-03,1.20e+00,
629,4.40e-02,1.36e+00,
630,6.00e-02,1.28e+00,
631,0.00e+00,1.52e+00,
632,-8.00e-03,1.44e+00,
633,3.20e-02,1.68e+00,
634,4.00e-03,1.52e+00,
635,4.40e-02,1.68e+00,
636,4.00e-02,1.60e+00,
637,8.00e-03,1.84e+00,
638,3.60e-02,1.68e+00,
639,-8.00e-03,1.92e+00,
640,5.20e-02,1.76e+00,
641,0.00e+00,2.00e+00,
642,-2.00e-02,1.84e+00,
643,2.80e-02,2.08e+00,
644,8.00e-03,2.00e+00,
645,5.60e-02,2.16e+00,
646,4.80e-02,2.00e+00,
647,-2.00e-02,2.24e+00,
648,-8.00e-03,2.16e+00,
649,3.20e-02,2.32e+00,
650,0.00e+00,2.24e+00,
651,4.80e-02,2.40e+00,
652,6.80e-02,2.32e+00,
653,2.00e-02,2.56e+00,
654,4.00e-02,2.48e+00,
655,-8.00e-03,2.64e+00,
656,-1.20e-02,2.48e+00,
657,5.60e-02,2.72e+00,
658,6.00e-02,2.64e+00,
659,-4.00e-03,2.80e+00,
660,-1.20e-02,2.72e+00,
661,3.60e-02,2.88e+00,
662,4.00e-03,2.72e+00,
663,4.40e-02,2.96e+00,
664,0.00e+00,2.80e+00,
665,5.60e-02,3.04e+00,
666,2.40e-02,2.88e+00,
667,6.80e-02,3.12e+00,
668,3.60e-02,2.96e+00,
669,7.20e-02,3.20e+00,
670,7.20e-02,3.04e+00,
671,3.20e-02,3.28e+00,
672,6.80e-02,3.12e+00,
673,2.40e-02,3.28e+00,
674,3.20e-02,3.20e+00,
675,8.40e-02,3.36e+00,
676,7.60e-02,3.28e+00,
677,3.20e-02,3.52e+00,
678,4.00e-02,3.36e+00,
679,8.40e-02,3.60e+00,
680,6.00e-02,3.44e+00,
681,2.00e-02,3.60e+00,
682,6.40e-02,3.68e+00,
683,8.00e-03,3.52e+00,
684,2.80e-02,3.60e+00,
685,6.40e-02,3.76e+00,
686,7.60e-02,3.60e+00,
687,2.80e-02,3.84e+00,
688,6.80e-02,3.68e+00,
689,3.60e-02,3.84e+00,
690,5.60e-02,3.76e+00,
691,1.60e-02,3.92e+00,
692,2.40e-02,3.84e+00,
693,8.40e-02,4.00e+00,
694,8.00e-02,4.00e+00,
695,2.40e-02,3.84e+00,
696,2.40e-02,3.92e+00,
697,7.60e-02,4.08e+00,
698,4.00e-02,4.08e+00,
699,8.80e-02,3.92e+00,
700,8.00e-02,4.00e+00,
701,1.20e-02,4.16e+00,
702,1.60e-02,4.16e+00,
703,6.80e-02,4.00e+00,
704,2.40e-02,4.08e+00,
705,5.60e-02,4.24e+00,
706,5.20e-02,4.08e+00,
707,8.00e-03,4.24e+00,
708,1.60e-02,4.16e+00,
709,7.20e-02,4.32e+00,
710,5.20e-02,4.24e+00,
711,2.00e-02,4.40e+00,
712,3.20e-02,4.40e+00,
713,8.00e-02,4.24e+00,
714,6.40e-02,4.40e+00,
715,3.20e-02,4.56e+00,
716,7.20e-02,4.40e+00,
717,2.40e-02,4.56e+00,
718,5.20e-02,4.48e+00,
719,1.60e-02,4.64e+00,
720,3.20e-02,4.48e+00,
721,7.60e-02,4.64e+00,
722,2.00e-02,4.56e+00,
723,6.40e-02,4.72e+00,
724,6.40e-02,4.56e+00,
725,2.40e-02,4.72e+00,
726,6.40e-02,4.72e+00,
727,2.00e-02,4.56e+00,
728,2.80e-02,4.64e+00,
729,6.80e-02,4.72e+00,
730,6.80e-02,4.64e+00,
731,8.00e-03,4.80e+00,
732,8.00e-03,4.72e+00,
733,4.40e-02,4.80e+00,
734,5.20e-02,4.80e+00,
735,1.60e-02,4.64e+00,
736,1.60e-02,4.64e+00,
737,6.00e-02,4.80e+00,
738,6.40e-02,4.80e+00,
739,2.40e-02,4.64e+00,
740,2.40e-02,4.80e+00,
741,7.20e-02,4.72e+00,
742,7.60e-02,4.72e+00,
743,1.60e-02,4.80e+00,
744,2.00e-02,4.80e+00,
745,6.00e-02,4.72e+00,
746,4.80e-02,4.72e+00,
747,8.00e-03,4.88e+00,
748,1.60e-02,4.72e+00,
749,4.80e-02,4.88e+00,
750,4.80e-02,4.72e+00,
751,1.20e-02,4.88e+00,
752,4.40e-02,4.72e+00,
753,8.00e-03,4.88e+00,
754,5.20e-02,4.72e+00,
755,1.20e-02,4.88e+00,
756,1.20e-02,4.72e+00,
757,6.00e-02,4.88e+00,
758,2.80e-02,4.80e+00,
759,6.40e-02,4.72e+00,
760,6.00e-02,4.80e+00,
761,-4.00e-03,4.72e+00,
762,0.00e+00,4.80e+00,
763,6.40e-02,4.64e+00,
764,6.80e-02,4.80e+00,
765,2.00e-02,4.64e+00,
766,1.60e-02,4.72e+00,
767,5.20e-02,4.80e+00,
768,8.00e-03,4.80e+00,
769,7.60e-02,4.64e+00,
770,7.60e-02,4.72e+00,
771,2.00e-02,4.56e+00,
772,4.40e-02,4.56e+00,
773,0.00e+00,4.72e+00,
774,4.00e-03,4.72e+00,
775,6.00e-02,4.56e+00,
776,4.80e-02,4.64e+00,
777,-8.00e-03,4.48e+00,
778,0.00e+00,4.48e+00,
779,4.00e-02,4.64e+00,
780,4.00e-02,4.56e+00,
781,4.00e-03,4.40e+00,
782,4.00e-03,4.40e+00,
783,4.40e-02,4.56e+00,
784,8.00e-03,4.56e+00,
785,4.40e-02,4.32e+00,
786,3.20e-02,4.40e+00,
787,-1.20e-02,4.24e+00,
788,-1.20e-02,4.32e+00,
789,3.60e-02,4.16e+00,
790,3.60e-02,4.32e+00,
791,-1.20e-02,4.16e+00,
792,-8.00e-03,4.24e+00,
793,2.40e-02,4.08e+00,
794,4.00e-03,4.08e+00,
795,6.40e-02,4.24e+00,
796,6.80e-02,4.16e+00,
797,1.20e-02,4.00e+00,
798,2.40e-02,4.08e+00,
799,8.00e-02,3.92e+00,
800,6.00e-02,4.08e+00,
801,2.40e-02,3.84e+00,
802,6.00e-02,3.84e+00,
803,1.60e-02,4.00e+00,
804,-4.00e-03,3.92e+00,
805,4.40e-02,3.76e+00,
806,5.20e-02,3.84e+00,
807,8.00e-03,3.68e+00,
808,1.20e-02,3.84e+00,
809,7.20e-02,3.60e+00,
810,7.60e-02,3.76e+00,
811,3.60e-02,3.60e+00,
812,7.60e-02,3.68e+00,
813,2.00e-02,3.52e+00,
814,2.00e-02,3.60e+00,
815,6.40e-02,3.44e+00,
816,4.00e-02,3.52e+00,
817,7.60e-02,3.36e+00,
818,6.40e-02,3.36e+00,
819,2.80e-02,3.20e+00,
820,1.60e-02,3.36e+00,
821,6.80e-02,3.12e+00,
822,4.40e-02,3.28e+00,
823,1.00e-01,3.04e+00,
824,8.40e-02,3.20e+00,
825,3.60e-02,2.96e+00,
826,6.00e-02,2.96e+00,
827,2.00e-02,3.12e+00,
828,2.40e-02,2.88e+00,
829,7.60e-02,3.04e+00,
830,6.80e-02,2.96e+00,
831,2.40e-02,2.80e+00,
832,5.60e-02,2.88e+00,
833,8.00e-03,2.72e+00,
834,0.00e+00,2.80e+00,
835,4.00e-02,2.64e+00,
836,1.60e-02,2.72e+00,
837,6.40e-02,2.56e+00,
838,7.60e-02,2.64e+00,
839,3.60e-02,2.48e+00,
840,6.00e-02,2.56e+00,
841,8.00e-03,2.32e+00,
842,-4.00e-03,2.40e+00,
843,4.80e-02,2.24e+00,
844,4.80e-02,2.32e+00,
845,1.20e-02,2.16e+00,
846,1.20e-02,2.24e+00,
847,5.60e-02,2.08e+00,
848,4.00e-03,2.16e+00,
