Kernspin/Daten/lockin_h2/lockin_9.csv

X,CH1,CH2,Start,Increment,
Sequence,Volt,Volt,-2.945000e+01,5.000000e-02
0,3.20e-02,3.04e+00,
1,-1.60e-02,4.16e+00,
2,2.40e-02,4.16e+00,
3,-2.40e-02,3.04e+00,
4,-2.40e-02,4.24e+00,
5,3.20e-02,3.12e+00,
6,-3.20e-02,3.12e+00,
7,2.40e-02,4.24e+00,
8,-1.60e-02,4.24e+00,
9,2.40e-02,3.12e+00,
10,2.40e-02,3.12e+00,
11,-1.60e-02,4.24e+00,
12,3.20e-02,3.12e+00,
13,-1.60e-02,4.32e+00,
14,-2.40e-02,4.32e+00,
15,4.00e-02,3.20e+00,
16,-8.00e-03,3.28e+00,
17,4.80e-02,4.32e+00,
18,4.00e-02,4.32e+00,
19,-2.40e-02,-4.24e+00,
20,3.20e-02,-4.24e+00,
21,-1.60e-02,-3.04e+00,
22,-2.40e-02,-4.24e+00,
23,4.00e-02,-3.04e+00,
24,-3.20e-02,-4.16e+00,
25,3.20e-02,-3.04e+00,
26,-8.00e-03,-4.16e+00,
27,4.00e-02,-2.96e+00,
28,4.00e-02,-4.16e+00,
29,-8.00e-03,-2.96e+00,
30,-8.00e-03,-2.96e+00,
31,4.80e-02,-4.08e+00,
32,-8.00e-03,-4.08e+00,
33,2.40e-02,-2.96e+00,
34,4.00e-02,-2.96e+00,
35,-8.00e-03,-4.08e+00,
36,-1.60e-02,-4.08e+00,
37,4.00e-02,-2.88e+00,
38,0.00e+00,-2.88e+00,
39,4.80e-02,-4.00e+00,
40,-8.00e-03,-4.00e+00,
41,4.80e-02,-2.88e+00,
42,4.80e-02,-2.88e+00,
43,-1.60e-02,-4.00e+00,
44,4.80e-02,-4.00e+00,
45,0.00e+00,-2.80e+00,
46,0.00e+00,-3.92e+00,
47,4.80e-02,-2.80e+00,
48,-2.40e-02,-3.92e+00,
49,4.00e-02,-2.80e+00,
50,2.40e-02,-3.92e+00,
51,-3.20e-02,-2.72e+00,
52,3.20e-02,-3.84e+00,
53,-1.60e-02,-2.72e+00,
54,-1.60e-02,-2.72e+00,
55,3.20e-02,-3.84e+00,
56,3.20e-02,-3.84e+00,
57,-1.60e-02,-2.72e+00,
58,-2.40e-02,-3.84e+00,
59,4.00e-02,-2.64e+00,
60,-2.40e-02,-3.76e+00,
61,2.40e-02,-2.64e+00,
62,-1.60e-02,-2.64e+00,
63,3.20e-02,-3.76e+00,
64,3.20e-02,-3.76e+00,
65,-1.60e-02,-2.64e+00,
66,-1.60e-02,-3.76e+00,
67,4.80e-02,-2.56e+00,
68,2.40e-02,-2.56e+00,
69,-2.40e-02,-3.68e+00,
70,2.40e-02,-2.56e+00,
71,-3.20e-02,-3.68e+00,
72,-1.60e-02,-2.56e+00,
73,4.00e-02,-3.68e+00,
74,-2.40e-02,-3.68e+00,
75,4.00e-02,-2.48e+00,
76,-1.60e-02,-3.60e+00,
77,4.00e-02,-2.48e+00,
78,-1.60e-02,-2.48e+00,
79,4.00e-02,-3.52e+00,
80,-1.60e-02,-3.60e+00,
81,3.20e-02,-2.48e+00,
82,4.00e-02,-3.60e+00,
83,-1.60e-02,-2.40e+00,
84,4.00e-02,-2.40e+00,
85,-1.60e-02,-3.52e+00,
86,3.20e-02,-2.40e+00,
87,-2.40e-02,-3.52e+00,
88,-1.60e-02,-3.44e+00,
89,4.00e-02,-2.40e+00,
90,2.40e-02,-3.44e+00,
91,-2.40e-02,-2.24e+00,
92,3.20e-02,-3.36e+00,
93,-2.40e-02,-2.32e+00,
94,-1.60e-02,-2.32e+00,
95,3.20e-02,-3.36e+00,
96,2.40e-02,-2.32e+00,
97,-2.40e-02,-3.36e+00,
98,4.00e-02,-3.36e+00,
99,-8.00e-03,-2.24e+00,
100,-2.40e-02,-3.28e+00,
101,3.20e-02,-2.16e+00,
102,-2.40e-02,-3.28e+00,
103,4.00e-02,-2.24e+00,
104,4.00e-02,-2.24e+00,
105,-1.60e-02,-3.28e+00,
106,-1.60e-02,-3.28e+00,
107,4.80e-02,-2.08e+00,
108,-1.60e-02,-2.08e+00,
109,4.00e-02,-3.20e+00,
110,-2.40e-02,-3.20e+00,
111,3.20e-02,-2.08e+00,
112,-2.40e-02,-2.08e+00,
113,3.20e-02,-3.20e+00,
114,-1.60e-02,-3.20e+00,
115,2.40e-02,-2.00e+00,
116,-2.40e-02,-3.12e+00,
117,4.00e-02,-2.00e+00,
118,2.40e-02,-3.12e+00,
119,-3.20e-02,-2.00e+00,
120,2.40e-02,-2.00e+00,
121,-3.20e-02,-3.12e+00,
122,-2.40e-02,-3.12e+00,
123,2.40e-02,-1.92e+00,
124,-2.40e-02,-1.92e+00,
125,1.60e-02,-3.04e+00,
126,2.40e-02,-3.04e+00,
127,-4.00e-02,-1.92e+00,
128,-3.20e-02,-1.92e+00,
129,4.00e-02,-3.04e+00,
130,-3.20e-02,-3.04e+00,
131,3.20e-02,-1.84e+00,
132,1.60e-02,-1.84e+00,
133,-3.20e-02,-2.96e+00,
134,-3.20e-02,-1.84e+00,
135,3.20e-02,-2.96e+00,
136,2.40e-02,-1.84e+00,
137,-2.40e-02,-2.96e+00,
138,-1.60e-02,-2.96e+00,
139,3.20e-02,-1.76e+00,
140,-1.60e-02,-1.76e+00,
141,3.20e-02,-2.88e+00,
142,-2.40e-02,-2.88e+00,
143,4.00e-02,-1.76e+00,
144,3.20e-02,-1.76e+00,
145,-2.40e-02,-2.88e+00,
146,4.80e-02,-2.88e+00,
147,-1.60e-02,-1.68e+00,
148,-1.60e-02,-1.68e+00,
149,3.20e-02,-2.80e+00,
150,-2.40e-02,-2.80e+00,
151,4.00e-02,-1.68e+00,
152,-8.00e-03,-1.68e+00,
153,3.20e-02,-2.72e+00,
154,3.20e-02,-2.80e+00,
155,-8.00e-03,-1.60e+00,
156,-1.60e-02,-1.60e+00,
157,4.80e-02,-2.72e+00,
158,-1.60e-02,-2.64e+00,
159,4.00e-02,-1.60e+00,
160,4.00e-02,-1.60e+00,
161,-1.60e-02,-2.72e+00,
162,3.20e-02,-2.72e+00,
163,-2.40e-02,-1.52e+00,
164,4.00e-02,-1.52e+00,
165,-1.60e-02,-2.64e+00,
166,-2.40e-02,-1.52e+00,
167,3.20e-02,-2.64e+00,
168,-2.40e-02,-1.52e+00,
169,3.20e-02,-2.64e+00,
170,-2.40e-02,-2.56e+00,
171,4.00e-02,-1.44e+00,
172,-2.40e-02,-1.44e+00,
173,3.20e-02,-2.56e+00,
174,3.20e-02,-1.44e+00,
175,-2.40e-02,-2.56e+00,
176,-1.60e-02,-1.44e+00,
177,3.20e-02,-2.48e+00,
178,3.20e-02,-2.48e+00,
179,-2.40e-02,-1.36e+00,
180,-1.60e-02,-2.40e+00,
181,4.00e-02,-1.28e+00,
182,-2.40e-02,-2.40e+00,
183,3.20e-02,-1.28e+00,
184,-8.00e-03,-2.40e+00,
185,4.00e-02,-1.36e+00,
186,-1.60e-02,-2.40e+00,
187,4.80e-02,-1.20e+00,
188,-1.60e-02,-2.32e+00,
189,3.20e-02,-1.20e+00,
190,4.80e-02,-1.20e+00,
191,-1.60e-02,-2.32e+00,
192,-1.60e-02,-1.20e+00,
193,4.00e-02,-2.32e+00,
194,-8.00e-03,-2.32e+00,
195,4.00e-02,-1.12e+00,
196,5.60e-02,-2.24e+00,
197,-1.60e-02,-1.12e+00,
198,-8.00e-03,-2.24e+00,
199,4.00e-02,-1.12e+00,
200,4.00e-02,-2.24e+00,
201,-1.60e-02,-1.12e+00,
202,3.20e-02,-2.24e+00,
203,-1.60e-02,-1.04e+00,
204,-1.60e-02,-2.16e+00,
205,4.00e-02,-1.04e+00,
206,-1.60e-02,-2.16e+00,
207,4.80e-02,-1.04e+00,
208,4.00e-02,-2.16e+00,
209,0.00e+00,-1.04e+00,
210,-8.00e-03,-2.16e+00,
211,4.00e-02,-9.60e-01,
212,-8.00e-03,-2.08e+00,
213,4.80e-02,-9.60e-01,
214,4.80e-02,-2.08e+00,
215,-1.60e-02,-9.60e-01,
216,-1.60e-02,-2.08e+00,
217,5.60e-02,-9.60e-01,
218,-8.00e-03,-2.08e+00,
219,4.00e-02,-8.80e-01,
220,4.00e-02,-2.00e+00,
221,-4.80e-02,-8.80e-01,
222,4.00e-02,-2.00e+00,
223,-1.60e-02,-8.80e-01,
224,-3.20e-02,-2.00e+00,
225,4.80e-02,-8.80e-01,
226,-1.60e-02,-1.92e+00,
227,4.80e-02,-8.00e-01,
228,4.00e-02,-1.92e+00,
229,-2.40e-02,-8.00e-01,
230,-8.00e-03,-8.00e-01,
231,3.20e-02,-1.92e+00,
232,-1.60e-02,-1.92e+00,
233,3.20e-02,-8.00e-01,
234,-1.60e-02,-1.92e+00,
235,4.00e-02,-7.20e-01,
236,4.00e-02,-7.20e-01,
237,-2.40e-02,-1.84e+00,
238,-1.60e-02,-7.20e-01,
239,2.40e-02,-1.84e+00,
240,-1.60e-02,-1.84e+00,
241,4.00e-02,-6.40e-01,
242,-2.40e-02,-6.40e-01,
243,4.00e-02,-1.76e+00,
244,-8.00e-03,-1.76e+00,
245,3.20e-02,-6.40e-01,
246,3.20e-02,-6.40e-01,
247,-1.60e-02,-1.76e+00,
248,3.20e-02,-1.76e+00,
249,-1.60e-02,-5.60e-01,
250,-1.60e-02,-5.60e-01,
251,4.80e-02,-1.76e+00,
252,-8.00e-03,-1.60e+00,
253,4.00e-02,-5.60e-01,
254,-1.60e-02,-1.68e+00,
255,4.00e-02,-5.60e-01,
256,-1.60e-02,-1.60e+00,
257,4.80e-02,-4.80e-01,
258,-1.60e-02,-1.60e+00,
259,2.40e-02,-4.80e-01,
260,-3.20e-02,-4.80e-01,
261,2.40e-02,-1.60e+00,
262,3.20e-02,-1.52e+00,
263,-1.60e-02,-4.80e-01,
264,-2.40e-02,-1.52e+00,
265,2.40e-02,-4.00e-01,
266,-2.40e-02,-1.60e+00,
267,2.40e-02,-4.00e-01,
268,1.60e-02,-1.44e+00,
269,-3.20e-02,-3.20e-01,
270,1.60e-02,-1.44e+00,
271,-3.20e-02,-4.00e-01,
272,-2.40e-02,-1.44e+00,
273,2.40e-02,-2.40e-01,
274,3.20e-02,-1.44e+00,
275,-2.40e-02,-2.40e-01,
276,3.20e-02,-1.36e+00,
277,-3.20e-02,-2.40e-01,
278,-1.60e-02,-1.36e+00,
279,4.00e-02,-2.40e-01,
280,-2.40e-02,-1.36e+00,
281,3.20e-02,-1.60e-01,
282,-3.20e-02,-1.36e+00,
283,2.40e-02,-1.60e-01,
284,4.80e-02,-1.60e-01,
285,-3.20e-02,-1.28e+00,
286,-5.60e-02,-1.60e-01,
287,3.20e-02,-1.28e+00,
288,9.60e-02,-1.28e+00,
289,-3.20e-02,-8.00e-02,
290,-2.40e-02,-1.28e+00,
291,8.80e-02,-8.00e-02,
292,6.40e-02,-8.00e-02,
293,-4.80e-02,-1.20e+00,
294,1.60e-02,-1.20e+00,
295,-9.60e-02,-8.00e-02,
296,-5.60e-02,-8.00e-02,
297,-1.84e-01,-1.20e+00,
298,-1.36e-01,-1.20e+00,
299,-2.80e-01,0.00e+00,
300,-2.16e-01,0.00e+00,
301,-3.60e-01,-1.12e+00,
302,-3.12e-01,-1.12e+00,
303,-4.24e-01,0.00e+00,
304,-3.76e-01,-1.12e+00,
305,-4.96e-01,8.00e-02,
306,-4.56e-01,-1.12e+00,
307,-5.76e-01,8.00e-02,
308,-5.36e-01,8.00e-02,
309,-6.40e-01,-1.04e+00,
310,-6.16e-01,-1.04e+00,
311,-6.88e-01,8.00e-02,
312,-6.56e-01,-1.04e+00,
313,-7.20e-01,1.60e-01,
314,-7.36e-01,-1.04e+00,
315,-6.80e-01,1.60e-01,
316,-7.36e-01,1.60e-01,
317,-6.64e-01,-9.60e-01,
318,-7.20e-01,-9.60e-01,
319,-6.56e-01,1.60e-01,
320,-7.04e-01,-9.60e-01,
321,-6.00e-01,2.40e-01,
322,-6.48e-01,-9.60e-01,
323,-5.52e-01,2.40e-01,
324,-6.00e-01,2.40e-01,
325,-4.64e-01,-8.80e-01,
326,-5.20e-01,-8.80e-01,
327,-3.92e-01,2.40e-01,
328,-4.32e-01,2.40e-01,
329,-3.12e-01,-8.80e-01,
330,-3.60e-01,3.20e-01,
331,-2.08e-01,-8.80e-01,
332,-2.48e-01,3.20e-01,
333,-6.40e-02,-8.80e-01,
334,-1.20e-01,-8.00e-01,
335,6.40e-02,3.20e-01,
336,3.20e-02,3.20e-01,
337,2.16e-01,-8.00e-01,
338,1.44e-01,-8.00e-01,
339,3.20e-01,4.00e-01,
340,2.40e-01,4.00e-01,
341,3.28e-01,-8.00e-01,
342,2.96e-01,-7.20e-01,
343,3.68e-01,4.00e-01,
344,3.28e-01,4.00e-01,
345,3.84e-01,-7.20e-01,
346,3.92e-01,-7.20e-01,
347,3.28e-01,4.80e-01,
348,3.44e-01,-6.40e-01,
349,3.92e-01,4.80e-01,
350,3.44e-01,4.80e-01,
351,4.00e-01,-6.40e-01,
352,3.44e-01,4.80e-01,
353,3.92e-01,-6.40e-01,
354,3.92e-01,6.40e-01,
355,3.20e-01,-5.60e-01,
356,3.84e-01,-6.40e-01,
357,3.20e-01,5.60e-01,
358,3.52e-01,-4.80e-01,
359,2.88e-01,6.40e-01,
360,3.52e-01,5.60e-01,
361,2.88e-01,-5.60e-01,
362,3.36e-01,-4.80e-01,
363,2.80e-01,7.20e-01,
364,3.20e-01,-4.80e-01,
365,2.72e-01,7.20e-01,
366,3.20e-01,7.20e-01,
367,2.32e-01,-4.00e-01,
368,3.04e-01,-4.00e-01,
369,2.40e-01,7.20e-01,
370,2.88e-01,-4.00e-01,
371,2.00e-01,8.00e-01,
372,2.72e-01,-4.00e-01,
373,2.16e-01,8.00e-01,
374,2.00e-01,8.00e-01,
375,2.56e-01,-3.20e-01,
376,2.48e-01,-3.20e-01,
377,1.92e-01,8.00e-01,
378,1.92e-01,-3.20e-01,
379,2.40e-01,8.80e-01,
380,1.76e-01,-3.20e-01,
381,2.24e-01,8.80e-01,
382,2.16e-01,-2.40e-01,
383,1.52e-01,8.80e-01,
384,1.44e-01,-2.40e-01,
385,1.92e-01,8.80e-01,
386,1.92e-01,-2.40e-01,
387,1.36e-01,9.60e-01,
388,1.28e-01,-2.40e-01,
389,1.84e-01,9.60e-01,
390,1.20e-01,9.60e-01,
391,1.68e-01,-1.60e-01,
392,1.60e-01,9.60e-01,
393,1.04e-01,-1.60e-01,
394,1.52e-01,1.04e+00,
395,1.04e-01,-1.60e-01,
396,1.36e-01,1.04e+00,
397,9.60e-02,-8.00e-02,
398,8.80e-02,-8.00e-02,
399,1.36e-01,1.04e+00,
400,1.28e-01,-8.00e-02,
401,7.20e-02,1.04e+00,
402,8.00e-02,0.00e+00,
403,1.36e-01,1.12e+00,
404,8.00e-02,0.00e+00,
405,1.44e-01,1.12e+00,
406,7.20e-02,1.12e+00,
407,1.20e-01,0.00e+00,
408,1.20e-01,0.00e+00,
409,6.40e-02,1.12e+00,
410,1.20e-01,8.00e-02,
411,5.60e-02,1.20e+00,
412,9.60e-02,8.00e-02,
413,4.80e-02,1.20e+00,
414,8.80e-02,1.20e+00,
415,4.00e-02,8.00e-02,
416,8.80e-02,1.20e+00,
417,4.80e-02,8.00e-02,
418,3.20e-02,1.28e+00,
419,8.00e-02,1.60e-01,
420,2.40e-02,1.60e-01,
421,8.80e-02,1.28e+00,
422,8.00e-02,1.28e+00,
423,2.40e-02,1.60e-01,
424,8.00e-02,1.60e-01,
425,3.20e-02,1.28e+00,
426,2.40e-02,2.40e-01,
427,7.20e-02,1.36e+00,
428,8.00e-03,1.36e+00,
429,7.20e-02,2.40e-01,
430,7.20e-02,3.20e-01,
431,1.60e-02,1.36e+00,
432,1.60e-02,1.36e+00,
433,7.20e-02,2.40e-01,
434,7.20e-02,3.20e-01,
435,8.00e-03,1.44e+00,
436,1.60e-02,1.44e+00,
437,6.40e-02,3.20e-01,
438,6.40e-02,4.00e-01,
439,2.40e-02,1.44e+00,
440,2.40e-02,1.44e+00,
441,7.20e-02,3.20e-01,
442,6.40e-02,4.00e-01,
443,2.40e-02,1.52e+00,
444,6.40e-02,1.52e+00,
445,0.00e+00,4.80e-01,
446,6.40e-02,4.80e-01,
447,8.00e-03,1.60e+00,
448,8.00e-03,1.52e+00,
449,4.80e-02,4.80e-01,
450,8.00e-03,4.80e-01,
451,5.60e-02,1.60e+00,
452,0.00e+00,5.60e-01,
453,4.80e-02,1.68e+00,
454,-8.00e-03,5.60e-01,
455,4.80e-02,1.68e+00,
456,-8.00e-03,1.60e+00,
457,4.80e-02,5.60e-01,
458,5.60e-02,5.60e-01,
459,-8.00e-03,1.68e+00,
460,4.00e-02,1.76e+00,
461,-8.00e-03,6.40e-01,
462,3.20e-02,6.40e-01,
463,-8.00e-03,1.76e+00,
464,-8.00e-03,1.76e+00,
465,4.80e-02,6.40e-01,
466,-8.00e-03,6.40e-01,
467,4.00e-02,1.76e+00,
468,4.00e-02,7.20e-01,
469,-8.00e-03,1.84e+00,
470,5.60e-02,7.20e-01,
471,-8.00e-03,1.84e+00,
472,4.80e-02,7.20e-01,
473,-8.00e-03,1.84e+00,
474,-1.60e-02,7.20e-01,
475,3.20e-02,1.92e+00,
476,4.00e-02,1.92e+00,
477,-1.60e-02,8.00e-01,
478,4.00e-02,1.92e+00,
479,-8.00e-03,8.00e-01,
480,3.20e-02,1.92e+00,
481,-1.60e-02,8.00e-01,
482,4.00e-02,8.80e-01,
483,-1.60e-02,2.00e+00,
484,-8.00e-03,2.00e+00,
485,4.00e-02,8.80e-01,
486,4.00e-02,8.80e-01,
487,-8.00e-03,2.00e+00,
488,-1.60e-02,2.00e+00,
489,4.00e-02,8.80e-01,
490,-1.60e-02,8.80e-01,
491,3.20e-02,2.08e+00,
492,4.80e-02,9.60e-01,
493,-1.60e-02,2.08e+00,
494,4.80e-02,2.08e+00,
495,-1.04e-01,9.60e-01,
496,-4.80e-02,9.60e-01,
497,9.60e-02,2.08e+00,
498,-6.40e-02,1.04e+00,
499,1.12e-01,2.16e+00,
500,2.40e-02,2.16e+00,
501,1.36e-01,1.04e+00,
502,5.60e-02,1.04e+00,
503,1.36e-01,2.16e+00,
504,1.28e-01,2.16e+00,
505,4.80e-02,1.04e+00,
506,1.04e-01,1.04e+00,
507,4.80e-02,2.24e+00,
508,7.20e-02,2.24e+00,
509,-8.00e-03,1.12e+00,
510,-6.40e-02,1.12e+00,
511,4.80e-02,2.24e+00,
512,-2.40e-02,1.12e+00,
513,6.40e-02,2.24e+00,
514,-8.00e-03,1.12e+00,
515,8.00e-02,2.32e+00,
516,8.00e-02,1.20e+00,
517,-2.40e-02,2.32e+00,
518,6.40e-02,2.32e+00,
519,-6.40e-02,1.20e+00,
520,-3.20e-02,2.32e+00,
521,5.60e-02,1.20e+00,
522,-3.20e-02,2.40e+00,
523,7.20e-02,1.28e+00,
524,2.40e-02,2.40e+00,
525,-1.20e-01,1.28e+00,
526,-4.80e-02,2.40e+00,
527,-1.68e-01,1.36e+00,
528,-8.00e-03,1.36e+00,
529,-1.20e-01,2.40e+00,
530,-2.40e-02,2.48e+00,
531,-1.68e-01,1.36e+00,
532,-1.44e-01,2.48e+00,
533,-4.00e-02,1.36e+00,
534,-8.80e-02,1.36e+00,
535,-1.60e-02,2.56e+00,
536,-8.00e-03,1.44e+00,
537,-4.80e-02,2.48e+00,
538,-5.60e-02,1.52e+00,
539,4.00e-02,2.64e+00,
540,-2.40e-02,1.52e+00,
541,3.20e-02,2.56e+00,
542,-1.60e-02,1.52e+00,
543,5.60e-02,2.64e+00,
544,8.00e-03,1.52e+00,
545,6.40e-02,2.64e+00,
546,6.40e-02,1.52e+00,
547,1.60e-02,2.72e+00,
548,6.40e-02,1.60e+00,
549,1.60e-02,2.72e+00,
550,0.00e+00,2.72e+00,
551,9.60e-02,1.60e+00,
552,1.12e-01,1.60e+00,
553,-1.60e-02,2.72e+00,
554,7.20e-02,1.60e+00,
555,1.60e-02,2.80e+00,
556,8.00e-02,1.68e+00,
557,8.00e-03,2.80e+00,
558,8.00e-02,2.80e+00,
559,1.60e-02,1.68e+00,
560,6.40e-02,1.68e+00,
561,8.00e-03,2.80e+00,
562,6.40e-02,1.68e+00,
563,0.00e+00,2.88e+00,
564,5.60e-02,1.76e+00,
565,-2.40e-02,2.88e+00,
566,4.80e-02,1.76e+00,
567,0.00e+00,2.88e+00,
568,4.00e-02,2.88e+00,
569,-8.00e-03,1.76e+00,
570,0.00e+00,1.84e+00,
571,6.40e-02,2.96e+00,
572,4.80e-02,1.84e+00,
573,-8.00e-03,2.96e+00,
574,-4.00e-02,2.96e+00,
575,4.00e-02,1.84e+00,
576,-4.00e-02,1.84e+00,
577,4.80e-02,2.96e+00,
578,4.00e-02,1.92e+00,
579,-8.00e-03,3.04e+00,
580,4.80e-02,1.92e+00,
581,-8.00e-03,3.04e+00,
582,-1.60e-02,3.04e+00,
583,4.00e-02,1.92e+00,
584,0.00e+00,1.92e+00,
585,5.60e-02,3.04e+00,
586,4.80e-02,3.12e+00,
587,-1.60e-02,1.92e+00,
588,3.20e-02,2.00e+00,
589,-1.60e-02,3.12e+00,
590,-2.40e-02,3.12e+00,
591,4.80e-02,2.00e+00,
592,-8.00e-03,3.12e+00,
593,4.00e-02,2.00e+00,
594,4.00e-02,2.00e+00,
595,-1.60e-02,3.20e+00,
596,4.00e-02,3.20e+00,
597,-1.60e-02,2.08e+00,
598,3.20e-02,2.08e+00,
599,-1.60e-02,3.20e+00,
600,-3.20e-02,3.20e+00,
601,4.00e-02,2.08e+00,
602,-5.60e-02,2.08e+00,
603,4.80e-02,3.28e+00,
604,-2.40e-02,3.28e+00,
605,7.20e-02,2.16e+00,
606,3.20e-02,3.28e+00,
607,-1.20e-01,2.16e+00,
608,-9.60e-02,3.28e+00,
609,1.60e-02,2.16e+00,
610,-1.04e-01,2.24e+00,
611,1.60e-02,3.36e+00,
612,-7.20e-02,3.36e+00,
613,-1.60e-02,2.24e+00,
614,-5.60e-02,3.36e+00,
615,0.00e+00,2.24e+00,
616,-4.00e-02,2.32e+00,
617,1.60e-02,3.44e+00,
618,-4.80e-02,2.32e+00,
619,2.40e-02,3.44e+00,
620,1.60e-02,3.44e+00,
621,-4.00e-02,2.40e+00,
622,-3.20e-02,3.44e+00,
623,3.20e-02,2.32e+00,
624,1.60e-02,2.40e+00,
625,-1.60e-02,3.52e+00,
626,2.40e-02,2.40e+00,
627,-2.40e-02,3.52e+00,
628,3.20e-02,2.48e+00,
629,-2.40e-02,3.60e+00,
630,4.00e-02,2.48e+00,
631,-2.40e-02,3.60e+00,
632,-1.60e-02,2.48e+00,
633,3.20e-02,3.60e+00,
634,-3.20e-02,2.48e+00,
635,3.20e-02,3.68e+00,
636,-2.40e-02,3.68e+00,
637,4.00e-02,2.56e+00,
638,-1.60e-02,2.56e+00,
639,3.20e-02,3.68e+00,
640,-1.60e-02,3.68e+00,
641,3.20e-02,2.56e+00,
642,3.20e-02,3.76e+00,
643,-1.60e-02,2.56e+00,
644,2.40e-02,3.76e+00,
645,-2.40e-02,2.64e+00,
646,-1.60e-02,2.64e+00,
647,4.00e-02,3.76e+00,
648,4.00e-02,2.64e+00,
649,-8.00e-03,3.84e+00,
650,-8.00e-03,2.72e+00,
651,4.00e-02,3.84e+00,
652,-1.60e-02,3.84e+00,
653,4.00e-02,2.72e+00,
654,-2.40e-02,2.72e+00,
655,4.00e-02,3.84e+00,
656,-1.60e-02,2.72e+00,
657,4.00e-02,3.84e+00,
658,-2.40e-02,2.72e+00,
659,3.20e-02,3.92e+00,
660,2.40e-02,3.92e+00,
661,-8.00e-03,2.80e+00,
662,-1.60e-02,2.80e+00,
663,4.00e-02,3.92e+00,
664,3.20e-02,3.92e+00,
665,-1.60e-02,2.80e+00,
666,-2.40e-02,2.88e+00,
667,3.20e-02,4.00e+00,
668,-3.20e-02,4.00e+00,
669,2.40e-02,2.88e+00,
670,2.40e-02,2.88e+00,
671,-2.40e-02,4.00e+00,
672,3.20e-02,4.00e+00,
673,-2.40e-02,2.88e+00,
674,-3.20e-02,2.88e+00,
675,3.20e-02,4.08e+00,
676,-3.20e-02,4.08e+00,
677,4.00e-02,2.96e+00,
678,3.20e-02,4.08e+00,
679,-1.60e-02,2.96e+00,
680,2.40e-02,2.96e+00,
681,-3.20e-02,4.08e+00,
682,-2.40e-02,2.96e+00,
683,4.00e-02,4.16e+00,
684,3.20e-02,3.04e+00,
685,-2.40e-02,4.16e+00,
686,2.40e-02,4.16e+00,
687,-3.20e-02,3.12e+00,
688,2.40e-02,4.16e+00,
689,-3.20e-02,3.04e+00,
690,-2.40e-02,4.24e+00,
691,2.40e-02,3.12e+00,
692,-2.40e-02,3.12e+00,
693,2.40e-02,4.24e+00,
694,2.40e-02,3.12e+00,
695,-1.60e-02,4.24e+00,
696,-3.20e-02,3.12e+00,
697,3.20e-02,4.24e+00,
698,2.40e-02,3.20e+00,
699,-4.00e-02,4.32e+00,
700,-3.20e-02,4.32e+00,
701,2.40e-02,3.20e+00,
702,-2.40e-02,4.32e+00,
703,3.20e-02,-3.92e+00,
704,-5.60e-02,-4.24e+00,
705,1.60e-02,-3.12e+00,
706,-3.20e-02,-4.24e+00,
707,4.00e-02,-3.04e+00,
708,-2.40e-02,-4.16e+00,
709,4.00e-02,-3.04e+00,
710,2.40e-02,-3.04e+00,
711,-3.20e-02,-4.16e+00,
712,-2.40e-02,-4.16e+00,
713,4.80e-02,-2.96e+00,
714,-3.20e-02,-2.96e+00,
715,3.20e-02,-4.16e+00,
716,-4.80e-02,-4.08e+00,
717,4.00e-02,-2.96e+00,
718,2.40e-02,-2.96e+00,
719,-1.60e-02,-4.08e+00,
720,4.00e-02,-4.08e+00,
721,-1.60e-02,-2.88e+00,
722,-1.60e-02,-4.08e+00,
723,4.80e-02,-2.88e+00,
724,4.00e-02,-4.00e+00,
725,-1.60e-02,-2.88e+00,
726,4.00e-02,-2.88e+00,
727,-2.40e-02,-4.00e+00,
728,4.00e-02,-4.00e+00,
729,-1.60e-02,-2.80e+00,
730,-2.40e-02,-2.80e+00,
731,4.80e-02,-3.92e+00,
732,-1.60e-02,-3.92e+00,
733,4.00e-02,-2.80e+00,
734,3.20e-02,-2.80e+00,
735,-3.20e-02,-3.92e+00,
736,4.00e-02,-2.80e+00,
737,-8.00e-03,-3.92e+00,
738,-1.60e-02,-2.72e+00,
739,4.80e-02,-3.84e+00,
740,5.60e-02,-3.84e+00,
741,-7.20e-02,-2.72e+00,
742,3.20e-02,-2.72e+00,
743,-3.20e-02,-3.84e+00,
744,-3.20e-02,-3.84e+00,
745,3.20e-02,-2.64e+00,
746,-2.40e-02,-2.64e+00,
747,3.20e-02,-3.76e+00,
748,-2.40e-02,-2.64e+00,
749,4.00e-02,-3.76e+00,
750,-2.40e-02,-2.64e+00,
751,3.20e-02,-3.76e+00,
752,4.00e-02,-3.68e+00,
753,-1.60e-02,-2.56e+00,
754,4.80e-02,-2.56e+00,
755,-2.40e-02,-3.68e+00,
756,-2.40e-02,-3.68e+00,
757,3.20e-02,-2.56e+00,
758,3.20e-02,-2.56e+00,
759,-1.60e-02,-3.68e+00,
760,4.80e-02,-3.60e+00,
761,-1.60e-02,-2.48e+00,
762,2.40e-02,-3.52e+00,
763,-8.00e-03,-2.48e+00,
764,5.60e-02,-2.48e+00,
765,-1.60e-02,-3.52e+00,
766,3.20e-02,-2.48e+00,
767,-8.00e-03,-3.60e+00,
768,-1.60e-02,-3.60e+00,
769,3.20e-02,-2.40e+00,
770,-1.60e-02,-3.52e+00,
771,4.00e-02,-2.40e+00,
772,3.20e-02,-2.40e+00,
773,-8.00e-03,-3.44e+00,
774,4.00e-02,-2.40e+00,
775,-8.00e-03,-3.52e+00,
776,-1.60e-02,-3.52e+00,
777,4.80e-02,-2.24e+00,
778,-1.60e-02,-3.36e+00,
779,3.20e-02,-2.32e+00,
780,-1.60e-02,-2.32e+00,
781,4.00e-02,-3.36e+00,
782,3.20e-02,-3.36e+00,
783,-8.00e-03,-2.32e+00,
784,-2.40e-02,-3.36e+00,
785,4.80e-02,-2.16e+00,
786,4.00e-02,-3.28e+00,
787,-2.40e-02,-2.24e+00,
788,4.00e-02,-3.28e+00,
789,-8.00e-03,-2.16e+00,
790,4.80e-02,-3.28e+00,
791,-1.60e-02,-2.24e+00,
792,-8.00e-03,-3.28e+00,
793,4.80e-02,-2.08e+00,
794,-8.00e-03,-3.20e+00,
795,4.80e-02,-2.08e+00,
796,4.00e-02,-2.08e+00,
797,-3.20e-02,-3.20e+00,
798,4.80e-02,-3.20e+00,
799,-8.00e-03,-2.08e+00,
800,4.80e-02,-3.20e+00,
801,0.00e+00,-2.00e+00,
802,4.80e-02,-3.12e+00,
803,0.00e+00,-2.00e+00,
804,4.80e-02,-2.00e+00,
805,0.00e+00,-3.12e+00,
806,4.80e-02,-2.00e+00,
807,-8.00e-03,-3.12e+00,
808,-1.60e-02,-3.12e+00,
809,4.80e-02,-1.92e+00,
810,4.00e-02,-1.92e+00,
811,-2.40e-02,-3.04e+00,
812,4.00e-02,-1.92e+00,
813,-3.20e-02,-3.04e+00,
814,-8.00e-03,-3.04e+00,
815,4.80e-02,-1.92e+00,
816,-1.60e-02,-3.04e+00,
817,5.60e-02,-1.84e+00,
818,3.20e-02,-2.96e+00,
819,-1.60e-02,-1.84e+00,
820,-8.00e-03,-1.84e+00,
821,7.20e-02,-2.96e+00,
822,4.80e-02,-2.96e+00,
823,0.00e+00,-1.84e+00,
824,-1.60e-02,-2.96e+00,
825,6.40e-02,-1.76e+00,
826,-8.00e-03,-1.76e+00,
827,4.00e-02,-2.88e+00,
828,-8.00e-03,-1.76e+00,
829,5.60e-02,-2.80e+00,
830,-8.00e-03,-2.88e+00,
831,4.00e-02,-1.76e+00,
832,3.20e-02,-1.68e+00,
833,-3.20e-02,-2.80e+00,
834,4.00e-02,-1.68e+00,
